Time,Hex,Flight,Altitude,Speed,Lat,Lon,Track,Messages,Company
2018-12-25 12:46:39,4baa79,,0,0,0.000000,0.000000,0,1,Unknown
2018-12-25 12:47:25,4baac5,THY87P  ,12184,751,44.098469,24.043056,313,106,Turkish Airlines
2018-12-25 12:47:39,06a2b7,QTR006  ,10661,914,0.000000,0.000000,126,9,Qatar Airways
2018-12-25 12:47:56,4baa79,,0,774,0.000000,0.000000,312,2,Unknown
2018-12-25 12:49:46,4baa61,THY1CD  ,10357,775,44.133896,24.025661,313,909,Turkish Airlines
2018-12-25 12:50:26,4baa4a,,9763,764,43.124224,24.678563,297,4,Unknown
2018-12-25 12:51:11,4baa61,,10357,0,0.000000,0.000000,0,1,Unknown
2018-12-25 12:51:12,4ba892,THY6498 ,11880,927,43.808807,24.067979,131,199,Turkish Airlines
2018-12-25 12:52:18,4a360d,,327,0,0.000000,0.000000,0,265,Unknown
2018-12-25 12:53:3,4ba892,THY6498 ,11880,937,0.000000,0.000000,132,10,Turkish Airlines
2018-12-25 12:53:8,06a2b7,QTR006  ,10661,0,0.000000,0.000000,0,15,Qatar Airways
2018-12-25 12:53:19,4baa64,,0,796,0.000000,0.000000,307,1,Unknown
2018-12-25 12:54:23,70c0a7,,0,0,0.000000,0.000000,0,3,Unknown
2018-12-25 12:54:42,4a360d,,0,0,0.000000,0.000000,0,3,Unknown
2018-12-25 12:54:55,06a045,,0,0,0.000000,0.000000,0,1,Unknown
2018-12-25 12:55:14,70c0f9,,11880,944,0.000000,0.000000,126,10,Unknown
2018-12-25 12:56:6,4b9063,PGT4BU  ,10966,811,45.156416,24.338334,311,930,Pegasus Airlines
2018-12-25 12:56:13,06a122,QTR007  ,11575,838,44.817581,24.402727,302,2587,Qatar Airways
2018-12-25 12:56:20,4a360d,,0,0,0.000000,0.000000,0,2,Unknown
2018-12-25 12:57:17,8964fb,,0,933,0.000000,0.000000,102,1,Unknown
2018-12-25 12:58:18,06a122,QTR007  ,11575,837,0.000000,0.000000,302,5,Qatar Airways
2018-12-25 12:58:38,4baa4a,THY2AD  ,9763,753,43.519825,23.554818,296,29,Turkish Airlines
2018-12-25 12:58:52,8963ce,,0,0,0.000000,0.000000,0,2,Unknown
2018-12-25 12:59:30,06a122,,0,0,0.000000,0.000000,0,1,Unknown
2018-12-25 13:0:21,4bbca1,BGH6811 ,10364,0,0.000000,0.000000,0,2924,BH Air
2018-12-25 13:0:55,4baa4a,THY2AD  ,9732,763,43.627314,23.240858,296,55,Turkish Airlines
2018-12-25 13:1:19,8964fb,ETD44T  ,11270,957,43.580250,23.124651,102,51,Etihad Airways
2018-12-25 13:1:45,70c0a7,,11270,924,44.711288,25.293078,127,12,Unknown
2018-12-25 13:3:25,4baa81,THY4JV  ,11567,759,44.218552,23.903242,312,1646,Turkish Airlines
2018-12-25 13:3:38,392ae2,AFR87AT ,6450,724,45.023835,24.480621,116,99,Air France
2018-12-25 13:4:50,8964d4,FDB5BT  ,10357,796,44.598495,24.500558,281,2216,Flydubai
2018-12-25 13:7:1,392ae2,,3769,711,44.863907,24.938115,116,3,Unknown
2018-12-25 13:7:51,8964fb,,0,0,0.000000,0.000000,0,1,Unknown
2018-12-25 13:8:26,4baa64,THY1FN  ,10966,763,44.359818,23.661608,312,1839,Turkish Airlines
2018-12-25 13:9:22,8964fb,,0,0,0.000000,0.000000,0,4,Unknown
2018-12-25 13:9:46,8961a4,,11902,929,44.978622,24.528285,122,325,Unknown
2018-12-25 13:10:6,471f4d,WZZ4ZG  ,8849,737,0.000000,0.000000,291,35,Wizz Air
2018-12-25 13:10:53,06a053,,10646,914,45.293106,24.207720,124,39,Unknown
2018-12-25 13:12:6,06a053,,10654,911,0.000000,0.000000,125,6,Unknown
2018-12-25 13:12:13,89613d,ETD76R  ,11895,933,44.999860,24.487052,122,103,Etihad Airways
2018-12-25 13:12:50,89644c,UAE54   ,10661,953,44.429077,25.421644,122,1635,Emirates Airlines
2018-12-25 13:14:11,89613d,,11887,922,44.832133,24.852615,122,25,Unknown
2018-12-25 13:16:1,3c66a7,DLH696  ,10661,909,44.376068,25.424652,122,2427,Lufthansa
2018-12-25 13:16:4,8961a4,ETD24   ,11887,913,44.509460,25.541643,123,203,Etihad Airways
2018-12-25 13:18:30,89613d,,11887,907,0.000000,0.000000,123,68,Unknown
2018-12-25 13:18:57,896342,,10661,0,0.000000,0.000000,0,1,Unknown
2018-12-25 13:20:29,76cd7a,,10661,942,0.000000,0.000000,98,17,Unknown
2018-12-25 13:21:8,896342,,10661,950,0.000000,0.000000,104,18,Unknown
2018-12-25 13:24:22,4bb84c,PGT72F  ,11270,901,43.686813,23.946299,132,278,Pegasus Airlines
2018-12-25 13:25:7,7335b1,IRM103  ,11880,938,44.449753,25.447484,117,1063,Mahan Air
2018-12-25 13:26:8,76cd7a,,10661,938,0.000000,0.000000,99,4,Unknown
2018-12-25 13:26:17,4bb84c,,11278,896,0.000000,0.000000,132,12,Unknown
2018-12-25 13:27:11,76cd7a,,10661,0,0.000000,0.000000,0,5,Unknown
2018-12-25 13:27:33,896342,,0,0,0.000000,0.000000,0,1,Unknown
2018-12-25 13:28:5,60084f,,10037,857,45.087891,24.411554,112,4,Unknown
2018-12-25 13:28:17,4b8750,,0,787,0.000000,0.000000,307,3,Unknown
2018-12-25 13:28:56,896342,,10661,951,0.000000,0.000000,104,14,Unknown
2018-12-25 13:31:26,06a1e9,QTR8204 ,10661,942,44.853012,24.803598,122,403,Qatar Airways
2018-12-25 13:31:36,896170,UAE9988 ,10075,937,44.609054,25.265272,123,926,Emirates Airlines
2018-12-25 13:33:35,70605e,KAC101  ,10357,853,44.801548,24.432723,302,2112,Kuwait Airways
2018-12-25 13:34:8,06a01c,QAF5    ,11880,927,44.448589,25.441321,117,1256,Qatar Amiri Flight
2018-12-25 13:34:22,06a2b3,QTR3XF  ,10669,937,44.868484,24.772927,122,921,Qatar Airways
2018-12-25 13:34:26,06a1e9,,10052,922,44.707885,25.117761,123,23,Unknown
2018-12-25 13:34:39,489786,,8308,0,0.000000,0.000000,0,30,Unknown
2018-12-25 13:35:27,506c2f,DLH3TN  ,10357,781,45.414734,24.027230,296,161,Lufthansa
2018-12-25 13:35:37,06a2b3,,0,0,0.000000,0.000000,0,1,Unknown
2018-12-25 13:35:56,06a02b,,10044,0,0.000000,0.000000,0,1,Unknown
2018-12-25 13:36:25,06a062,,10654,0,0.000000,0.000000,0,2,Unknown
2018-12-25 13:37:49,06a2b3,QTR3XF  ,10661,0,44.629444,25.288652,0,43,Qatar Airways
2018-12-25 13:38:37,4b8750,PGT9WA  ,11575,746,44.904475,24.345435,305,2208,Pegasus Airlines
2018-12-25 13:42:32,4bb854,PGT9D   ,11278,900,43.859051,24.142456,137,160,Pegasus Airlines
2018-12-25 13:43:31,06a062,,0,0,0.000000,0.000000,0,1,Unknown
2018-12-25 13:44:21,4bb854,,11270,894,0.000000,0.000000,137,5,Unknown
2018-12-25 13:46:32,8964d2,FDB4PA  ,12177,803,44.437592,24.109759,287,4576,Flydubai
2018-12-25 13:47:9,4bb854,PGT9D   ,11270,875,43.358002,24.774873,137,80,Pegasus Airlines
2018-12-25 13:47:12,49d1c6,,10661,896,0.000000,0.000000,173,15,Unknown
