2019-3-1 17:2:8,48d855,,0,0,0.000000,0.000000,0,1,Unknown
2019-3-1 17:2:8,48d855,,6092,0,0.000000,0.000000,0,4,Unknown
2019-3-1 17:2:8,48d855,,6092,0,0.000000,0.000000,0,10,Unknown
2019-3-1 17:2:8,48d855,,6092,0,0.000000,0.000000,0,11,Unknown
2019-3-1 17:2:8,48d855,,6092,0,0.000000,0.000000,0,12,Unknown
2019-3-1 17:2:8,48d855,,6092,0,0.000000,0.000000,0,15,Unknown
2019-3-1 17:2:8,48d855,,6092,0,0.000000,0.000000,0,23,Unknown
2019-3-1 17:2:8,48d855,,6092,0,0.000000,0.000000,0,25,Unknown
2019-3-1 17:2:8,48d855,,6092,0,0.000000,0.000000,0,32,Unknown
2019-3-1 17:2:8,48d855,,6092,0,0.000000,0.000000,0,33,Unknown
2019-3-1 17:2:8,48d855,,6092,0,0.000000,0.000000,0,35,Unknown
2019-3-1 17:2:8,48d855,,6092,0,0.000000,0.000000,0,41,Unknown
2019-3-1 17:2:8,48d855,,6092,0,0.000000,0.000000,0,46,Unknown
2019-3-1 17:2:8,48d855,,6092,0,0.000000,0.000000,0,48,Unknown
2019-3-1 17:2:8,48d855,,6092,0,0.000000,0.000000,0,51,Unknown
2019-3-1 17:2:8,48d855,,6092,0,0.000000,0.000000,0,52,Unknown
2019-3-1 17:2:8,48d855,,6092,0,0.000000,0.000000,0,53,Unknown
2019-3-1 17:2:8,48d855,,6092,0,0.000000,0.000000,0,57,Unknown
2019-3-1 17:2:8,48d855,,6092,0,0.000000,0.000000,0,60,Unknown
2019-3-1 17:2:8,48d855,,6092,0,0.000000,0.000000,0,65,Unknown
2019-3-1 17:2:8,48d855,,6092,0,0.000000,0.000000,0,68,Unknown
2019-3-1 17:2:8,48d855,,6092,0,0.000000,0.000000,0,73,Unknown
2019-3-1 17:2:8,48d855,,6092,0,0.000000,0.000000,0,80,Unknown
2019-3-1 17:2:8,48d855,,6092,0,0.000000,0.000000,0,82,Unknown
2019-3-1 17:2:8,48d855,,6092,0,0.000000,0.000000,0,84,Unknown
2019-3-1 17:2:8,48d855,,6092,0,0.000000,0.000000,0,90,Unknown
2019-3-1 17:2:8,48d855,,6092,0,0.000000,0.000000,0,91,Unknown
2019-3-1 17:2:8,48d855,,6092,0,0.000000,0.000000,0,92,Unknown
2019-3-1 17:2:8,48d855,,6092,0,0.000000,0.000000,0,94,Unknown
2019-3-1 17:2:8,48d855,,6092,0,0.000000,0.000000,0,96,Unknown
2019-3-1 17:2:8,48d855,,6092,0,0.000000,0.000000,0,98,Unknown
2019-3-1 17:2:8,48d855,,6092,0,0.000000,0.000000,0,99,Unknown
2019-3-1 17:2:8,48d855,,6092,0,0.000000,0.000000,0,102,Unknown
