2019-3-1 17:25:43,4247aa,,0,1044,0.000000,0.000000,131,1,Unknown
2019-3-1 17:25:43,4247aa,,0,1044,0.000000,0.000000,131,2,Unknown
2019-3-1 17:25:43,4247aa,,13707,1044,0.000000,0.000000,131,7,Unknown
2019-3-1 17:25:43,4247aa,,13707,1044,0.000000,0.000000,131,8,Unknown
2019-3-1 17:25:43,4247aa,,13707,1044,0.000000,0.000000,131,9,Unknown
2019-3-1 17:25:43,4247aa,,13707,1044,0.000000,0.000000,131,10,Unknown
2019-3-1 17:25:43,4247aa,,13707,1044,0.000000,0.000000,131,11,Unknown
2019-3-1 17:25:43,4247aa,,13707,1044,0.000000,0.000000,131,12,Unknown
2019-3-1 17:25:43,4247aa,,13707,1044,0.000000,0.000000,131,13,Unknown
2019-3-1 17:25:43,4247aa,,13707,1044,0.000000,0.000000,131,14,Unknown
2019-3-1 17:25:43,4247aa,,13707,1044,0.000000,0.000000,131,15,Unknown
2019-3-1 17:25:43,4247aa,,13707,1044,0.000000,0.000000,131,21,Unknown
2019-3-1 17:25:43,4247aa,,13707,1044,0.000000,0.000000,131,29,Unknown
2019-3-1 17:25:43,4247aa,,13707,1044,0.000000,0.000000,131,32,Unknown
2019-3-1 17:25:43,4247aa,,13707,1046,0.000000,0.000000,131,35,Unknown
2019-3-1 17:25:43,4247aa,,13715,1046,0.000000,0.000000,131,38,Unknown
2019-3-1 17:25:43,4247aa,,13715,1046,0.000000,0.000000,131,41,Unknown
2019-3-1 17:25:43,4247aa,,13707,1046,0.000000,0.000000,131,45,Unknown
2019-3-1 17:25:43,4247aa,,13707,1046,44.318056,26.075313,131,47,Unknown
2019-3-1 17:25:43,4247aa,,13707,1046,44.318056,26.075313,131,48,Unknown
2019-3-1 17:25:43,4247aa,,13707,1046,44.318056,26.075313,131,53,Unknown
2019-3-1 17:25:43,4247aa,,13707,1046,44.318056,26.075313,131,60,Unknown
2019-3-1 17:25:43,4247aa,,13707,1046,44.316613,26.077658,131,67,Unknown
2019-3-1 17:25:43,4247aa,,13707,1046,44.316613,26.077658,131,68,Unknown
2019-3-1 17:25:43,4247aa,,13707,1046,44.316613,26.077658,131,69,Unknown
2019-3-1 17:25:43,4247aa,,13707,1046,44.316613,26.077658,131,70,Unknown
2019-3-1 17:25:43,4247aa,,13707,1046,44.316613,26.077658,131,72,Unknown
2019-3-1 17:25:43,4247aa,,13707,1046,44.316613,26.077658,131,73,Unknown
2019-3-1 17:25:43,4247aa,,13707,1046,44.316613,26.077658,131,75,Unknown
2019-3-1 17:25:43,4247aa,,13707,1046,44.316613,26.077658,131,76,Unknown
2019-3-1 17:25:43,4247aa,,13707,1046,44.316613,26.077658,131,77,Unknown
2019-3-1 17:25:43,4247aa,,13707,1046,44.316613,26.077658,131,79,Unknown
2019-3-1 17:25:43,4247aa,,13707,1046,44.316613,26.077658,131,80,Unknown
2019-3-1 17:25:43,4247aa,,13707,1046,44.316613,26.077658,131,81,Unknown
2019-3-1 17:25:43,4247aa,,13707,1046,44.316613,26.077658,131,82,Unknown
2019-3-1 17:25:43,4247aa,,13707,1046,44.316613,26.077658,131,83,Unknown
2019-3-1 17:25:43,4247aa,,13707,1046,44.316613,26.077658,131,85,Unknown
2019-3-1 17:25:43,4247aa,,13707,1044,44.316613,26.077658,131,87,Unknown
2019-3-1 17:25:43,4247aa,,13707,1044,44.316613,26.077658,131,88,Unknown
