2019-3-1 17:2:8,3c651a,,0,940,0.000000,0.000000,118,1,Unknown
2019-3-1 17:2:8,3c651a,,0,940,0.000000,0.000000,118,2,Unknown
2019-3-1 17:2:8,3c651a,,0,940,0.000000,0.000000,118,3,Unknown
2019-3-1 17:2:8,3c651a,,11270,940,0.000000,0.000000,118,4,Unknown
2019-3-1 17:2:8,3c651a,,11270,940,0.000000,0.000000,118,5,Unknown
2019-3-1 17:2:8,3c651a,,11270,940,0.000000,0.000000,118,6,Unknown
2019-3-1 17:3:31,3c651a,,11270,940,0.000000,0.000000,118,7,Unknown
2019-3-1 17:3:31,3c651a,,11270,940,0.000000,0.000000,118,10,Unknown
2019-3-1 17:3:31,3c651a,,11270,940,0.000000,0.000000,118,11,Unknown
2019-3-1 17:3:31,3c651a,,11270,940,0.000000,0.000000,118,12,Unknown
2019-3-1 17:3:31,3c651a,,11270,940,0.000000,0.000000,118,13,Unknown
2019-3-1 17:3:31,3c651a,,11270,938,0.000000,0.000000,118,14,Unknown
2019-3-1 17:3:31,3c651a,,11270,938,0.000000,0.000000,118,15,Unknown
2019-3-1 17:3:31,3c651a,,11263,938,0.000000,0.000000,118,16,Unknown
2019-3-1 17:3:31,3c651a,,11263,938,0.000000,0.000000,118,18,Unknown
2019-3-1 17:3:31,3c651a,,11263,938,0.000000,0.000000,118,19,Unknown
2019-3-1 17:3:31,3c651a,,11263,937,0.000000,0.000000,118,22,Unknown
2019-3-1 17:3:31,3c651a,,11263,937,0.000000,0.000000,118,25,Unknown
2019-3-1 17:3:31,3c651a,,11263,937,0.000000,0.000000,118,26,Unknown
2019-3-1 17:3:31,3c651a,,11263,937,0.000000,0.000000,118,27,Unknown
2019-3-1 17:3:31,3c651a,,11263,937,0.000000,0.000000,118,28,Unknown
2019-3-1 17:3:31,3c651a,,11270,937,0.000000,0.000000,118,30,Unknown
2019-3-1 17:3:31,3c651a,,11270,937,0.000000,0.000000,118,32,Unknown
2019-3-1 17:3:31,3c651a,,11270,937,0.000000,0.000000,118,33,Unknown
2019-3-1 17:3:31,3c651a,,11270,937,0.000000,0.000000,118,34,Unknown
2019-3-1 17:4:9,3c651a,,11270,937,0.000000,0.000000,118,35,Unknown
2019-3-1 17:4:9,3c651a,,11270,937,0.000000,0.000000,118,36,Unknown
2019-3-1 17:4:9,3c651a,,11263,937,0.000000,0.000000,118,37,Unknown
2019-3-1 17:4:9,3c651a,,11263,937,0.000000,0.000000,118,38,Unknown
2019-3-1 17:4:9,3c651a,,11263,937,0.000000,0.000000,118,39,Unknown
2019-3-1 17:4:9,3c651a,,11263,937,0.000000,0.000000,118,40,Unknown
2019-3-1 17:4:9,3c651a,,11263,937,0.000000,0.000000,118,43,Unknown
2019-3-1 17:4:9,3c651a,,11263,937,0.000000,0.000000,118,44,Unknown
2019-3-1 17:4:9,3c651a,,11270,937,0.000000,0.000000,118,45,Unknown
2019-3-1 17:4:9,3c651a,,11270,940,0.000000,0.000000,118,47,Unknown
2019-3-1 17:4:9,3c651a,,11270,940,0.000000,0.000000,118,48,Unknown
2019-3-1 17:4:9,3c651a,,11270,938,44.268432,25.951918,118,51,Unknown
2019-3-1 17:4:9,3c651a,,11270,938,44.267407,25.954932,118,54,Unknown
2019-3-1 17:4:9,3c651a,,11270,938,44.267407,25.954932,118,55,Unknown
2019-3-1 17:4:9,3c651a,,11270,938,44.267407,25.954932,118,56,Unknown
2019-3-1 17:4:9,3c651a,,11270,938,44.267407,25.954932,118,57,Unknown
2019-3-1 17:4:9,3c651a,,11270,938,44.267407,25.954932,118,59,Unknown
2019-3-1 17:4:9,3c651a,,11270,938,44.267407,25.954932,118,61,Unknown
2019-3-1 17:4:9,3c651a,,11270,938,44.267407,25.954932,118,62,Unknown
2019-3-1 17:4:9,3c651a,,11270,938,44.267407,25.954932,118,63,Unknown
2019-3-1 17:4:9,3c651a,,11270,938,44.267407,25.954932,118,66,Unknown
2019-3-1 17:4:9,3c651a,,11270,940,44.267407,25.954932,118,69,Unknown
2019-3-1 17:4:9,3c651a,,11270,940,44.267407,25.954932,118,74,Unknown
2019-3-1 17:4:9,3c651a,,11270,940,44.267407,25.954932,118,77,Unknown
2019-3-1 17:4:9,3c651a,,11270,940,44.267407,25.954932,118,78,Unknown
2019-3-1 17:4:9,3c651a,,11270,938,44.267407,25.954932,118,80,Unknown
2019-3-1 17:4:9,3c651a,,11270,938,44.267407,25.954932,118,82,Unknown
2019-3-1 17:4:9,3c651a,,11270,938,44.267407,25.954932,118,83,Unknown
2019-3-1 17:4:9,3c651a,,11270,938,44.267407,25.954932,118,84,Unknown
2019-3-1 17:4:9,3c651a,,11270,938,44.267407,25.954932,118,85,Unknown
2019-3-1 17:4:9,3c651a,,11270,938,44.233098,26.041684,118,87,Unknown
2019-3-1 17:4:9,3c651a,,11270,938,44.233098,26.041684,118,90,Unknown
2019-3-1 17:4:9,3c651a,,11270,938,44.231735,26.044726,118,93,Unknown
2019-3-1 17:4:9,3c651a,,11270,938,44.231735,26.044726,118,95,Unknown
2019-3-1 17:4:9,3c651a,,11270,938,44.231735,26.044726,118,96,Unknown
2019-3-1 17:4:9,3c651a,,11270,938,44.231735,26.044726,118,98,Unknown
2019-3-1 17:4:9,3c651a,,11270,938,44.230771,26.047311,118,101,Unknown
2019-3-1 17:4:9,3c651a,,11270,938,44.229747,26.050192,118,103,Unknown
2019-3-1 17:4:9,3c651a,,11270,938,44.229747,26.050192,118,104,Unknown
2019-3-1 17:4:9,3c651a,,11270,938,44.228485,26.053423,118,107,Unknown
2019-3-1 17:4:9,3c651a,,11270,938,44.228485,26.053423,118,109,Unknown
2019-3-1 17:4:9,3c651a,,11270,938,44.228485,26.053423,118,111,Unknown
2019-3-1 17:4:9,3c651a,,11270,938,44.228485,26.053423,118,112,Unknown
2019-3-1 17:4:9,3c651a,,11270,938,44.228485,26.053423,118,113,Unknown
2019-3-1 17:4:9,3c651a,,11270,938,44.228485,26.053423,118,114,Unknown
2019-3-1 17:4:9,3c651a,,11270,938,44.228485,26.053423,118,115,Unknown
2019-3-1 17:4:9,3c651a,,11270,938,44.219742,26.075592,118,116,Unknown
2019-3-1 17:4:9,3c651a,,11270,938,44.219742,26.075592,118,117,Unknown
2019-3-1 17:4:9,3c651a,,11270,938,44.219742,26.075592,118,119,Unknown
2019-3-1 17:4:9,3c651a,,11270,938,44.219742,26.075592,118,121,Unknown
2019-3-1 17:4:9,3c651a,,11270,938,44.219742,26.075592,118,122,Unknown
2019-3-1 17:4:9,3c651a,,11270,938,44.219742,26.075592,118,123,Unknown
2019-3-1 17:4:9,3c651a,,11270,938,44.219742,26.075592,118,124,Unknown
2019-3-1 17:4:9,3c651a,,11270,938,44.219742,26.075592,118,125,Unknown
2019-3-1 17:4:9,3c651a,,11270,938,44.219742,26.075592,118,126,Unknown
2019-3-1 17:4:9,3c651a,,11270,938,44.219742,26.075592,118,127,Unknown
2019-3-1 17:4:9,3c651a,,11270,938,44.219742,26.075592,118,128,Unknown
2019-3-1 17:4:9,3c651a,,11263,938,44.219742,26.075592,118,129,Unknown
2019-3-1 17:4:9,3c651a,,11263,938,44.219742,26.075592,118,130,Unknown
2019-3-1 17:4:9,3c651a,,11263,938,44.219742,26.075592,118,131,Unknown
2019-3-1 17:4:9,3c651a,,11263,938,44.219742,26.075592,118,132,Unknown
2019-3-1 17:4:9,3c651a,,11270,938,44.219742,26.075592,118,133,Unknown
2019-3-1 17:6:37,3c651a,,11270,937,44.219742,26.075592,121,134,Unknown
2019-3-1 17:6:37,3c651a,,11270,937,44.219742,26.075592,121,135,Unknown
2019-3-1 17:6:37,3c651a,,11270,937,44.155243,26.234649,122,137,Unknown
2019-3-1 17:6:37,3c651a,,11270,937,44.155243,26.234649,122,138,Unknown
2019-3-1 17:6:37,3c651a,,11270,937,44.155243,26.234649,122,139,Unknown
2019-3-1 17:6:37,3c651a,,11270,937,44.155243,26.234649,122,140,Unknown
2019-3-1 17:6:37,3c651a,,11270,937,44.155243,26.234649,122,141,Unknown
2019-3-1 17:6:37,3c651a,,11270,937,44.155243,26.234649,122,142,Unknown
2019-3-1 17:6:37,3c651a,,11270,937,44.155243,26.234649,122,143,Unknown
2019-3-1 17:6:37,3c651a,,11270,931,44.155243,26.234649,124,144,Unknown
