2019-3-6 12:59:53,4bb264,,0,0,0.000000,0.000000,0,1,Unknown
2019-3-6 12:59:53,4bb264,,0,731,0.000000,0.000000,322,2,Unknown
2019-3-6 12:59:53,4bb264,,0,731,0.000000,0.000000,322,3,Unknown
2019-3-6 12:59:53,4bb264,,0,731,0.000000,0.000000,322,4,Unknown
2019-3-6 12:59:53,4bb264,,10966,731,0.000000,0.000000,322,6,Unknown
2019-3-6 12:59:53,4bb264,,10966,731,0.000000,0.000000,322,7,Unknown
2019-3-6 12:59:53,4bb264,,10966,731,0.000000,0.000000,322,8,Unknown
