2019-3-7 13:51:41,8960f6,,0,951,0.000000,0.000000,135,1,Unknown
2019-3-7 13:51:41,8960f6,,11880,951,0.000000,0.000000,135,2,Unknown
2019-3-7 13:51:41,8960f6,,11880,953,0.000000,0.000000,135,5,Unknown
2019-3-7 13:51:41,8960f6,,11880,953,0.000000,0.000000,135,6,Unknown
2019-3-7 13:51:41,8960f6,,11880,953,0.000000,0.000000,135,8,Unknown
2019-3-7 13:51:41,8960f6,,11880,953,0.000000,0.000000,135,11,Unknown
2019-3-7 13:51:41,8960f6,,11880,953,0.000000,0.000000,135,13,Unknown
2019-3-7 13:51:41,8960f6,,11880,953,0.000000,0.000000,135,18,Unknown
2019-3-7 13:51:41,8960f6,,11880,953,0.000000,0.000000,135,21,Unknown
2019-3-7 13:51:41,8960f6,,11880,953,0.000000,0.000000,135,23,Unknown
2019-3-7 13:51:41,8960f6,,11880,953,0.000000,0.000000,135,25,Unknown
2019-3-7 13:51:41,8960f6,,11880,953,0.000000,0.000000,135,29,Unknown
2019-3-7 13:51:41,8960f6,,11880,953,0.000000,0.000000,135,31,Unknown
2019-3-7 13:51:41,8960f6,,11880,953,44.343381,26.106731,135,35,Unknown
2019-3-7 13:51:41,8960f6,,11880,953,44.343381,26.106731,135,37,Unknown
2019-3-7 13:51:41,8960f6,,11880,953,44.343381,26.106731,135,38,Unknown
2019-3-7 13:51:41,8960f6,,11880,953,44.343381,26.106731,135,39,Unknown
2019-3-7 13:51:41,8960f6,,11880,953,44.343381,26.106731,135,40,Unknown
2019-3-7 13:51:41,8960f6,,11880,953,44.343381,26.106731,135,41,Unknown
2019-3-7 13:51:41,8960f6,,11880,953,44.343381,26.106731,135,45,Unknown
2019-3-7 13:51:41,8960f6,,11880,953,44.343381,26.106731,135,51,Unknown
2019-3-7 13:51:41,8960f6,,11880,953,44.343381,26.106731,135,53,Unknown
2019-3-7 13:51:41,8960f6,,11880,953,44.337934,26.114100,135,55,Unknown
2019-3-7 13:51:41,8960f6,,11880,953,44.337934,26.114100,135,58,Unknown
2019-3-7 13:51:41,8960f6,,11880,953,44.337934,26.114100,135,61,Unknown
2019-3-7 13:51:41,8960f6,,11880,953,44.337934,26.114100,135,64,Unknown
2019-3-7 13:51:41,8960f6,,11880,953,44.336426,26.116137,135,67,Unknown
2019-3-7 13:51:41,8960f6,,11880,953,44.336426,26.116137,135,71,Unknown
2019-3-7 13:51:41,8960f6,,11880,953,44.336426,26.116137,135,73,Unknown
2019-3-7 13:51:41,8960f6,,11880,953,44.336426,26.116137,135,75,Unknown
2019-3-7 13:51:41,8960f6,,11880,953,44.336426,26.116137,135,76,Unknown
2019-3-7 13:51:41,8960f6,,11880,953,44.336426,26.116137,135,83,Unknown
2019-3-7 13:51:41,8960f6,,11880,953,44.336426,26.116137,135,88,Unknown
2019-3-7 13:51:41,8960f6,,11880,953,44.336426,26.116137,135,91,Unknown
2019-3-7 13:51:41,8960f6,,11880,953,44.332718,26.121107,135,94,Unknown
2019-3-7 13:51:41,8960f6,,11880,953,44.332718,26.121107,135,95,Unknown
2019-3-7 13:51:41,8960f6,,11880,953,44.332718,26.121107,135,97,Unknown
2019-3-7 13:51:41,8960f6,,11880,953,44.332718,26.121107,135,98,Unknown
2019-3-7 13:51:41,8960f6,,11880,953,44.332718,26.121107,135,106,Unknown
2019-3-7 13:51:41,8960f6,,11880,953,44.332718,26.121107,135,111,Unknown
2019-3-7 13:51:41,8960f6,,11880,953,44.332718,26.121107,135,113,Unknown
2019-3-7 13:51:41,8960f6,,11880,953,44.332718,26.121107,135,114,Unknown
2019-3-7 13:51:41,8960f6,,11880,953,44.332718,26.121107,135,120,Unknown
2019-3-7 13:51:41,8960f6,,11880,953,44.332718,26.121107,135,124,Unknown
2019-3-7 13:51:41,8960f6,,11880,953,44.332718,26.121107,135,125,Unknown
2019-3-7 13:51:41,8960f6,,11880,953,44.332718,26.121107,135,126,Unknown
2019-3-7 13:51:41,8960f6,,11880,953,44.332718,26.121107,135,128,Unknown
2019-3-7 13:51:41,8960f6,,11880,953,44.332718,26.121107,135,129,Unknown
2019-3-7 13:51:41,8960f6,,11880,953,44.325225,26.131249,135,130,Unknown
2019-3-7 13:51:41,8960f6,,11887,953,44.325225,26.131249,135,131,Unknown
