2019-3-7 13:25:55,728641,,0,0,0.000000,0.000000,0,1,Unknown
2019-3-7 13:25:55,728641,,10364,0,0.000000,0.000000,0,3,Unknown
2019-3-7 13:25:55,728641,,10364,761,0.000000,0.000000,309,8,Unknown
2019-3-7 13:25:55,728641,,10364,761,0.000000,0.000000,309,9,Unknown
2019-3-7 13:25:55,728641,,10364,761,0.000000,0.000000,309,11,Unknown
2019-3-7 13:25:55,728641,,10364,761,0.000000,0.000000,309,14,Unknown
2019-3-7 13:25:55,728641,,10364,761,0.000000,0.000000,309,15,Unknown
2019-3-7 13:25:55,728641,,10364,761,0.000000,0.000000,309,16,Unknown
2019-3-7 13:25:55,728641,,10364,761,0.000000,0.000000,309,20,Unknown
2019-3-7 13:25:55,728641,,10364,761,0.000000,0.000000,309,23,Unknown
2019-3-7 13:25:55,728641,,10364,761,0.000000,0.000000,309,24,Unknown
2019-3-7 13:25:55,728641,,10364,761,0.000000,0.000000,309,25,Unknown
2019-3-7 13:25:55,728641,,10364,761,0.000000,0.000000,309,27,Unknown
2019-3-7 13:25:55,728641,,10364,761,0.000000,0.000000,309,28,Unknown
2019-3-7 13:25:55,728641,,10364,761,0.000000,0.000000,309,29,Unknown
