2019-3-7 14:23:28,89408e,,0,0,0.000000,0.000000,0,1,Unknown
2019-3-7 14:23:28,89408e,,11880,0,0.000000,0.000000,0,3,Unknown
2019-3-7 14:23:28,89408e,,11880,933,0.000000,0.000000,135,5,Unknown
2019-3-7 14:23:28,89408e,,11880,933,0.000000,0.000000,135,8,Unknown
2019-3-7 14:23:28,89408e,,11880,933,0.000000,0.000000,135,9,Unknown
2019-3-7 14:23:28,89408e,,11880,933,0.000000,0.000000,135,14,Unknown
2019-3-7 14:23:28,89408e,,11880,933,0.000000,0.000000,135,15,Unknown
2019-3-7 14:23:28,89408e,,11880,933,0.000000,0.000000,135,17,Unknown
2019-3-7 14:23:28,89408e,,11880,933,0.000000,0.000000,135,18,Unknown
2019-3-7 14:23:28,89408e,,11880,933,0.000000,0.000000,135,19,Unknown
2019-3-7 14:23:28,89408e,,11872,935,0.000000,0.000000,135,26,Unknown
2019-3-7 14:23:28,89408e,,11880,935,0.000000,0.000000,135,28,Unknown
2019-3-7 14:23:28,89408e,,11880,935,0.000000,0.000000,135,36,Unknown
2019-3-7 14:23:28,89408e,,11872,933,44.334824,26.118295,135,40,Unknown
2019-3-7 14:23:28,89408e,,11880,933,44.334824,26.118295,135,41,Unknown
2019-3-7 14:23:28,89408e,,11872,933,44.334824,26.118295,135,43,Unknown
2019-3-7 14:23:28,89408e,,11880,933,44.334824,26.118295,135,48,Unknown
2019-3-7 14:23:28,89408e,,11880,933,44.334824,26.118295,135,49,Unknown
2019-3-7 14:23:28,89408e,,11880,935,44.331482,26.122807,135,54,Unknown
2019-3-7 14:23:28,89408e,,11880,935,44.331482,26.122807,135,59,Unknown
2019-3-7 14:23:28,89408e,GFA002  ,11872,935,44.331482,26.122807,135,61,Gulf Air
2019-3-7 14:23:28,89408e,GFA002  ,11872,935,44.330154,26.124638,135,63,Gulf Air
2019-3-7 14:23:28,89408e,GFA002  ,11880,935,44.330154,26.124638,135,65,Gulf Air
2019-3-7 14:23:28,89408e,GFA002  ,11880,935,44.330154,26.124638,135,66,Gulf Air
2019-3-7 14:23:28,89408e,GFA002  ,11872,935,44.328624,26.126627,135,71,Gulf Air
