2019-3-7 14:39:8,471f6a,,2665,0,0.000000,0.000000,0,1,Unknown
2019-3-7 14:39:8,471f6a,,2673,0,0.000000,0.000000,0,2,Unknown
2019-3-7 14:39:8,471f6a,,2695,0,0.000000,0.000000,0,4,Unknown
2019-3-7 14:39:8,471f6a,,2695,0,0.000000,0.000000,0,12,Unknown
2019-3-7 14:39:8,471f6a,,2703,0,0.000000,0.000000,0,14,Unknown
2019-3-7 14:39:8,471f6a,,2703,0,0.000000,0.000000,0,15,Unknown
2019-3-7 14:39:8,471f6a,,2703,0,0.000000,0.000000,0,17,Unknown
2019-3-7 14:39:8,471f6a,,2711,0,0.000000,0.000000,0,20,Unknown
2019-3-7 14:39:8,471f6a,,2741,561,0.000000,0.000000,269,24,Unknown
2019-3-7 14:39:8,471f6a,,2741,561,0.000000,0.000000,269,27,Unknown
2019-3-7 14:39:8,471f6a,,2749,561,0.000000,0.000000,269,30,Unknown
2019-3-7 14:39:8,471f6a,,2756,561,0.000000,0.000000,269,32,Unknown
2019-3-7 14:39:8,471f6a,,2756,561,0.000000,0.000000,269,34,Unknown
2019-3-7 14:39:8,471f6a,,2756,561,0.000000,0.000000,269,36,Unknown
2019-3-7 14:39:8,471f6a,,2764,563,0.000000,0.000000,269,38,Unknown
2019-3-7 14:39:8,471f6a,,2772,563,0.000000,0.000000,269,41,Unknown
2019-3-7 14:39:8,471f6a,,2772,563,44.517380,26.095145,269,44,Unknown
2019-3-7 14:39:8,471f6a,,2779,563,44.517380,26.095145,269,47,Unknown
2019-3-7 14:39:8,471f6a,,2787,563,44.517346,26.093132,269,53,Unknown
2019-3-7 14:39:8,471f6a,,2787,563,44.517346,26.093132,269,58,Unknown
2019-3-7 14:39:8,471f6a,WZZ2HA  ,2787,564,44.517346,26.093132,269,60,Wizz Air
2019-3-7 14:39:8,471f6a,WZZ2HA  ,2794,564,44.517346,26.093132,269,62,Wizz Air
2019-3-7 14:39:8,471f6a,WZZ2HA  ,2802,564,44.517346,26.093132,269,67,Wizz Air
2019-3-7 14:39:8,471f6a,WZZ2HA  ,2802,564,44.517346,26.093132,269,69,Wizz Air
2019-3-7 14:39:8,471f6a,WZZ2HA  ,2802,564,44.517346,26.093132,268,70,Wizz Air
2019-3-7 14:39:8,471f6a,WZZ2HA  ,2802,564,44.517346,26.093132,268,73,Wizz Air
2019-3-7 14:39:8,471f6a,WZZ2HA  ,2802,564,44.517346,26.093132,268,74,Wizz Air
2019-3-7 14:39:8,471f6a,WZZ2HA  ,2825,564,44.517346,26.093132,268,76,Wizz Air
2019-3-7 14:39:8,471f6a,WZZ2HA  ,2825,564,44.517346,26.093132,268,83,Wizz Air
2019-3-7 14:39:8,471f6a,WZZ2HA  ,2886,566,44.517346,26.093132,268,87,Wizz Air
2019-3-7 14:39:8,471f6a,WZZ2HA  ,2886,566,44.517346,26.093132,268,88,Wizz Air
2019-3-7 14:39:8,471f6a,WZZ2HA  ,2901,566,44.517346,26.093132,268,92,Wizz Air
2019-3-7 14:39:8,471f6a,WZZ2HA  ,2909,566,44.517346,26.093132,268,95,Wizz Air
2019-3-7 14:39:8,471f6a,WZZ2HA  ,2916,566,44.517346,26.093132,268,97,Wizz Air
2019-3-7 14:39:8,471f6a,WZZ2HA  ,2916,566,44.517346,26.093132,268,98,Wizz Air
2019-3-7 14:39:8,471f6a,WZZ2HA  ,2954,566,44.517346,26.093132,268,99,Wizz Air
2019-3-7 14:39:8,471f6a,WZZ2HA  ,2954,566,44.517346,26.093132,268,101,Wizz Air
2019-3-7 14:39:8,471f6a,WZZ2HA  ,2962,566,44.517346,26.093132,268,106,Wizz Air
2019-3-7 14:39:8,471f6a,WZZ2HA  ,2985,566,44.517346,26.093132,268,107,Wizz Air
2019-3-7 14:39:8,471f6a,WZZ2HA  ,2992,566,44.516508,26.066068,268,112,Wizz Air
2019-3-7 14:39:8,471f6a,WZZ2HA  ,2992,566,44.516508,26.066068,268,114,Wizz Air
2019-3-7 14:39:8,471f6a,WZZ2HA  ,3000,566,44.516508,26.066068,268,123,Wizz Air
2019-3-7 14:39:8,471f6a,WZZ2HA  ,3084,566,44.516508,26.066068,268,126,Wizz Air
2019-3-7 14:39:8,471f6a,WZZ2HA  ,3084,564,44.516508,26.066068,267,130,Wizz Air
2019-3-7 14:39:8,471f6a,WZZ2HA  ,3084,564,44.516508,26.066068,267,131,Wizz Air
2019-3-7 14:39:8,471f6a,WZZ2HA  ,3145,564,44.516508,26.066068,267,133,Wizz Air
2019-3-7 14:39:8,471f6a,WZZ2HA  ,3152,564,44.516508,26.066068,267,141,Wizz Air
2019-3-7 14:39:8,471f6a,WZZ2HA  ,3160,564,44.516508,26.066068,267,146,Wizz Air
2019-3-7 14:39:8,471f6a,WZZ2HA  ,3312,564,44.516508,26.066068,267,148,Wizz Air
2019-3-7 14:39:8,471f6a,WZZ2HA  ,3404,564,44.516508,26.066068,267,151,Wizz Air
2019-3-7 14:39:8,471f6a,WZZ2HA  ,3457,564,44.516508,26.066068,267,153,Wizz Air
