2019-2-27 16:45:14,3c61f8,,0,829,0.000000,0.000000,123,2,Unknown
2019-2-27 16:45:14,3c61f8,,11880,829,0.000000,0.000000,123,3,Unknown
2019-2-27 16:45:14,3c61f8,,11880,829,0.000000,0.000000,123,5,Unknown
2019-2-27 16:45:14,3c61f8,AHO884Q ,11880,829,0.000000,0.000000,123,6,Air Hamburg
2019-2-27 16:45:14,3c61f8,AHO884Q ,11880,829,0.000000,0.000000,123,8,Air Hamburg
2019-2-27 16:45:14,3c61f8,AHO884Q ,11880,829,0.000000,0.000000,123,9,Air Hamburg
2019-2-27 16:45:14,3c61f8,AHO884Q ,11880,829,0.000000,0.000000,123,11,Air Hamburg
2019-2-27 16:45:14,3c61f8,AHO884Q ,11880,829,0.000000,0.000000,123,12,Air Hamburg
2019-2-27 16:45:14,3c61f8,AHO884Q ,11880,829,0.000000,0.000000,123,15,Air Hamburg
2019-2-27 16:45:14,3c61f8,AHO884Q ,11880,829,0.000000,0.000000,123,16,Air Hamburg
2019-2-27 16:45:14,3c61f8,AHO884Q ,11880,829,0.000000,0.000000,123,18,Air Hamburg
2019-2-27 16:45:14,3c61f8,AHO884Q ,11880,827,0.000000,0.000000,123,21,Air Hamburg
2019-2-27 16:45:14,3c61f8,AHO884Q ,11880,827,44.366318,25.840628,123,22,Air Hamburg
2019-2-27 16:45:14,3c61f8,AHO884Q ,11880,827,44.366318,25.840628,123,23,Air Hamburg
2019-2-27 16:45:14,3c61f8,AHO884Q ,11880,827,44.366318,25.840628,123,24,Air Hamburg
2019-2-27 16:45:14,3c61f8,AHO884Q ,11880,827,44.366318,25.840628,123,25,Air Hamburg
2019-2-27 16:45:14,3c61f8,AHO884Q ,11880,827,44.366318,25.840628,123,27,Air Hamburg
2019-2-27 16:45:14,3c61f8,AHO884Q ,11880,827,44.366318,25.840628,123,28,Air Hamburg
2019-2-27 16:45:14,3c61f8,AHO884Q ,11880,827,44.366318,25.840628,123,29,Air Hamburg
2019-2-27 16:45:14,3c61f8,AHO884Q ,11880,827,44.366318,25.840628,123,31,Air Hamburg
2019-2-27 16:45:14,3c61f8,AHO884Q ,11880,829,44.361374,25.850961,123,34,Air Hamburg
2019-2-27 16:45:14,3c61f8,AHO884Q ,11880,829,44.361374,25.850961,123,35,Air Hamburg
2019-2-27 16:45:14,3c61f8,AHO884Q ,11880,829,44.360233,25.853376,123,36,Air Hamburg
2019-2-27 16:45:14,3c61f8,AHO884Q ,11880,829,44.360233,25.853376,123,39,Air Hamburg
2019-2-27 16:45:14,3c61f8,AHO884Q ,11880,829,44.360233,25.853376,123,41,Air Hamburg
2019-2-27 16:45:14,3c61f8,AHO884Q ,11880,829,44.360233,25.853376,123,44,Air Hamburg
2019-2-27 16:45:14,3c61f8,AHO884Q ,11880,829,44.360233,25.853376,123,45,Air Hamburg
2019-2-27 16:45:14,3c61f8,AHO884Q ,11880,829,44.360233,25.853376,123,49,Air Hamburg
2019-2-27 16:45:14,3c61f8,AHO884Q ,11880,829,44.360233,25.853376,123,52,Air Hamburg
2019-2-27 16:45:14,3c61f8,AHO884Q ,11880,829,44.360233,25.853376,123,54,Air Hamburg
2019-2-27 16:45:14,3c61f8,AHO884Q ,11880,829,44.360233,25.853376,123,55,Air Hamburg
2019-2-27 16:45:14,3c61f8,AHO884Q ,11880,829,44.360233,25.853376,123,57,Air Hamburg
2019-2-27 16:45:14,3c61f8,AHO884Q ,11880,829,44.360233,25.853376,123,58,Air Hamburg
2019-2-27 16:45:14,3c61f8,AHO884Q ,11880,829,44.360233,25.853376,123,60,Air Hamburg
2019-2-27 16:45:14,3c61f8,AHO884Q ,11880,829,44.360233,25.853376,123,61,Air Hamburg
2019-2-27 16:45:14,3c61f8,AHO884Q ,11880,829,44.360233,25.853376,123,62,Air Hamburg
2019-2-27 16:45:14,3c61f8,AHO884Q ,11880,829,44.360233,25.853376,123,64,Air Hamburg
2019-2-27 16:45:14,3c61f8,AHO884Q ,11880,829,44.360233,25.853376,123,68,Air Hamburg
2019-2-27 16:45:14,3c61f8,AHO884Q ,11880,829,44.360233,25.853376,123,69,Air Hamburg
2019-2-27 16:45:14,3c61f8,AHO884Q ,11880,829,44.360233,25.853376,123,71,Air Hamburg
2019-2-27 16:45:14,3c61f8,AHO884Q ,11880,829,44.360233,25.853376,123,72,Air Hamburg
2019-2-27 16:45:14,3c61f8,AHO884Q ,11880,829,44.360233,25.853376,123,73,Air Hamburg
2019-2-27 16:45:14,3c61f8,AHO884Q ,11880,829,44.360233,25.853376,123,74,Air Hamburg
2019-2-27 16:45:14,3c61f8,AHO884Q ,11880,829,44.360233,25.853376,123,75,Air Hamburg
2019-2-27 16:45:14,3c61f8,AHO884Q ,11880,829,44.360233,25.853376,123,77,Air Hamburg
2019-2-27 16:45:14,3c61f8,AHO884Q ,11880,829,44.360233,25.853376,123,78,Air Hamburg
2019-2-27 16:45:14,3c61f8,AHO884Q ,11880,829,44.360233,25.853376,123,79,Air Hamburg
2019-2-27 16:45:14,3c61f8,AHO884Q ,11880,829,44.360233,25.853376,123,81,Air Hamburg
2019-2-27 16:45:14,3c61f8,AHO884Q ,11880,829,44.360233,25.853376,123,83,Air Hamburg
2019-2-27 16:45:14,3c61f8,AHO884Q ,11880,829,44.360233,25.853376,123,84,Air Hamburg
2019-2-27 16:45:14,3c61f8,AHO884Q ,11880,829,44.360233,25.853376,123,88,Air Hamburg
2019-2-27 16:45:14,3c61f8,AHO884Q ,11880,829,44.360233,25.853376,123,90,Air Hamburg
2019-2-27 16:45:14,3c61f8,AHO884Q ,11880,829,44.360233,25.853376,123,94,Air Hamburg
2019-2-27 16:45:14,3c61f8,AHO884Q ,11880,831,44.360233,25.853376,123,96,Air Hamburg
2019-2-27 16:45:14,3c61f8,AHO884Q ,11880,831,44.360233,25.853376,123,97,Air Hamburg
2019-2-27 16:45:14,3c61f8,AHO884Q ,11880,831,44.360233,25.853376,123,100,Air Hamburg
2019-2-27 16:45:14,3c61f8,AHO884Q ,11880,831,44.360233,25.853376,123,104,Air Hamburg
2019-2-27 16:45:14,3c61f8,AHO884Q ,11880,831,44.360233,25.853376,123,106,Air Hamburg
2019-2-27 16:45:14,3c61f8,AHO884Q ,11880,831,44.360233,25.853376,123,108,Air Hamburg
2019-2-27 16:45:14,3c61f8,AHO884Q ,11880,831,44.360233,25.853376,123,109,Air Hamburg
2019-2-27 16:45:14,3c61f8,AHO884Q ,11880,831,44.360233,25.853376,123,110,Air Hamburg
2019-2-27 16:45:14,3c61f8,AHO884Q ,11880,831,44.360233,25.853376,123,113,Air Hamburg
2019-2-27 16:45:14,3c61f8,AHO884Q ,11880,831,44.360233,25.853376,123,114,Air Hamburg
2019-2-27 16:45:14,3c61f8,AHO884Q ,11880,831,44.360233,25.853376,123,118,Air Hamburg
2019-2-27 16:45:14,3c61f8,AHO884Q ,11880,831,44.360233,25.853376,123,122,Air Hamburg
2019-2-27 16:45:14,3c61f8,AHO884Q ,11880,831,44.360233,25.853376,123,123,Air Hamburg
2019-2-27 16:45:14,3c61f8,AHO884Q ,11880,831,44.360233,25.853376,123,130,Air Hamburg
2019-2-27 16:45:14,3c61f8,AHO884Q ,11880,831,44.360233,25.853376,123,134,Air Hamburg
2019-2-27 16:45:14,3c61f8,AHO884Q ,11880,831,44.360233,25.853376,123,136,Air Hamburg
2019-2-27 16:45:14,3c61f8,AHO884Q ,11880,831,44.360233,25.853376,123,138,Air Hamburg
2019-2-27 16:45:14,3c61f8,AHO884Q ,11880,831,44.360233,25.853376,123,139,Air Hamburg
2019-2-27 16:45:14,3c61f8,AHO884Q ,11880,831,44.360233,25.853376,123,140,Air Hamburg
2019-2-27 16:45:14,3c61f8,AHO884Q ,11880,831,44.360233,25.853376,123,142,Air Hamburg
2019-2-27 16:45:14,3c61f8,AHO884Q ,11880,831,44.360233,25.853376,123,144,Air Hamburg
2019-2-27 16:45:14,3c61f8,AHO884Q ,11880,831,44.360233,25.853376,123,147,Air Hamburg
2019-2-27 16:45:14,3c61f8,AHO884Q ,11880,831,44.360233,25.853376,123,149,Air Hamburg
2019-2-27 16:45:14,3c61f8,AHO884Q ,11880,831,44.360233,25.853376,123,150,Air Hamburg
2019-2-27 16:45:14,3c61f8,AHO884Q ,11880,831,44.360233,25.853376,123,151,Air Hamburg
2019-2-27 16:45:14,3c61f8,AHO884Q ,11880,831,44.360233,25.853376,123,152,Air Hamburg
2019-2-27 16:45:14,3c61f8,AHO884Q ,11880,831,44.360233,25.853376,123,158,Air Hamburg
2019-2-27 16:45:14,3c61f8,AHO884Q ,11880,831,44.360233,25.853376,123,163,Air Hamburg
2019-2-27 16:45:14,3c61f8,AHO884Q ,11880,831,44.360233,25.853376,123,164,Air Hamburg
2019-2-27 16:45:14,3c61f8,AHO884Q ,11880,831,44.360233,25.853376,123,168,Air Hamburg
2019-2-27 16:45:14,3c61f8,AHO884Q ,11880,831,44.360233,25.853376,123,169,Air Hamburg
2019-2-27 16:45:14,3c61f8,AHO884Q ,11880,831,44.360233,25.853376,123,172,Air Hamburg
2019-2-27 16:45:14,3c61f8,AHO884Q ,11880,829,44.306977,25.965852,123,175,Air Hamburg
2019-2-27 16:45:14,3c61f8,AHO884Q ,11880,829,44.306977,25.965852,123,176,Air Hamburg
2019-2-27 16:45:14,3c61f8,AHO884Q ,11880,829,44.306977,25.965852,123,182,Air Hamburg
2019-2-27 16:45:14,3c61f8,AHO884Q ,11880,829,44.306046,25.967727,123,186,Air Hamburg
2019-2-27 16:45:14,3c61f8,AHO884Q ,11880,831,44.306046,25.967727,123,189,Air Hamburg
2019-2-27 16:45:14,3c61f8,AHO884Q ,11872,831,44.306046,25.967727,123,190,Air Hamburg
2019-2-27 16:45:14,3c61f8,AHO884Q ,11872,831,44.306046,25.967727,123,192,Air Hamburg
2019-2-27 16:45:14,3c61f8,AHO884Q ,11872,831,44.306046,25.967727,123,194,Air Hamburg
2019-2-27 16:45:14,3c61f8,AHO884Q ,11872,831,44.306046,25.967727,123,196,Air Hamburg
2019-2-27 16:45:14,3c61f8,AHO884Q ,11872,829,44.294495,25.992279,123,199,Air Hamburg
2019-2-27 16:45:14,3c61f8,AHO884Q ,11872,829,44.294495,25.992279,123,201,Air Hamburg
2019-2-27 16:45:14,3c61f8,AHO884Q ,11872,829,44.294495,25.992279,123,202,Air Hamburg
2019-2-27 16:45:14,3c61f8,AHO884Q ,11872,829,44.294495,25.992279,123,204,Air Hamburg
2019-2-27 16:45:14,3c61f8,AHO884Q ,11872,829,44.294495,25.992279,123,209,Air Hamburg
2019-2-27 16:45:14,3c61f8,AHO884Q ,11872,829,44.294495,25.992279,123,210,Air Hamburg
2019-2-27 16:45:14,3c61f8,AHO884Q ,11872,829,44.292313,25.996801,123,214,Air Hamburg
2019-2-27 16:45:14,3c61f8,AHO884Q ,11872,829,44.292313,25.996801,123,215,Air Hamburg
2019-2-27 16:45:14,3c61f8,AHO884Q ,11872,829,44.292313,25.996801,123,216,Air Hamburg
2019-2-27 16:45:14,3c61f8,AHO884Q ,11872,829,44.291199,25.999211,123,219,Air Hamburg
2019-2-27 16:45:14,3c61f8,AHO884Q ,11872,829,44.291199,25.999211,123,221,Air Hamburg
2019-2-27 16:45:14,3c61f8,AHO884Q ,11872,829,44.291199,25.999211,123,223,Air Hamburg
2019-2-27 16:45:14,3c61f8,AHO884Q ,11872,829,44.290032,26.001624,123,225,Air Hamburg
2019-2-27 16:45:14,3c61f8,AHO884Q ,11872,829,44.290032,26.001624,123,227,Air Hamburg
2019-2-27 16:45:14,3c61f8,AHO884Q ,11872,829,44.290032,26.001624,123,229,Air Hamburg
2019-2-27 16:45:14,3c61f8,AHO884Q ,11872,829,44.290032,26.001624,123,232,Air Hamburg
2019-2-27 16:45:14,3c61f8,AHO884Q ,11872,829,44.290032,26.001624,123,237,Air Hamburg
2019-2-27 16:45:14,3c61f8,AHO884Q ,11872,827,44.290032,26.001624,123,240,Air Hamburg
2019-2-27 16:45:14,3c61f8,AHO884Q ,11872,827,44.290032,26.001624,123,241,Air Hamburg
2019-2-27 16:45:14,3c61f8,AHO884Q ,11872,827,44.290032,26.001624,123,242,Air Hamburg
2019-2-27 16:45:14,3c61f8,AHO884Q ,11880,827,44.290032,26.001624,123,243,Air Hamburg
2019-2-27 16:45:14,3c61f8,AHO884Q ,11880,827,44.290032,26.001624,123,245,Air Hamburg
2019-2-27 16:45:14,3c61f8,AHO884Q ,11880,829,44.290032,26.001624,123,247,Air Hamburg
2019-2-27 16:45:14,3c61f8,AHO884Q ,11880,829,44.290032,26.001624,123,251,Air Hamburg
2019-2-27 16:45:14,3c61f8,AHO884Q ,11880,829,44.284424,26.013336,123,252,Air Hamburg
2019-2-27 16:45:14,3c61f8,AHO884Q ,11880,829,44.284424,26.013336,123,254,Air Hamburg
2019-2-27 16:45:14,3c61f8,AHO884Q ,11880,829,44.284424,26.013336,123,256,Air Hamburg
2019-2-27 16:45:14,3c61f8,AHO884Q ,11880,829,44.284424,26.013336,123,259,Air Hamburg
2019-2-27 16:45:14,3c61f8,AHO884Q ,11880,829,44.284424,26.013336,123,262,Air Hamburg
2019-2-27 16:45:14,3c61f8,AHO884Q ,11880,827,44.284424,26.013336,123,267,Air Hamburg
2019-2-27 16:45:14,3c61f8,AHO884Q ,11880,827,44.284424,26.013336,123,269,Air Hamburg
2019-2-27 16:45:14,3c61f8,AHO884Q ,11880,827,44.282135,26.018175,123,270,Air Hamburg
2019-2-27 16:45:14,3c61f8,AHO884Q ,11880,827,44.282135,26.018175,123,272,Air Hamburg
2019-2-27 16:45:14,3c61f8,AHO884Q ,11880,827,44.282135,26.018175,123,277,Air Hamburg
2019-2-27 16:45:14,3c61f8,AHO884Q ,11880,827,44.282135,26.018175,123,278,Air Hamburg
2019-2-27 16:45:14,3c61f8,AHO884Q ,11880,829,44.282135,26.018175,123,283,Air Hamburg
2019-2-27 16:45:14,3c61f8,AHO884Q ,11880,829,44.282135,26.018175,123,284,Air Hamburg
2019-2-27 16:45:14,3c61f8,AHO884Q ,11880,829,44.279604,26.023396,123,287,Air Hamburg
2019-2-27 16:45:14,3c61f8,AHO884Q ,11880,829,44.279604,26.023396,123,292,Air Hamburg
2019-2-27 16:45:14,3c61f8,AHO884Q ,11880,829,44.279604,26.023396,123,294,Air Hamburg
2019-2-27 16:45:14,3c61f8,AHO884Q ,11880,829,44.279604,26.023396,123,296,Air Hamburg
2019-2-27 16:45:14,3c61f8,AHO884Q ,11880,829,44.279604,26.023396,123,297,Air Hamburg
2019-2-27 16:45:14,3c61f8,AHO884Q ,11880,829,44.279604,26.023396,123,299,Air Hamburg
2019-2-27 16:45:14,3c61f8,AHO884Q ,11880,829,44.279604,26.023396,123,301,Air Hamburg
2019-2-27 16:45:14,3c61f8,AHO884Q ,11880,829,44.279604,26.023396,123,302,Air Hamburg
2019-2-27 16:45:14,3c61f8,AHO884Q ,11880,829,44.279604,26.023396,123,303,Air Hamburg
2019-2-27 16:45:14,3c61f8,AHO884Q ,11880,829,44.276184,26.030600,123,308,Air Hamburg
2019-2-27 16:45:14,3c61f8,AHO884Q ,11880,829,44.276184,26.030600,123,309,Air Hamburg
2019-2-27 16:45:14,3c61f8,AHO884Q ,11880,829,44.276184,26.030600,123,312,Air Hamburg
2019-2-27 16:45:14,3c61f8,AHO884Q ,11880,829,44.274995,26.032975,123,313,Air Hamburg
2019-2-27 16:45:14,3c61f8,AHO884Q ,11880,829,44.274995,26.032975,123,314,Air Hamburg
2019-2-27 16:45:14,3c61f8,AHO884Q ,11880,829,44.274995,26.032975,123,316,Air Hamburg
2019-2-27 16:45:14,3c61f8,AHO884Q ,11880,829,44.274995,26.032975,123,318,Air Hamburg
2019-2-27 16:45:14,3c61f8,AHO884Q ,11880,829,44.273849,26.035374,123,320,Air Hamburg
2019-2-27 16:45:14,3c61f8,AHO884Q ,11880,829,44.272714,26.037732,123,324,Air Hamburg
2019-2-27 16:45:14,3c61f8,AHO884Q ,11880,829,44.272714,26.037732,123,325,Air Hamburg
2019-2-27 16:47:30,3c61f8,AHO884Q ,11880,827,44.272714,26.037732,123,326,Air Hamburg
2019-2-27 16:47:30,3c61f8,AHO884Q ,11880,827,44.268311,26.047015,123,328,Air Hamburg
2019-2-27 16:47:30,3c61f8,AHO884Q ,11880,827,44.268311,26.047015,123,334,Air Hamburg
2019-2-27 16:47:30,3c61f8,AHO884Q ,11880,827,44.268311,26.047015,123,335,Air Hamburg
2019-2-27 16:47:30,3c61f8,AHO884Q ,11880,827,44.267175,26.049388,123,336,Air Hamburg
2019-2-27 16:47:30,3c61f8,AHO884Q ,11880,827,44.267175,26.049388,123,341,Air Hamburg
2019-2-27 16:47:30,3c61f8,AHO884Q ,11880,827,44.267175,26.049388,123,342,Air Hamburg
2019-2-27 16:47:30,3c61f8,AHO884Q ,11880,827,44.267175,26.049388,123,343,Air Hamburg
2019-2-27 16:47:30,3c61f8,AHO884Q ,11880,827,44.258881,26.067025,123,345,Air Hamburg
2019-2-27 16:47:30,3c61f8,AHO884Q ,11880,827,44.258881,26.067025,123,347,Air Hamburg
2019-2-27 16:47:30,3c61f8,AHO884Q ,11880,827,44.258881,26.067025,123,350,Air Hamburg
2019-2-27 16:47:30,3c61f8,AHO884Q ,11880,827,44.257678,26.069485,123,353,Air Hamburg
2019-2-27 16:47:30,3c61f8,AHO884Q ,11880,827,44.257678,26.069485,123,354,Air Hamburg
2019-2-27 16:47:30,3c61f8,AHO884Q ,11880,827,44.257678,26.069485,123,355,Air Hamburg
2019-2-27 16:47:30,3c61f8,AHO884Q ,11880,827,44.257678,26.069485,123,357,Air Hamburg
2019-2-27 16:47:30,3c61f8,AHO884Q ,11880,829,44.257678,26.069485,123,363,Air Hamburg
2019-2-27 16:47:30,3c61f8,AHO884Q ,11880,829,44.255676,26.073696,123,364,Air Hamburg
2019-2-27 16:47:30,3c61f8,AHO884Q ,11880,829,44.255676,26.073696,123,365,Air Hamburg
2019-2-27 16:47:30,3c61f8,AHO884Q ,11880,829,44.255676,26.073696,123,369,Air Hamburg
2019-2-27 16:47:30,3c61f8,AHO884Q ,11880,829,44.255676,26.073696,123,370,Air Hamburg
2019-2-27 16:47:30,3c61f8,AHO884Q ,11880,829,44.255676,26.073696,123,372,Air Hamburg
2019-2-27 16:47:30,3c61f8,AHO884Q ,11880,827,44.255676,26.073696,123,373,Air Hamburg
2019-2-27 16:47:30,3c61f8,AHO884Q ,11880,827,44.255676,26.073696,123,374,Air Hamburg
2019-2-27 16:47:30,3c61f8,AHO884Q ,11880,827,44.255676,26.073696,123,377,Air Hamburg
2019-2-27 16:47:30,3c61f8,AHO884Q ,11880,827,44.255676,26.073696,123,379,Air Hamburg
2019-2-27 16:47:30,3c61f8,AHO884Q ,11880,831,44.255676,26.073696,123,382,Air Hamburg
2019-2-27 16:47:30,3c61f8,AHO884Q ,11880,831,44.255676,26.073696,123,383,Air Hamburg
2019-2-27 16:47:30,3c61f8,AHO884Q ,11880,831,44.255676,26.073696,123,384,Air Hamburg
2019-2-27 16:47:30,3c61f8,AHO884Q ,11880,831,44.255676,26.073696,123,390,Air Hamburg
2019-2-27 16:47:30,3c61f8,AHO884Q ,11880,831,44.255676,26.073696,123,395,Air Hamburg
2019-2-27 16:47:30,3c61f8,AHO884Q ,11880,831,44.239895,26.106731,123,400,Air Hamburg
2019-2-27 16:47:30,3c61f8,AHO884Q ,11880,831,44.239895,26.106731,123,402,Air Hamburg
2019-2-27 16:47:30,3c61f8,AHO884Q ,11880,831,44.238647,26.109270,123,404,Air Hamburg
2019-2-27 16:47:30,3c61f8,AHO884Q ,11880,831,44.237567,26.111487,123,408,Air Hamburg
2019-2-27 16:47:30,3c61f8,AHO884Q ,11880,831,44.237567,26.111487,123,411,Air Hamburg
2019-2-27 16:47:59,3c61f8,AHO884Q ,11880,831,44.237567,26.111487,123,412,Air Hamburg
2019-2-27 16:47:59,3c61f8,AHO884Q ,11880,831,44.237567,26.111487,123,416,Air Hamburg
2019-2-27 16:47:59,3c61f8,AHO884Q ,11880,831,44.237567,26.111487,123,418,Air Hamburg
2019-2-27 16:47:59,3c61f8,AHO884Q ,11880,831,44.237567,26.111487,123,421,Air Hamburg
2019-2-27 16:47:59,3c61f8,AHO884Q ,11880,831,44.237567,26.111487,123,425,Air Hamburg
2019-2-27 16:47:59,3c61f8,AHO884Q ,11880,829,44.237567,26.111487,123,428,Air Hamburg
2019-2-27 16:47:59,3c61f8,AHO884Q ,11880,829,44.228210,26.131178,123,430,Air Hamburg
2019-2-27 16:47:59,3c61f8,AHO884Q ,11880,831,44.228210,26.131178,123,441,Air Hamburg
2019-2-27 16:47:59,3c61f8,AHO884Q ,11880,831,44.228210,26.131178,123,444,Air Hamburg
2019-2-27 16:47:59,3c61f8,AHO884Q ,11880,831,44.228210,26.131178,123,446,Air Hamburg
2019-2-27 16:47:59,3c61f8,AHO884Q ,11880,831,44.222485,26.143174,123,447,Air Hamburg
2019-2-27 16:47:59,3c61f8,AHO884Q ,11880,831,44.215805,26.157139,123,450,Air Hamburg
2019-2-27 16:47:59,3c61f8,AHO884Q ,11880,831,44.215805,26.157139,123,451,Air Hamburg
2019-2-27 16:47:59,3c61f8,AHO884Q ,11880,831,44.215805,26.157139,123,456,Air Hamburg
2019-2-27 16:47:59,3c61f8,AHO884Q ,11880,831,44.215805,26.157139,123,458,Air Hamburg
2019-2-27 16:47:59,3c61f8,AHO884Q ,11880,831,44.215805,26.157139,123,459,Air Hamburg
2019-2-27 16:47:59,3c61f8,AHO884Q ,11880,831,44.215805,26.157139,123,461,Air Hamburg
2019-2-27 16:47:59,3c61f8,AHO884Q ,11880,831,44.215805,26.157139,123,462,Air Hamburg
2019-2-27 16:47:59,3c61f8,AHO884Q ,11880,833,44.215805,26.157139,123,463,Air Hamburg
2019-2-27 16:47:59,3c61f8,AHO884Q ,11880,833,44.215805,26.157139,123,464,Air Hamburg
2019-2-27 16:47:59,3c61f8,AHO884Q ,11880,833,44.215805,26.157139,123,468,Air Hamburg
2019-2-27 16:47:59,3c61f8,AHO884Q ,11880,833,44.215805,26.157139,123,472,Air Hamburg
2019-2-27 16:47:59,3c61f8,AHO884Q ,11880,833,44.215805,26.157139,123,473,Air Hamburg
2019-2-27 16:47:59,3c61f8,AHO884Q ,11880,833,44.215805,26.157139,123,474,Air Hamburg
2019-2-27 16:47:59,3c61f8,AHO884Q ,11880,833,44.215805,26.157139,123,476,Air Hamburg
2019-2-27 16:47:59,3c61f8,AHO884Q ,11880,833,44.215805,26.157139,123,478,Air Hamburg
2019-2-27 16:47:59,3c61f8,AHO884Q ,11880,833,44.215805,26.157139,123,479,Air Hamburg
2019-2-27 16:47:59,3c61f8,AHO884Q ,11880,833,44.215805,26.157139,123,481,Air Hamburg
2019-2-27 16:47:59,3c61f8,AHO884Q ,11880,833,44.215805,26.157139,123,482,Air Hamburg
2019-2-27 16:47:59,3c61f8,AHO884Q ,11880,833,44.215805,26.157139,123,483,Air Hamburg
2019-2-27 16:47:59,3c61f8,AHO884Q ,11880,831,44.215805,26.157139,123,486,Air Hamburg
2019-2-27 16:47:59,3c61f8,AHO884Q ,11880,831,44.215805,26.157139,123,490,Air Hamburg
2019-2-27 16:47:59,3c61f8,AHO884Q ,11880,831,44.215805,26.157139,123,492,Air Hamburg
2019-2-27 16:47:59,3c61f8,AHO884Q ,11880,831,44.215805,26.157139,123,495,Air Hamburg
2019-2-27 16:47:59,3c61f8,AHO884Q ,11880,831,44.215805,26.157139,123,496,Air Hamburg
2019-2-27 16:47:59,3c61f8,AHO884Q ,11880,831,44.215805,26.157139,123,498,Air Hamburg
2019-2-27 16:47:59,3c61f8,AHO884Q ,11880,831,44.188248,26.214720,123,500,Air Hamburg
2019-2-27 16:47:59,3c61f8,AHO884Q ,11880,831,44.188248,26.214720,123,502,Air Hamburg
2019-2-27 16:47:59,3c61f8,AHO884Q ,11880,831,44.188248,26.214720,123,504,Air Hamburg
2019-2-27 16:47:59,3c61f8,AHO884Q ,11880,831,44.188248,26.214720,123,505,Air Hamburg
2019-2-27 16:47:59,3c61f8,AHO884Q ,11880,833,44.188248,26.214720,123,506,Air Hamburg
2019-2-27 16:47:59,3c61f8,AHO884Q ,11880,833,44.188248,26.214720,123,509,Air Hamburg
2019-2-27 16:47:59,3c61f8,AHO884Q ,11880,833,44.188248,26.214720,123,514,Air Hamburg
2019-2-27 16:47:59,3c61f8,AHO884Q ,11880,833,44.188248,26.214720,123,516,Air Hamburg
2019-2-27 16:47:59,3c61f8,AHO884Q ,11880,833,44.188248,26.214720,123,517,Air Hamburg
2019-2-27 16:47:59,3c61f8,AHO884Q ,11880,833,44.188248,26.214720,123,518,Air Hamburg
2019-2-27 16:47:59,3c61f8,AHO884Q ,11880,833,44.188248,26.214720,123,520,Air Hamburg
2019-2-27 16:47:59,3c61f8,AHO884Q ,11880,833,44.183578,26.224365,123,525,Air Hamburg
2019-2-27 16:47:59,3c61f8,AHO884Q ,11880,833,44.183578,26.224365,123,529,Air Hamburg
2019-2-27 16:47:59,3c61f8,AHO884Q ,11880,833,44.182496,26.226654,123,531,Air Hamburg
2019-2-27 16:47:59,3c61f8,AHO884Q ,11880,833,44.182496,26.226654,123,532,Air Hamburg
2019-2-27 16:48:47,3c61f8,AHO884Q ,11880,833,44.182496,26.226654,123,536,Air Hamburg
2019-2-27 16:48:47,3c61f8,AHO884Q ,11880,833,44.181335,26.229028,123,538,Air Hamburg
2019-2-27 16:48:47,3c61f8,AHO884Q ,11880,833,44.181335,26.229028,123,540,Air Hamburg
2019-2-27 16:48:47,3c61f8,AHO884Q ,11880,833,44.181335,26.229028,123,546,Air Hamburg
2019-2-27 16:48:47,3c61f8,AHO884Q ,11880,833,44.181335,26.229028,123,547,Air Hamburg
2019-2-27 16:48:47,3c61f8,AHO884Q ,11880,833,44.181335,26.229028,123,549,Air Hamburg
2019-2-27 16:48:47,3c61f8,AHO884Q ,11880,833,44.181335,26.229028,123,550,Air Hamburg
2019-2-27 16:48:47,3c61f8,AHO884Q ,11880,833,44.175560,26.241106,123,552,Air Hamburg
2019-2-27 16:48:47,3c61f8,AHO884Q ,11880,833,44.175560,26.241106,123,554,Air Hamburg
2019-2-27 16:48:47,3c61f8,AHO884Q ,11880,833,44.175560,26.241106,123,556,Air Hamburg
2019-2-27 16:48:47,3c61f8,AHO884Q ,11880,833,44.175560,26.241106,123,559,Air Hamburg
2019-2-27 16:48:47,3c61f8,AHO884Q ,11880,833,44.175560,26.241106,123,561,Air Hamburg
2019-2-27 16:48:47,3c61f8,AHO884Q ,11880,833,44.175560,26.241106,123,564,Air Hamburg
2019-2-27 16:48:47,3c61f8,AHO884Q ,11880,833,44.173232,26.245946,123,566,Air Hamburg
2019-2-27 16:48:47,3c61f8,AHO884Q ,11880,833,44.173232,26.245946,123,567,Air Hamburg
2019-2-27 16:48:47,3c61f8,AHO884Q ,11880,833,44.173232,26.245946,123,568,Air Hamburg
2019-2-27 16:48:47,3c61f8,AHO884Q ,11880,833,44.173232,26.245946,123,571,Air Hamburg
2019-2-27 16:48:47,3c61f8,AHO884Q ,11880,831,44.171929,26.248692,123,574,Air Hamburg
2019-2-27 16:48:47,3c61f8,AHO884Q ,11880,831,44.171929,26.248692,123,575,Air Hamburg
2019-2-27 16:48:47,3c61f8,AHO884Q ,11880,831,44.171929,26.248692,123,576,Air Hamburg
2019-2-27 16:48:47,3c61f8,AHO884Q ,11880,831,44.171929,26.248692,123,579,Air Hamburg
2019-2-27 16:48:47,3c61f8,AHO884Q ,11880,831,44.171929,26.248692,123,580,Air Hamburg
2019-2-27 16:48:47,3c61f8,AHO884Q ,11880,831,44.171929,26.248692,123,581,Air Hamburg
2019-2-27 16:48:47,3c61f8,AHO884Q ,11880,831,44.171929,26.248692,123,583,Air Hamburg
2019-2-27 16:48:47,3c61f8,AHO884Q ,11880,831,44.169800,26.253109,123,585,Air Hamburg
2019-2-27 16:48:47,3c61f8,AHO884Q ,11880,831,44.169800,26.253109,123,590,Air Hamburg
2019-2-27 16:48:47,3c61f8,AHO884Q ,11880,831,44.169800,26.253109,123,591,Air Hamburg
2019-2-27 16:48:47,3c61f8,AHO884Q ,11880,831,44.169800,26.253109,123,594,Air Hamburg
2019-2-27 16:48:47,3c61f8,AHO884Q ,11880,831,44.167557,26.257771,123,600,Air Hamburg
2019-2-27 16:48:47,3c61f8,AHO884Q ,11880,831,44.167557,26.257771,123,602,Air Hamburg
2019-2-27 16:48:47,3c61f8,AHO884Q ,11880,831,44.167557,26.257771,123,606,Air Hamburg
2019-2-27 16:48:47,3c61f8,AHO884Q ,11880,831,44.166389,26.260332,123,609,Air Hamburg
2019-2-27 16:48:47,3c61f8,AHO884Q ,11880,831,44.166389,26.260332,123,610,Air Hamburg
2019-2-27 16:48:47,3c61f8,AHO884Q ,11880,831,44.166389,26.260332,123,612,Air Hamburg
2019-2-27 16:48:47,3c61f8,AHO884Q ,11880,831,44.166389,26.260332,123,613,Air Hamburg
2019-2-27 16:48:47,3c61f8,AHO884Q ,11880,831,44.166389,26.260332,123,616,Air Hamburg
2019-2-27 16:48:47,3c61f8,AHO884Q ,11880,831,44.166389,26.260332,123,618,Air Hamburg
2019-2-27 16:48:47,3c61f8,AHO884Q ,11880,831,44.163895,26.265436,123,619,Air Hamburg
2019-2-27 16:48:47,3c61f8,AHO884Q ,11880,831,44.163895,26.265436,123,621,Air Hamburg
2019-2-27 16:48:47,3c61f8,AHO884Q ,11880,831,44.163895,26.265436,123,625,Air Hamburg
2019-2-27 16:48:47,3c61f8,AHO884Q ,11880,831,44.163895,26.265436,123,628,Air Hamburg
2019-2-27 16:48:47,3c61f8,AHO884Q ,11880,831,44.163895,26.265436,123,631,Air Hamburg
2019-2-27 16:48:47,3c61f8,AHO884Q ,11880,831,44.163895,26.265436,123,632,Air Hamburg
2019-2-27 16:48:47,3c61f8,AHO884Q ,11880,831,44.163895,26.265436,123,637,Air Hamburg
2019-2-27 16:48:47,3c61f8,AHO884Q ,11880,831,44.163895,26.265436,123,639,Air Hamburg
2019-2-27 16:48:47,3c61f8,AHO884Q ,11880,831,44.160599,26.272335,123,640,Air Hamburg
2019-2-27 16:48:47,3c61f8,AHO884Q ,11880,833,44.160599,26.272335,123,641,Air Hamburg
2019-2-27 16:48:47,3c61f8,AHO884Q ,11880,833,44.160599,26.272335,123,644,Air Hamburg
