2019-2-27 18:26:18,70c0ac,,12184,840,0.000000,0.000000,308,2,Unknown
2019-2-27 18:26:18,70c0ac,,12184,840,0.000000,0.000000,308,7,Unknown
2019-2-27 18:26:18,70c0ac,,12184,840,0.000000,0.000000,308,9,Unknown
2019-2-27 18:26:18,70c0ac,,12184,840,44.284725,25.666675,308,12,Unknown
2019-2-27 18:26:18,70c0ac,,12184,840,44.284725,25.666675,308,16,Unknown
2019-2-27 18:26:18,70c0ac,,12177,840,44.286028,25.664263,308,19,Unknown
2019-2-27 18:26:18,70c0ac,,12177,840,44.286028,25.664263,308,20,Unknown
2019-2-27 18:26:18,70c0ac,,12184,840,44.286028,25.664263,308,27,Unknown
2019-2-27 18:26:18,70c0ac,,12184,840,44.286028,25.664263,308,28,Unknown
2019-2-27 18:26:18,70c0ac,,12184,840,44.287399,25.661577,308,35,Unknown
2019-2-27 18:26:18,70c0ac,,12184,840,44.287399,25.661577,308,36,Unknown
2019-2-27 18:26:18,70c0ac,,12184,840,44.287399,25.661577,308,37,Unknown
2019-2-27 18:26:18,70c0ac,,12184,840,44.287399,25.661577,308,38,Unknown
2019-2-27 18:26:18,70c0ac,,12184,840,44.287399,25.661577,308,44,Unknown
2019-2-27 18:26:18,70c0ac,,12184,840,44.287399,25.661577,308,46,Unknown
2019-2-27 18:26:18,70c0ac,,12184,840,44.289566,25.657364,308,48,Unknown
2019-2-27 18:26:18,70c0ac,,12184,840,44.289566,25.657364,308,52,Unknown
2019-2-27 18:26:18,70c0ac,,12184,840,44.290078,25.656426,307,55,Unknown
2019-2-27 18:26:18,70c0ac,,12184,840,44.290684,25.655555,307,59,Unknown
2019-2-27 18:26:18,70c0ac,,12184,840,44.290684,25.655555,307,60,Unknown
2019-2-27 18:26:18,70c0ac,,12184,840,44.290684,25.655555,307,62,Unknown
2019-2-27 18:26:18,70c0ac,,12184,840,44.290684,25.655555,307,65,Unknown
2019-2-27 18:26:18,70c0ac,,12184,840,44.290684,25.655555,307,66,Unknown
2019-2-27 18:26:18,70c0ac,,12184,840,44.290684,25.655555,307,70,Unknown
2019-2-27 18:26:18,70c0ac,,12184,840,44.293989,25.649191,307,75,Unknown
2019-2-27 18:26:18,70c0ac,,12184,840,44.294827,25.647650,307,76,Unknown
2019-2-27 18:26:18,70c0ac,,12184,840,44.294827,25.647650,307,77,Unknown
2019-2-27 18:26:18,70c0ac,,12184,840,44.295502,25.646406,307,79,Unknown
2019-2-27 18:26:18,70c0ac,,12184,840,44.295502,25.646406,307,81,Unknown
2019-2-27 18:26:18,70c0ac,,12177,840,44.296130,25.645238,307,85,Unknown
2019-2-27 18:26:18,70c0ac,,12177,840,44.296130,25.645238,307,87,Unknown
2019-2-27 18:26:18,70c0ac,,12177,840,44.296689,25.644301,307,90,Unknown
2019-2-27 18:26:18,70c0ac,,12184,840,44.296689,25.644301,307,92,Unknown
2019-2-27 18:26:18,70c0ac,,12184,840,44.296689,25.644301,307,93,Unknown
2019-2-27 18:26:18,70c0ac,,12177,840,44.296689,25.644301,307,97,Unknown
2019-2-27 18:26:18,70c0ac,,12177,840,44.296689,25.644301,307,98,Unknown
2019-2-27 18:26:18,70c0ac,,12177,840,44.299296,25.639477,307,102,Unknown
2019-2-27 18:26:18,70c0ac,,12177,840,44.299296,25.639477,307,107,Unknown
2019-2-27 18:26:18,70c0ac,,12177,840,44.300446,25.637251,307,109,Unknown
2019-2-27 18:26:18,70c0ac,,12177,840,44.300446,25.637251,307,110,Unknown
2019-2-27 18:26:18,70c0ac,,12177,840,44.300446,25.637251,307,111,Unknown
2019-2-27 18:26:18,70c0ac,,12177,840,44.300446,25.637251,308,114,Unknown
2019-2-27 18:26:18,70c0ac,,12177,840,44.300446,25.637251,308,115,Unknown
2019-2-27 18:26:18,70c0ac,,12177,840,44.300446,25.637251,308,117,Unknown
2019-2-27 18:26:18,70c0ac,,12177,840,44.300446,25.637251,308,119,Unknown
2019-2-27 18:26:18,70c0ac,,12177,840,44.300446,25.637251,308,122,Unknown
2019-2-27 18:26:18,70c0ac,,12177,840,44.300446,25.637251,308,123,Unknown
2019-2-27 18:26:18,70c0ac,,12177,840,44.300446,25.637251,308,128,Unknown
2019-2-27 18:26:18,70c0ac,,12177,840,44.300446,25.637251,308,129,Unknown
2019-2-27 18:26:18,70c0ac,,12177,840,44.300446,25.637251,308,132,Unknown
2019-2-27 18:26:18,70c0ac,,12177,840,44.300446,25.637251,308,134,Unknown
2019-2-27 18:26:18,70c0ac,,12177,840,44.305252,25.628357,308,140,Unknown
2019-2-27 18:26:18,70c0ac,,12184,840,44.305252,25.628357,308,143,Unknown
2019-2-27 18:26:18,70c0ac,,12184,840,44.306465,25.626146,308,144,Unknown
2019-2-27 18:26:18,70c0ac,,12184,840,44.306465,25.626146,308,147,Unknown
2019-2-27 18:26:18,70c0ac,,12184,840,44.306465,25.626146,308,148,Unknown
2019-2-27 18:26:18,70c0ac,,12177,838,44.308467,25.622797,308,151,Unknown
2019-2-27 18:26:18,70c0ac,,12177,838,44.308467,25.622797,308,154,Unknown
2019-2-27 18:26:18,70c0ac,,12177,838,44.308467,25.622797,308,155,Unknown
2019-2-27 18:26:18,70c0ac,,12177,838,44.308467,25.622797,308,158,Unknown
2019-2-27 18:26:18,70c0ac,,12184,838,44.309784,25.620444,308,159,Unknown
2019-2-27 18:26:18,70c0ac,,12184,838,44.309784,25.620444,308,160,Unknown
2019-2-27 18:26:18,70c0ac,,12177,838,44.309784,25.620444,308,161,Unknown
2019-2-27 18:26:18,70c0ac,,12184,838,44.310887,25.618041,308,162,Unknown
