2019-2-27 17:15:1,406d6f,,0,0,0.000000,0.000000,0,1,Unknown
2019-2-27 17:15:1,406d6f,,12184,0,0.000000,0.000000,0,2,Unknown
2019-2-27 17:15:1,406d6f,,12184,0,0.000000,0.000000,0,3,Unknown
2019-2-27 17:15:1,406d6f,,12177,0,0.000000,0.000000,0,4,Unknown
2019-2-27 17:15:1,406d6f,,12184,0,0.000000,0.000000,0,5,Unknown
2019-2-27 17:15:1,406d6f,,12184,0,0.000000,0.000000,0,6,Unknown
2019-2-27 17:15:1,406d6f,,12184,0,0.000000,0.000000,0,9,Unknown
2019-2-27 17:15:1,406d6f,,12184,0,0.000000,0.000000,0,11,Unknown
2019-2-27 17:15:1,406d6f,,12184,0,0.000000,0.000000,0,14,Unknown
2019-2-27 17:15:1,406d6f,,12184,0,0.000000,0.000000,0,16,Unknown
2019-2-27 17:15:1,406d6f,,12184,885,0.000000,0.000000,299,19,Unknown
2019-2-27 17:15:1,406d6f,,12184,885,0.000000,0.000000,299,20,Unknown
2019-2-27 17:15:1,406d6f,,12184,885,0.000000,0.000000,299,23,Unknown
