2019-2-27 19:54:9,06a2b0,,0,900,0.000000,0.000000,130,1,Unknown
2019-2-27 19:54:9,06a2b0,,10661,900,0.000000,0.000000,130,2,Unknown
2019-2-27 19:54:9,06a2b0,,10661,900,0.000000,0.000000,130,3,Unknown
2019-2-27 19:54:9,06a2b0,,10661,900,0.000000,0.000000,130,4,Unknown
2019-2-27 19:54:9,06a2b0,,10661,900,0.000000,0.000000,130,6,Unknown
2019-2-27 19:54:9,06a2b0,,10661,900,0.000000,0.000000,130,7,Unknown
2019-2-27 19:54:9,06a2b0,,10661,900,0.000000,0.000000,130,8,Unknown
2019-2-27 19:54:9,06a2b0,,10661,900,0.000000,0.000000,130,11,Unknown
2019-2-27 19:54:9,06a2b0,,10661,901,0.000000,0.000000,130,13,Unknown
2019-2-27 19:54:9,06a2b0,,10661,901,0.000000,0.000000,130,14,Unknown
2019-2-27 19:54:9,06a2b0,,10661,901,0.000000,0.000000,130,19,Unknown
2019-2-27 19:54:9,06a2b0,,10661,901,0.000000,0.000000,130,20,Unknown
2019-2-27 19:54:9,06a2b0,,10661,901,0.000000,0.000000,130,21,Unknown
2019-2-27 19:54:9,06a2b0,,10661,901,0.000000,0.000000,130,22,Unknown
2019-2-27 19:54:9,06a2b0,,10661,901,0.000000,0.000000,130,26,Unknown
2019-2-27 19:54:9,06a2b0,,10661,901,0.000000,0.000000,130,29,Unknown
2019-2-27 19:54:9,06a2b0,,10661,901,0.000000,0.000000,130,33,Unknown
2019-2-27 19:54:9,06a2b0,,10661,901,0.000000,0.000000,130,35,Unknown
2019-2-27 19:54:9,06a2b0,,10661,901,0.000000,0.000000,130,39,Unknown
2019-2-27 19:54:9,06a2b0,,10661,901,0.000000,0.000000,130,43,Unknown
2019-2-27 19:54:9,06a2b0,,10661,901,0.000000,0.000000,130,45,Unknown
2019-2-27 19:54:9,06a2b0,,10661,901,0.000000,0.000000,130,54,Unknown
2019-2-27 19:54:9,06a2b0,,10661,901,0.000000,0.000000,130,55,Unknown
2019-2-27 19:54:9,06a2b0,,10661,901,0.000000,0.000000,130,57,Unknown
2019-2-27 19:54:9,06a2b0,,10661,901,0.000000,0.000000,130,59,Unknown
2019-2-27 19:54:9,06a2b0,,10661,901,0.000000,0.000000,130,63,Unknown
2019-2-27 19:54:9,06a2b0,,10661,901,0.000000,0.000000,130,64,Unknown
2019-2-27 19:54:9,06a2b0,,10661,901,0.000000,0.000000,130,66,Unknown
2019-2-27 19:54:9,06a2b0,,10661,901,0.000000,0.000000,130,67,Unknown
2019-2-27 19:54:9,06a2b0,,10661,901,0.000000,0.000000,130,71,Unknown
2019-2-27 19:54:9,06a2b0,,10661,901,0.000000,0.000000,130,74,Unknown
2019-2-27 19:54:9,06a2b0,,10661,901,0.000000,0.000000,130,75,Unknown
2019-2-27 19:54:9,06a2b0,,10661,901,0.000000,0.000000,130,76,Unknown
2019-2-27 19:54:9,06a2b0,,10661,901,0.000000,0.000000,130,77,Unknown
2019-2-27 19:54:9,06a2b0,,10661,901,0.000000,0.000000,130,78,Unknown
2019-2-27 19:54:9,06a2b0,QTR9KP  ,10661,901,0.000000,0.000000,130,79,Qatar Airways
2019-2-27 19:54:9,06a2b0,QTR9KP  ,10661,901,0.000000,0.000000,130,81,Qatar Airways
2019-2-27 19:54:9,06a2b0,QTR9KP  ,10661,901,0.000000,0.000000,130,85,Qatar Airways
2019-2-27 19:54:9,06a2b0,QTR9KP  ,10661,901,0.000000,0.000000,130,86,Qatar Airways
2019-2-27 19:54:9,06a2b0,QTR9KP  ,10661,901,0.000000,0.000000,130,87,Qatar Airways
2019-2-27 19:54:9,06a2b0,QTR9KP  ,10661,901,0.000000,0.000000,130,90,Qatar Airways
2019-2-27 19:54:9,06a2b0,QTR9KP  ,10661,901,0.000000,0.000000,130,96,Qatar Airways
2019-2-27 19:54:9,06a2b0,QTR9KP  ,10661,901,0.000000,0.000000,130,97,Qatar Airways
2019-2-27 19:54:9,06a2b0,QTR9KP  ,10661,901,0.000000,0.000000,130,100,Qatar Airways
2019-2-27 19:54:9,06a2b0,QTR9KP  ,10661,901,0.000000,0.000000,130,106,Qatar Airways
2019-2-27 19:54:9,06a2b0,QTR9KP  ,10661,901,0.000000,0.000000,130,107,Qatar Airways
2019-2-27 19:54:9,06a2b0,QTR9KP  ,10661,901,0.000000,0.000000,130,108,Qatar Airways
2019-2-27 19:54:9,06a2b0,QTR9KP  ,10661,901,0.000000,0.000000,130,109,Qatar Airways
2019-2-27 19:54:9,06a2b0,QTR9KP  ,10661,901,0.000000,0.000000,130,110,Qatar Airways
2019-2-27 19:54:9,06a2b0,QTR9KP  ,10661,901,0.000000,0.000000,130,111,Qatar Airways
2019-2-27 19:54:9,06a2b0,QTR9KP  ,10661,901,0.000000,0.000000,130,112,Qatar Airways
2019-2-27 19:54:9,06a2b0,QTR9KP  ,10661,901,0.000000,0.000000,130,114,Qatar Airways
2019-2-27 19:54:9,06a2b0,QTR9KP  ,10661,901,0.000000,0.000000,130,117,Qatar Airways
2019-2-27 19:54:9,06a2b0,QTR9KP  ,10661,901,0.000000,0.000000,130,118,Qatar Airways
2019-2-27 19:54:9,06a2b0,QTR9KP  ,10661,901,0.000000,0.000000,130,120,Qatar Airways
2019-2-27 19:54:9,06a2b0,QTR9KP  ,10661,901,0.000000,0.000000,130,123,Qatar Airways
2019-2-27 19:54:9,06a2b0,QTR9KP  ,10661,901,0.000000,0.000000,130,128,Qatar Airways
2019-2-27 19:54:9,06a2b0,QTR9KP  ,10661,901,0.000000,0.000000,130,129,Qatar Airways
2019-2-27 19:54:9,06a2b0,QTR9KP  ,10661,901,0.000000,0.000000,130,130,Qatar Airways
2019-2-27 19:54:9,06a2b0,QTR9KP  ,10661,901,0.000000,0.000000,130,131,Qatar Airways
2019-2-27 19:54:9,06a2b0,QTR9KP  ,10661,901,0.000000,0.000000,130,132,Qatar Airways
2019-2-27 19:54:9,06a2b0,QTR9KP  ,10661,901,0.000000,0.000000,130,134,Qatar Airways
2019-2-27 19:54:9,06a2b0,QTR9KP  ,10661,901,0.000000,0.000000,130,143,Qatar Airways
2019-2-27 19:54:9,06a2b0,QTR9KP  ,10661,901,0.000000,0.000000,130,145,Qatar Airways
2019-2-27 19:54:9,06a2b0,QTR9KP  ,10661,901,0.000000,0.000000,130,146,Qatar Airways
2019-2-27 19:54:9,06a2b0,QTR9KP  ,10661,901,0.000000,0.000000,130,147,Qatar Airways
2019-2-27 19:54:9,06a2b0,QTR9KP  ,10661,901,0.000000,0.000000,130,150,Qatar Airways
2019-2-27 19:54:9,06a2b0,QTR9KP  ,10661,901,0.000000,0.000000,130,151,Qatar Airways
2019-2-27 19:54:9,06a2b0,QTR9KP  ,10661,901,44.363754,26.002350,130,152,Qatar Airways
2019-2-27 19:54:9,06a2b0,QTR9KP  ,10661,901,44.363754,26.002350,130,160,Qatar Airways
2019-2-27 19:54:9,06a2b0,QTR9KP  ,10661,898,44.363754,26.002350,131,162,Qatar Airways
2019-2-27 20:0:40,06a2b0,QTR9KP  ,10661,898,44.363754,26.002350,131,164,Qatar Airways
2019-2-27 20:0:40,06a2b0,QTR9KP  ,10661,898,44.350969,26.022860,131,165,Qatar Airways
2019-2-27 20:0:40,06a2b0,QTR9KP  ,10661,898,44.350969,26.022860,131,167,Qatar Airways
2019-2-27 20:0:40,06a2b0,QTR9KP  ,10661,898,44.350969,26.022860,131,175,Qatar Airways
2019-2-27 20:0:40,06a2b0,QTR9KP  ,10661,898,44.350969,26.022860,131,179,Qatar Airways
2019-2-27 20:0:40,06a2b0,QTR9KP  ,10661,898,44.350969,26.022860,131,187,Qatar Airways
2019-2-27 20:0:40,06a2b0,QTR9KP  ,10661,898,44.350969,26.022860,131,190,Qatar Airways
2019-2-27 20:0:40,06a2b0,QTR9KP  ,10661,898,44.350969,26.022860,131,193,Qatar Airways
2019-2-27 20:0:40,06a2b0,QTR9KP  ,10661,898,44.350969,26.022860,131,201,Qatar Airways
2019-2-27 20:0:40,06a2b0,QTR9KP  ,10661,898,44.350969,26.022860,131,208,Qatar Airways
2019-2-27 20:0:40,06a2b0,QTR9KP  ,10661,898,44.350969,26.022860,131,209,Qatar Airways
2019-2-27 20:0:40,06a2b0,QTR9KP  ,10661,898,44.350969,26.022860,131,210,Qatar Airways
2019-2-27 20:0:40,06a2b0,QTR9KP  ,10661,898,44.340820,26.039036,131,216,Qatar Airways
2019-2-27 20:0:40,06a2b0,QTR9KP  ,10661,898,44.340820,26.039036,131,219,Qatar Airways
2019-2-27 20:0:40,06a2b0,QTR9KP  ,10661,898,44.340820,26.039036,131,221,Qatar Airways
2019-2-27 20:0:40,06a2b0,QTR9KP  ,10661,898,44.340820,26.039036,131,222,Qatar Airways
2019-2-27 20:0:40,06a2b0,QTR9KP  ,10661,898,44.340820,26.039036,131,225,Qatar Airways
2019-2-27 20:0:40,06a2b0,QTR9KP  ,10661,898,44.340820,26.039036,131,226,Qatar Airways
2019-2-27 20:0:40,06a2b0,QTR9KP  ,10661,898,44.340820,26.039036,131,231,Qatar Airways
2019-2-27 20:0:40,06a2b0,QTR9KP  ,10661,898,44.340820,26.039036,131,232,Qatar Airways
2019-2-27 20:0:40,06a2b0,QTR9KP  ,10661,898,44.340820,26.039036,131,234,Qatar Airways
2019-2-27 20:0:40,06a2b0,QTR9KP  ,10661,898,44.340820,26.039036,131,238,Qatar Airways
2019-2-27 20:0:40,06a2b0,QTR9KP  ,10661,898,44.340820,26.039036,131,243,Qatar Airways
2019-2-27 20:0:40,06a2b0,QTR9KP  ,10661,898,44.331603,26.053876,131,245,Qatar Airways
2019-2-27 20:0:40,06a2b0,QTR9KP  ,10661,898,44.331603,26.053876,131,247,Qatar Airways
2019-2-27 20:0:40,06a2b0,QTR9KP  ,10661,898,44.331603,26.053876,131,252,Qatar Airways
2019-2-27 20:0:40,06a2b0,QTR9KP  ,10661,898,44.331603,26.053876,131,253,Qatar Airways
2019-2-27 20:0:40,06a2b0,QTR9KP  ,10661,898,44.330113,26.056221,131,254,Qatar Airways
2019-2-27 20:0:40,06a2b0,QTR9KP  ,10661,898,44.330113,26.056221,131,260,Qatar Airways
2019-2-27 20:0:40,06a2b0,QTR9KP  ,10661,898,44.330113,26.056221,131,265,Qatar Airways
2019-2-27 20:0:40,06a2b0,QTR9KP  ,10661,898,44.330113,26.056221,131,267,Qatar Airways
2019-2-27 20:0:40,06a2b0,QTR9KP  ,10661,898,44.330113,26.056221,131,273,Qatar Airways
2019-2-27 20:0:40,06a2b0,QTR9KP  ,10661,898,44.330113,26.056221,131,274,Qatar Airways
2019-2-27 20:0:40,06a2b0,QTR9KP  ,10661,898,44.330113,26.056221,131,275,Qatar Airways
2019-2-27 20:0:40,06a2b0,QTR9KP  ,10661,898,44.330113,26.056221,131,280,Qatar Airways
2019-2-27 20:0:40,06a2b0,QTR9KP  ,10661,898,44.330113,26.056221,131,283,Qatar Airways
2019-2-27 20:0:40,06a2b0,QTR9KP  ,10661,898,44.330113,26.056221,131,284,Qatar Airways
2019-2-27 20:0:40,06a2b0,QTR9KP  ,10661,898,44.330113,26.056221,131,288,Qatar Airways
2019-2-27 20:0:40,06a2b0,QTR9KP  ,10661,896,44.330113,26.056221,130,295,Qatar Airways
2019-2-27 20:0:40,06a2b0,QTR9KP  ,10661,896,44.330113,26.056221,130,299,Qatar Airways
2019-2-27 20:0:40,06a2b0,QTR9KP  ,10661,896,44.330113,26.056221,130,301,Qatar Airways
2019-2-27 20:0:40,06a2b0,QTR9KP  ,10661,896,44.330113,26.056221,130,308,Qatar Airways
2019-2-27 20:0:40,06a2b0,QTR9KP  ,10661,896,44.330113,26.056221,130,310,Qatar Airways
2019-2-27 20:0:40,06a2b0,QTR9KP  ,10661,896,44.330113,26.056221,130,313,Qatar Airways
2019-2-27 20:0:40,06a2b0,QTR9KP  ,10661,896,44.330113,26.056221,130,316,Qatar Airways
2019-2-27 20:0:40,06a2b0,QTR9KP  ,10661,896,44.330113,26.056221,130,319,Qatar Airways
2019-2-27 20:0:40,06a2b0,QTR9KP  ,10661,896,44.330113,26.056221,130,321,Qatar Airways
2019-2-27 20:0:40,06a2b0,QTR9KP  ,10661,896,44.330113,26.056221,130,327,Qatar Airways
2019-2-27 20:0:40,06a2b0,QTR9KP  ,10661,896,44.330113,26.056221,130,331,Qatar Airways
2019-2-27 20:1:8,06a2b0,QTR9KP  ,10661,896,44.330113,26.056221,130,332,Qatar Airways
2019-2-27 20:1:8,06a2b0,QTR9KP  ,10661,896,44.330113,26.056221,130,333,Qatar Airways
2019-2-27 20:1:8,06a2b0,QTR9KP  ,10661,896,44.330113,26.056221,130,334,Qatar Airways
2019-2-27 20:1:8,06a2b0,QTR9KP  ,10661,896,44.330113,26.056221,130,335,Qatar Airways
2019-2-27 20:1:8,06a2b0,QTR9KP  ,10661,896,44.330113,26.056221,130,336,Qatar Airways
2019-2-27 20:1:8,06a2b0,QTR9KP  ,10661,896,44.330113,26.056221,130,342,Qatar Airways
2019-2-27 20:1:8,06a2b0,QTR9KP  ,10661,896,44.330113,26.056221,130,344,Qatar Airways
2019-2-27 20:1:8,06a2b0,QTR9KP  ,10661,896,44.330113,26.056221,130,345,Qatar Airways
2019-2-27 20:1:8,06a2b0,QTR9KP  ,10661,896,44.330113,26.056221,131,347,Qatar Airways
2019-2-27 20:1:8,06a2b0,QTR9KP  ,10661,896,44.330113,26.056221,131,348,Qatar Airways
2019-2-27 20:1:8,06a2b0,QTR9KP  ,10661,896,44.290054,26.120257,131,349,Qatar Airways
2019-2-27 20:1:8,06a2b0,QTR9KP  ,10661,896,44.290054,26.120257,131,352,Qatar Airways
2019-2-27 20:1:8,06a2b0,QTR9KP  ,10661,896,44.290054,26.120257,131,353,Qatar Airways
2019-2-27 20:1:8,06a2b0,QTR9KP  ,10661,896,44.290054,26.120257,131,356,Qatar Airways
2019-2-27 20:1:8,06a2b0,QTR9KP  ,10661,896,44.290054,26.120257,131,357,Qatar Airways
2019-2-27 20:1:8,06a2b0,QTR9KP  ,10661,896,44.290054,26.120257,131,360,Qatar Airways
2019-2-27 20:1:8,06a2b0,QTR9KP  ,10661,896,44.290054,26.120257,131,361,Qatar Airways
2019-2-27 20:1:8,06a2b0,QTR9KP  ,10661,896,44.290054,26.120257,131,368,Qatar Airways
2019-2-27 20:1:8,06a2b0,QTR9KP  ,10661,896,44.290054,26.120257,131,371,Qatar Airways
2019-2-27 20:1:8,06a2b0,QTR9KP  ,10661,896,44.290054,26.120257,131,373,Qatar Airways
2019-2-27 20:1:8,06a2b0,QTR9KP  ,10661,896,44.290054,26.120257,131,375,Qatar Airways
2019-2-27 20:1:8,06a2b0,QTR9KP  ,10661,896,44.290054,26.120257,131,379,Qatar Airways
2019-2-27 20:1:8,06a2b0,QTR9KP  ,10661,896,44.277602,26.140226,131,380,Qatar Airways
2019-2-27 20:1:8,06a2b0,QTR9KP  ,10661,896,44.277602,26.140226,131,381,Qatar Airways
2019-2-27 20:1:8,06a2b0,QTR9KP  ,10661,896,44.277602,26.140226,131,382,Qatar Airways
2019-2-27 20:1:8,06a2b0,QTR9KP  ,10661,896,44.277602,26.140226,131,383,Qatar Airways
2019-2-27 20:1:8,06a2b0,QTR9KP  ,10661,896,44.277602,26.140226,131,384,Qatar Airways
2019-2-27 20:1:8,06a2b0,QTR9KP  ,10661,896,44.277602,26.140226,131,386,Qatar Airways
2019-2-27 20:1:8,06a2b0,QTR9KP  ,10661,896,44.277602,26.140226,131,389,Qatar Airways
2019-2-27 20:1:8,06a2b0,QTR9KP  ,10661,896,44.277602,26.140226,131,390,Qatar Airways
2019-2-27 20:1:8,06a2b0,QTR9KP  ,10661,896,44.277602,26.140226,131,394,Qatar Airways
2019-2-27 20:1:8,06a2b0,QTR9KP  ,10661,896,44.277602,26.140226,131,396,Qatar Airways
2019-2-27 20:1:8,06a2b0,QTR9KP  ,10661,896,44.277602,26.140226,131,399,Qatar Airways
2019-2-27 20:1:8,06a2b0,QTR9KP  ,10661,896,44.277602,26.140226,131,402,Qatar Airways
2019-2-27 20:1:8,06a2b0,QTR9KP  ,10661,896,44.277602,26.140226,131,406,Qatar Airways
2019-2-27 20:1:8,06a2b0,QTR9KP  ,10661,896,44.277602,26.140226,131,408,Qatar Airways
2019-2-27 20:1:8,06a2b0,QTR9KP  ,10661,896,44.277602,26.140226,131,412,Qatar Airways
2019-2-27 20:1:8,06a2b0,QTR9KP  ,10661,896,44.277602,26.140226,131,415,Qatar Airways
2019-2-27 20:1:8,06a2b0,QTR9KP  ,10661,896,44.277602,26.140226,131,416,Qatar Airways
2019-2-27 20:1:8,06a2b0,QTR9KP  ,10661,896,44.247208,26.188660,131,417,Qatar Airways
2019-2-27 20:1:8,06a2b0,QTR9KP  ,10661,896,44.247208,26.188660,131,419,Qatar Airways
2019-2-27 20:1:8,06a2b0,QTR9KP  ,10661,896,44.247208,26.188660,131,420,Qatar Airways
2019-2-27 20:1:8,06a2b0,QTR9KP  ,10661,896,44.247208,26.188660,131,421,Qatar Airways
2019-2-27 20:1:8,06a2b0,QTR9KP  ,10661,896,44.247208,26.188660,131,425,Qatar Airways
2019-2-27 20:1:8,06a2b0,QTR9KP  ,10661,896,44.247208,26.188660,131,429,Qatar Airways
2019-2-27 20:1:8,06a2b0,QTR9KP  ,10661,896,44.247208,26.188660,131,431,Qatar Airways
2019-2-27 20:1:8,06a2b0,QTR9KP  ,10661,896,44.247208,26.188660,131,432,Qatar Airways
2019-2-27 20:1:8,06a2b0,QTR9KP  ,10661,896,44.247208,26.188660,131,436,Qatar Airways
2019-2-27 20:1:8,06a2b0,QTR9KP  ,10661,896,44.247208,26.188660,131,437,Qatar Airways
2019-2-27 20:1:8,06a2b0,QTR9KP  ,10661,896,44.247208,26.188660,131,438,Qatar Airways
2019-2-27 20:1:8,06a2b0,QTR9KP  ,10661,896,44.247208,26.188660,131,441,Qatar Airways
2019-2-27 20:1:8,06a2b0,QTR9KP  ,10661,896,44.247208,26.188660,131,442,Qatar Airways
2019-2-27 20:1:8,06a2b0,QTR9KP  ,10661,896,44.247208,26.188660,131,444,Qatar Airways
2019-2-27 20:1:8,06a2b0,QTR9KP  ,10661,896,44.237961,26.203374,131,446,Qatar Airways
2019-2-27 20:1:8,06a2b0,QTR9KP  ,10661,896,44.237961,26.203374,131,447,Qatar Airways
2019-2-27 20:1:8,06a2b0,QTR9KP  ,10661,896,44.237961,26.203374,131,448,Qatar Airways
2019-2-27 20:1:8,06a2b0,QTR9KP  ,10661,896,44.236171,26.206144,131,451,Qatar Airways
2019-2-27 20:1:8,06a2b0,QTR9KP  ,10661,896,44.236171,26.206144,131,453,Qatar Airways
2019-2-27 20:1:8,06a2b0,QTR9KP  ,10661,896,44.236171,26.206144,131,454,Qatar Airways
2019-2-27 20:1:8,06a2b0,QTR9KP  ,10661,896,44.236171,26.206144,131,456,Qatar Airways
2019-2-27 20:1:8,06a2b0,QTR9KP  ,10661,896,44.236171,26.206144,131,457,Qatar Airways
2019-2-27 20:1:8,06a2b0,QTR9KP  ,10661,896,44.236171,26.206144,131,460,Qatar Airways
2019-2-27 20:1:8,06a2b0,QTR9KP  ,10661,896,44.233109,26.211090,131,463,Qatar Airways
2019-2-27 20:1:8,06a2b0,QTR9KP  ,10661,896,44.233109,26.211090,131,464,Qatar Airways
2019-2-27 20:1:8,06a2b0,QTR9KP  ,10661,896,44.233109,26.211090,131,465,Qatar Airways
2019-2-27 20:1:8,06a2b0,QTR9KP  ,10661,896,44.222997,26.227179,131,466,Qatar Airways
