2019-2-27 17:52:37,4baa63,,0,796,0.000000,0.000000,130,3,Unknown
2019-2-27 17:52:37,4baa63,,0,796,0.000000,0.000000,130,4,Unknown
2019-2-27 17:52:37,4baa63,,0,796,0.000000,0.000000,130,5,Unknown
2019-2-27 17:52:37,4baa63,,0,796,0.000000,0.000000,130,6,Unknown
2019-2-27 17:52:37,4baa63,,11278,794,0.000000,0.000000,131,8,Unknown
2019-2-27 17:52:37,4baa63,,11278,792,0.000000,0.000000,131,11,Unknown
2019-2-27 17:52:37,4baa63,,11278,792,0.000000,0.000000,131,14,Unknown
2019-2-27 17:52:37,4baa63,,11270,792,0.000000,0.000000,131,20,Unknown
2019-2-27 17:52:37,4baa63,,11270,792,44.496072,25.795028,131,22,Unknown
2019-2-27 17:52:37,4baa63,,11270,792,44.496072,25.795028,131,23,Unknown
2019-2-27 17:52:37,4baa63,,11270,787,44.496072,25.795028,131,27,Unknown
2019-2-27 17:52:37,4baa63,,11270,787,44.496072,25.795028,131,28,Unknown
2019-2-27 17:52:37,4baa63,,11270,787,44.496072,25.795028,131,29,Unknown
2019-2-27 17:52:37,4baa63,,11270,787,44.496072,25.795028,131,30,Unknown
2019-2-27 17:52:37,4baa63,,11270,787,44.496072,25.795028,131,31,Unknown
2019-2-27 17:52:37,4baa63,,11270,785,44.496072,25.795028,131,32,Unknown
2019-2-27 17:52:37,4baa63,,11263,785,44.496072,25.795028,131,34,Unknown
2019-2-27 17:52:37,4baa63,,11263,785,44.496072,25.795028,131,35,Unknown
2019-2-27 17:52:37,4baa63,,11263,785,44.496072,25.795028,131,37,Unknown
2019-2-27 17:52:37,4baa63,,11263,783,44.496072,25.795028,131,39,Unknown
2019-2-27 17:52:37,4baa63,,11263,783,44.496072,25.795028,131,42,Unknown
2019-2-27 17:52:37,4baa63,,11263,783,44.496072,25.795028,131,45,Unknown
2019-2-27 17:52:37,4baa63,,11263,783,44.496072,25.795028,131,46,Unknown
2019-2-27 17:52:37,4baa63,,11263,783,44.496072,25.795028,131,47,Unknown
2019-2-27 17:52:37,4baa63,,11263,783,44.496072,25.795028,131,49,Unknown
2019-2-27 17:52:37,4baa63,,11255,783,44.496072,25.795028,131,50,Unknown
2019-2-27 17:52:37,4baa63,,11255,783,44.496072,25.795028,131,51,Unknown
2019-2-27 17:52:37,4baa63,,11263,783,44.496072,25.795028,131,57,Unknown
2019-2-27 17:52:37,4baa63,,11263,783,44.496072,25.795028,131,59,Unknown
2019-2-27 17:52:37,4baa63,,11263,783,44.496072,25.795028,131,62,Unknown
2019-2-27 17:52:37,4baa63,,11263,783,44.496072,25.795028,131,64,Unknown
2019-2-27 17:52:37,4baa63,,11263,783,44.496072,25.795028,131,66,Unknown
2019-2-27 17:52:37,4baa63,,11263,783,44.496072,25.795028,131,74,Unknown
2019-2-27 17:52:37,4baa63,,11263,783,44.496072,25.795028,131,75,Unknown
2019-2-27 17:52:37,4baa63,,11263,783,44.496072,25.795028,131,78,Unknown
2019-2-27 17:52:37,4baa63,,11263,783,44.496072,25.795028,131,79,Unknown
2019-2-27 17:52:37,4baa63,,11263,783,44.496072,25.795028,131,80,Unknown
2019-2-27 17:52:37,4baa63,,11263,783,44.496072,25.795028,131,86,Unknown
2019-2-27 17:52:37,4baa63,,11263,783,44.496072,25.795028,131,89,Unknown
2019-2-27 17:52:37,4baa63,,11263,783,44.496072,25.795028,131,94,Unknown
2019-2-27 17:52:37,4baa63,,11263,783,44.496072,25.795028,131,98,Unknown
2019-2-27 17:52:37,4baa63,,11263,783,44.496072,25.795028,131,99,Unknown
2019-2-27 17:52:37,4baa63,,11263,783,44.496072,25.795028,131,104,Unknown
2019-2-27 17:52:37,4baa63,,11263,783,44.381332,25.977434,131,110,Unknown
2019-2-27 17:52:37,4baa63,,11263,783,44.381332,25.977434,131,111,Unknown
2019-2-27 17:52:37,4baa63,,11263,783,44.381332,25.977434,131,117,Unknown
2019-2-27 17:52:37,4baa63,,11263,783,44.381332,25.977434,131,122,Unknown
2019-2-27 17:52:37,4baa63,,11263,783,44.379410,25.981227,131,131,Unknown
2019-2-27 17:52:37,4baa63,,11263,783,44.379410,25.981227,131,135,Unknown
2019-2-27 17:52:37,4baa63,,11263,783,44.379410,25.981227,131,140,Unknown
2019-2-27 17:52:37,4baa63,,11263,783,44.376801,25.985216,131,142,Unknown
2019-2-27 17:52:37,4baa63,,11263,783,44.376801,25.985216,131,144,Unknown
2019-2-27 17:55:15,4baa63,,11263,783,44.376801,25.985216,131,146,Unknown
2019-2-27 17:55:15,4baa63,,11263,783,44.376801,25.985216,131,147,Unknown
2019-2-27 17:55:15,4baa63,,11263,783,44.376801,25.985216,131,149,Unknown
2019-2-27 17:55:15,4baa63,,11263,783,44.370117,25.995745,131,155,Unknown
2019-2-27 17:55:15,4baa63,,11263,783,44.370117,25.995745,131,159,Unknown
2019-2-27 17:55:15,4baa63,,11263,783,44.370117,25.995745,131,160,Unknown
2019-2-27 17:55:15,4baa63,,11263,783,44.370117,25.995745,131,162,Unknown
2019-2-27 17:55:15,4baa63,,11263,783,44.370117,25.995745,131,166,Unknown
2019-2-27 17:55:15,4baa63,,11263,783,44.370117,25.995745,131,168,Unknown
2019-2-27 17:55:15,4baa63,THY1PA  ,11263,783,44.370117,25.995745,131,176,Turkish Airlines
2019-2-27 17:55:15,4baa63,THY1PA  ,11263,783,44.370117,25.995745,131,179,Turkish Airlines
2019-2-27 17:55:15,4baa63,THY1PA  ,11263,783,44.370117,25.995745,131,182,Turkish Airlines
2019-2-27 17:55:15,4baa63,THY1PA  ,11263,783,44.370117,25.995745,131,186,Turkish Airlines
2019-2-27 17:55:15,4baa63,THY1PA  ,11263,783,44.370117,25.995745,131,193,Turkish Airlines
2019-2-27 17:55:15,4baa63,THY1PA  ,11263,783,44.370117,25.995745,131,195,Turkish Airlines
2019-2-27 17:55:15,4baa63,THY1PA  ,11263,783,44.370117,25.995745,131,196,Turkish Airlines
2019-2-27 17:55:15,4baa63,THY1PA  ,11263,783,44.370117,25.995745,131,197,Turkish Airlines
2019-2-27 17:55:15,4baa63,THY1PA  ,11263,783,44.370117,25.995745,131,199,Turkish Airlines
2019-2-27 17:55:15,4baa63,THY1PA  ,11263,783,44.370117,25.995745,131,200,Turkish Airlines
2019-2-27 17:55:15,4baa63,THY1PA  ,11263,783,44.370117,25.995745,131,205,Turkish Airlines
2019-2-27 17:55:15,4baa63,THY1PA  ,11263,783,44.370117,25.995745,131,207,Turkish Airlines
2019-2-27 17:55:15,4baa63,THY1PA  ,11263,783,44.370117,25.995745,131,212,Turkish Airlines
2019-2-27 17:55:15,4baa63,THY1PA  ,11263,783,44.370117,25.995745,131,214,Turkish Airlines
2019-2-27 17:55:15,4baa63,THY1PA  ,11263,783,44.370117,25.995745,131,215,Turkish Airlines
2019-2-27 17:55:15,4baa63,THY1PA  ,11263,783,44.370117,25.995745,131,218,Turkish Airlines
2019-2-27 17:55:15,4baa63,THY1PA  ,11255,783,44.370117,25.995745,131,220,Turkish Airlines
2019-2-27 17:55:15,4baa63,THY1PA  ,11255,783,44.370117,25.995745,131,222,Turkish Airlines
2019-2-27 17:55:15,4baa63,THY1PA  ,11255,783,44.370117,25.995745,131,223,Turkish Airlines
2019-2-27 17:55:15,4baa63,THY1PA  ,11263,783,44.370117,25.995745,131,225,Turkish Airlines
2019-2-27 17:55:15,4baa63,THY1PA  ,11263,783,44.370117,25.995745,131,227,Turkish Airlines
2019-2-27 17:55:15,4baa63,THY1PA  ,11263,783,44.370117,25.995745,131,228,Turkish Airlines
2019-2-27 17:55:15,4baa63,THY1PA  ,11263,783,44.370117,25.995745,131,230,Turkish Airlines
2019-2-27 17:55:32,4baa63,THY1PA  ,11255,783,44.370117,25.995745,131,240,Turkish Airlines
2019-2-27 17:55:32,4baa63,THY1PA  ,11263,783,44.370117,25.995745,131,244,Turkish Airlines
2019-2-27 17:55:32,4baa63,THY1PA  ,11263,783,44.370117,25.995745,131,246,Turkish Airlines
2019-2-27 17:55:32,4baa63,THY1PA  ,11263,783,44.370117,25.995745,131,251,Turkish Airlines
2019-2-27 17:55:32,4baa63,THY1PA  ,11255,783,44.370117,25.995745,131,260,Turkish Airlines
2019-2-27 17:55:32,4baa63,THY1PA  ,11255,783,44.370117,25.995745,131,262,Turkish Airlines
2019-2-27 17:55:32,4baa63,THY1PA  ,11255,783,44.370117,25.995745,131,266,Turkish Airlines
2019-2-27 17:55:32,4baa63,THY1PA  ,11255,783,44.370117,25.995745,131,275,Turkish Airlines
2019-2-27 17:55:32,4baa63,THY1PA  ,11255,783,44.370117,25.995745,131,276,Turkish Airlines
2019-2-27 17:55:32,4baa63,THY1PA  ,11255,781,44.350250,26.027200,131,284,Turkish Airlines
2019-2-27 17:55:32,4baa63,THY1PA  ,11255,781,44.350250,26.027200,131,286,Turkish Airlines
2019-2-27 17:55:32,4baa63,THY1PA  ,11255,781,44.350250,26.027200,131,290,Turkish Airlines
2019-2-27 17:55:32,4baa63,THY1PA  ,11255,781,44.350250,26.027200,131,295,Turkish Airlines
2019-2-27 17:55:32,4baa63,THY1PA  ,11255,781,44.350250,26.027200,131,298,Turkish Airlines
2019-2-27 17:55:32,4baa63,THY1PA  ,11255,781,44.346909,26.032889,131,299,Turkish Airlines
2019-2-27 17:55:32,4baa63,THY1PA  ,11255,781,44.346909,26.032889,131,302,Turkish Airlines
2019-2-27 17:55:32,4baa63,THY1PA  ,11255,781,44.345569,26.034851,131,309,Turkish Airlines
2019-2-27 17:55:32,4baa63,THY1PA  ,11255,781,44.345569,26.034851,131,311,Turkish Airlines
2019-2-27 17:55:32,4baa63,THY1PA  ,11255,781,44.345569,26.034851,131,313,Turkish Airlines
2019-2-27 17:55:32,4baa63,THY1PA  ,11255,781,44.345569,26.034851,131,318,Turkish Airlines
2019-2-27 17:55:32,4baa63,THY1PA  ,11255,781,44.345569,26.034851,131,323,Turkish Airlines
2019-2-27 17:55:32,4baa63,THY1PA  ,11255,781,44.345569,26.034851,131,325,Turkish Airlines
2019-2-27 17:55:32,4baa63,THY1PA  ,11255,781,44.345569,26.034851,131,331,Turkish Airlines
2019-2-27 17:55:32,4baa63,THY1PA  ,11255,781,44.345569,26.034851,131,333,Turkish Airlines
2019-2-27 17:55:32,4baa63,THY1PA  ,11255,781,44.345569,26.034851,131,335,Turkish Airlines
2019-2-27 17:55:32,4baa63,THY1PA  ,11255,781,44.345569,26.034851,131,338,Turkish Airlines
2019-2-27 17:55:32,4baa63,THY1PA  ,11255,781,44.345569,26.034851,131,344,Turkish Airlines
2019-2-27 17:55:32,4baa63,THY1PA  ,11255,781,44.345569,26.034851,131,346,Turkish Airlines
2019-2-27 17:55:32,4baa63,THY1PA  ,11255,781,44.338912,26.045368,131,348,Turkish Airlines
2019-2-27 17:55:32,4baa63,THY1PA  ,11255,781,44.338912,26.045368,131,350,Turkish Airlines
2019-2-27 17:55:32,4baa63,THY1PA  ,11255,781,44.338912,26.045368,131,352,Turkish Airlines
2019-2-27 17:55:32,4baa63,THY1PA  ,11255,783,44.337608,26.047512,131,356,Turkish Airlines
2019-2-27 17:55:32,4baa63,THY1PA  ,11255,783,44.337608,26.047512,131,357,Turkish Airlines
2019-2-27 17:55:32,4baa63,THY1PA  ,11255,783,44.337608,26.047512,131,359,Turkish Airlines
2019-2-27 17:55:32,4baa63,THY1PA  ,11255,783,44.336243,26.049892,131,366,Turkish Airlines
2019-2-27 17:55:32,4baa63,THY1PA  ,11255,783,44.336243,26.049892,131,370,Turkish Airlines
2019-2-27 17:55:32,4baa63,THY1PA  ,11255,783,44.336243,26.049892,131,372,Turkish Airlines
2019-2-27 17:55:32,4baa63,THY1PA  ,11255,783,44.336243,26.049892,131,373,Turkish Airlines
2019-2-27 17:55:32,4baa63,THY1PA  ,11255,783,44.336243,26.049892,131,375,Turkish Airlines
2019-2-27 17:55:32,4baa63,THY1PA  ,11255,783,44.333651,26.054010,131,384,Turkish Airlines
2019-2-27 17:55:32,4baa63,THY1PA  ,11255,783,44.333651,26.054010,131,386,Turkish Airlines
2019-2-27 17:55:32,4baa63,THY1PA  ,11255,783,44.333651,26.054010,131,393,Turkish Airlines
2019-2-27 17:55:32,4baa63,THY1PA  ,11255,783,44.333651,26.054010,131,398,Turkish Airlines
2019-2-27 17:55:32,4baa63,THY1PA  ,11255,783,44.333651,26.054010,131,401,Turkish Airlines
2019-2-27 17:55:32,4baa63,THY1PA  ,11255,783,44.333651,26.054010,131,405,Turkish Airlines
2019-2-27 17:55:32,4baa63,THY1PA  ,11255,783,44.333651,26.054010,131,414,Turkish Airlines
2019-2-27 17:55:32,4baa63,THY1PA  ,11255,783,44.331024,26.057935,131,424,Turkish Airlines
2019-2-27 17:55:32,4baa63,THY1PA  ,11255,783,44.331024,26.057935,131,427,Turkish Airlines
2019-2-27 17:55:32,4baa63,THY1PA  ,11255,783,44.331024,26.057935,131,429,Turkish Airlines
2019-2-27 17:55:32,4baa63,THY1PA  ,11255,783,44.331024,26.057935,131,433,Turkish Airlines
2019-2-27 17:55:32,4baa63,THY1PA  ,11255,783,44.331024,26.057935,131,439,Turkish Airlines
2019-2-27 17:55:32,4baa63,THY1PA  ,11255,783,44.327087,26.064410,131,443,Turkish Airlines
2019-2-27 17:55:32,4baa63,THY1PA  ,11255,783,44.327087,26.064410,131,445,Turkish Airlines
2019-2-27 17:55:32,4baa63,THY1PA  ,11255,783,44.327087,26.064410,131,447,Turkish Airlines
2019-2-27 17:55:32,4baa63,THY1PA  ,11255,783,44.327087,26.064410,131,449,Turkish Airlines
2019-2-27 17:55:32,4baa63,THY1PA  ,11255,783,44.327087,26.064410,131,457,Turkish Airlines
2019-2-27 17:55:32,4baa63,THY1PA  ,11255,783,44.327087,26.064410,131,461,Turkish Airlines
2019-2-27 17:55:32,4baa63,THY1PA  ,11255,783,44.327087,26.064410,131,462,Turkish Airlines
2019-2-27 17:55:32,4baa63,THY1PA  ,11255,783,44.324112,26.069183,131,467,Turkish Airlines
2019-2-27 17:55:32,4baa63,THY1PA  ,11255,783,44.324112,26.069183,131,473,Turkish Airlines
2019-2-27 17:55:32,4baa63,THY1PA  ,11255,783,44.324112,26.069183,131,476,Turkish Airlines
2019-2-27 17:55:32,4baa63,THY1PA  ,11255,783,44.324112,26.069183,131,477,Turkish Airlines
2019-2-27 17:55:32,4baa63,THY1PA  ,11255,783,44.324112,26.069183,131,478,Turkish Airlines
2019-2-27 17:55:32,4baa63,THY1PA  ,11255,783,44.320756,26.074174,131,480,Turkish Airlines
2019-2-27 17:55:32,4baa63,THY1PA  ,11255,783,44.320756,26.074174,131,481,Turkish Airlines
2019-2-27 17:55:32,4baa63,THY1PA  ,11255,783,44.320756,26.074174,131,484,Turkish Airlines
2019-2-27 17:55:32,4baa63,THY1PA  ,11255,783,44.320756,26.074174,131,489,Turkish Airlines
2019-2-27 17:55:32,4baa63,THY1PA  ,11255,783,44.320756,26.074174,131,490,Turkish Airlines
2019-2-27 17:55:32,4baa63,THY1PA  ,11255,783,44.320756,26.074174,131,492,Turkish Airlines
2019-2-27 17:55:32,4baa63,THY1PA  ,11255,783,44.320756,26.074174,131,497,Turkish Airlines
2019-2-27 17:55:32,4baa63,THY1PA  ,11255,783,44.320756,26.074174,131,500,Turkish Airlines
2019-2-27 17:55:32,4baa63,THY1PA  ,11255,783,44.320756,26.074174,131,503,Turkish Airlines
2019-2-27 17:55:32,4baa63,THY1PA  ,11255,783,44.320756,26.074174,131,507,Turkish Airlines
2019-2-27 17:55:32,4baa63,THY1PA  ,11255,783,44.320756,26.074174,131,509,Turkish Airlines
2019-2-27 17:55:32,4baa63,THY1PA  ,11255,783,44.311798,26.088606,131,514,Turkish Airlines
2019-2-27 17:55:32,4baa63,THY1PA  ,11255,783,44.311798,26.088606,131,518,Turkish Airlines
2019-2-27 17:55:32,4baa63,THY1PA  ,11255,783,44.311798,26.088606,131,525,Turkish Airlines
2019-2-27 17:55:32,4baa63,THY1PA  ,11255,783,44.311798,26.088606,131,533,Turkish Airlines
2019-2-27 17:55:32,4baa63,THY1PA  ,11255,783,44.310425,26.090829,131,535,Turkish Airlines
2019-2-27 17:55:32,4baa63,THY1PA  ,11255,783,44.310425,26.090829,131,540,Turkish Airlines
2019-2-27 17:55:32,4baa63,THY1PA  ,11255,783,44.310425,26.090829,131,547,Turkish Airlines
2019-2-27 17:55:32,4baa63,THY1PA  ,11255,783,44.310425,26.090829,131,551,Turkish Airlines
2019-2-27 17:55:32,4baa63,THY1PA  ,11255,783,44.309211,26.092730,131,555,Turkish Airlines
2019-2-27 17:55:32,4baa63,THY1PA  ,11255,783,44.309211,26.092730,131,557,Turkish Airlines
2019-2-27 17:55:32,4baa63,THY1PA  ,11255,783,44.309211,26.092730,131,561,Turkish Airlines
2019-2-27 17:55:32,4baa63,THY1PA  ,11255,783,44.309211,26.092730,131,565,Turkish Airlines
2019-2-27 17:55:32,4baa63,THY1PA  ,11255,783,44.309211,26.092730,131,566,Turkish Airlines
2019-2-27 17:55:32,4baa63,THY1PA  ,11255,783,44.309211,26.092730,131,575,Turkish Airlines
2019-2-27 17:55:32,4baa63,THY1PA  ,11255,783,44.309211,26.092730,131,582,Turkish Airlines
2019-2-27 17:55:32,4baa63,THY1PA  ,11255,783,44.309211,26.092730,131,587,Turkish Airlines
2019-2-27 17:55:32,4baa63,THY1PA  ,11255,783,44.309211,26.092730,131,591,Turkish Airlines
2019-2-27 17:55:32,4baa63,THY1PA  ,11255,783,44.309211,26.092730,131,597,Turkish Airlines
2019-2-27 17:55:32,4baa63,THY1PA  ,11255,783,44.309211,26.092730,131,606,Turkish Airlines
2019-2-27 17:55:32,4baa63,THY1PA  ,11255,781,44.309211,26.092730,131,608,Turkish Airlines
2019-2-27 17:55:32,4baa63,THY1PA  ,11255,781,44.309211,26.092730,131,610,Turkish Airlines
2019-2-27 17:55:32,4baa63,THY1PA  ,11255,781,44.309211,26.092730,131,621,Turkish Airlines
2019-2-27 17:55:32,4baa63,THY1PA  ,11255,781,44.309211,26.092730,131,624,Turkish Airlines
2019-2-27 17:55:32,4baa63,THY1PA  ,11255,781,44.304016,26.101096,131,626,Turkish Airlines
2019-2-27 17:55:32,4baa63,THY1PA  ,11255,781,44.304016,26.101096,131,627,Turkish Airlines
2019-2-27 17:55:32,4baa63,THY1PA  ,11255,781,44.304016,26.101096,131,630,Turkish Airlines
2019-2-27 17:55:32,4baa63,THY1PA  ,11255,781,44.301111,26.105324,131,635,Turkish Airlines
2019-2-27 17:55:32,4baa63,THY1PA  ,11255,781,44.301111,26.105324,131,637,Turkish Airlines
2019-2-27 17:55:32,4baa63,THY1PA  ,11255,781,44.301111,26.105324,131,639,Turkish Airlines
2019-2-27 17:55:32,4baa63,THY1PA  ,11255,781,44.301111,26.105324,131,647,Turkish Airlines
2019-2-27 17:55:32,4baa63,THY1PA  ,11255,781,44.299808,26.107602,131,652,Turkish Airlines
2019-2-27 17:55:32,4baa63,THY1PA  ,11255,781,44.299808,26.107602,131,653,Turkish Airlines
2019-2-27 17:55:32,4baa63,THY1PA  ,11255,781,44.299808,26.107602,131,659,Turkish Airlines
2019-2-27 17:55:32,4baa63,THY1PA  ,11255,781,44.299808,26.107602,131,666,Turkish Airlines
2019-2-27 17:55:32,4baa63,THY1PA  ,11255,783,44.298597,26.109746,131,675,Turkish Airlines
2019-2-27 17:55:32,4baa63,THY1PA  ,11255,783,44.298597,26.109746,131,676,Turkish Airlines
2019-2-27 17:55:32,4baa63,THY1PA  ,11255,783,44.298597,26.109746,131,685,Turkish Airlines
2019-2-27 17:55:32,4baa63,THY1PA  ,11255,783,44.298597,26.109746,131,690,Turkish Airlines
2019-2-27 17:55:32,4baa63,THY1PA  ,11255,783,44.298597,26.109746,131,691,Turkish Airlines
2019-2-27 17:55:32,4baa63,THY1PA  ,11255,783,44.298597,26.109746,131,693,Turkish Airlines
2019-2-27 17:55:32,4baa63,THY1PA  ,11255,783,44.298597,26.109746,131,696,Turkish Airlines
2019-2-27 17:55:32,4baa63,THY1PA  ,11248,783,44.298597,26.109746,131,698,Turkish Airlines
2019-2-27 17:55:32,4baa63,THY1PA  ,11248,783,44.298597,26.109746,131,701,Turkish Airlines
2019-2-27 17:55:32,4baa63,THY1PA  ,11255,783,44.293579,26.117641,131,703,Turkish Airlines
2019-2-27 17:55:32,4baa63,THY1PA  ,11255,783,44.293579,26.117641,131,704,Turkish Airlines
2019-2-27 17:55:32,4baa63,THY1PA  ,11255,785,44.292114,26.119930,131,707,Turkish Airlines
2019-2-27 17:55:32,4baa63,THY1PA  ,11248,785,44.292114,26.119930,131,708,Turkish Airlines
2019-2-27 17:55:32,4baa63,THY1PA  ,11248,785,44.292114,26.119930,131,711,Turkish Airlines
2019-2-27 17:55:32,4baa63,THY1PA  ,11248,785,44.292114,26.119930,131,714,Turkish Airlines
2019-2-27 17:55:32,4baa63,THY1PA  ,11255,785,44.289892,26.123144,131,716,Turkish Airlines
2019-2-27 17:55:32,4baa63,THY1PA  ,11248,785,44.289892,26.123144,131,717,Turkish Airlines
2019-2-27 17:55:32,4baa63,THY1PA  ,11248,785,44.289892,26.123144,131,719,Turkish Airlines
2019-2-27 17:55:32,4baa63,THY1PA  ,11248,785,44.289892,26.123144,131,721,Turkish Airlines
2019-2-27 17:55:32,4baa63,THY1PA  ,11248,785,44.289892,26.123144,131,723,Turkish Airlines
2019-2-27 17:55:32,4baa63,THY1PA  ,11255,785,44.287518,26.127230,131,726,Turkish Airlines
2019-2-27 17:55:32,4baa63,THY1PA  ,11248,785,44.287518,26.127230,131,728,Turkish Airlines
2019-2-27 17:55:32,4baa63,THY1PA  ,11248,785,44.287518,26.127230,131,729,Turkish Airlines
2019-2-27 17:55:32,4baa63,THY1PA  ,11248,785,44.287518,26.127230,131,730,Turkish Airlines
2019-2-27 17:55:32,4baa63,THY1PA  ,11255,785,44.286308,26.129307,131,731,Turkish Airlines
2019-2-27 17:55:32,4baa63,THY1PA  ,11255,785,44.286308,26.129307,131,732,Turkish Airlines
2019-2-27 17:55:32,4baa63,THY1PA  ,11255,785,44.286308,26.129307,131,733,Turkish Airlines
2019-2-27 17:55:32,4baa63,THY1PA  ,11248,785,44.286308,26.129307,131,735,Turkish Airlines
2019-2-27 17:55:32,4baa63,THY1PA  ,11248,785,44.286308,26.129307,131,737,Turkish Airlines
2019-2-27 17:55:32,4baa63,THY1PA  ,11248,785,44.283463,26.133401,131,738,Turkish Airlines
2019-2-27 17:55:32,4baa63,THY1PA  ,11248,785,44.283463,26.133401,131,739,Turkish Airlines
2019-2-27 17:55:32,4baa63,THY1PA  ,11255,785,44.283463,26.133401,131,740,Turkish Airlines
2019-2-27 17:55:32,4baa63,THY1PA  ,11248,787,44.280716,26.138109,131,742,Turkish Airlines
2019-2-27 17:55:32,4baa63,THY1PA  ,11248,787,44.280716,26.138109,131,745,Turkish Airlines
2019-2-27 17:55:32,4baa63,THY1PA  ,11248,787,44.280716,26.138109,131,746,Turkish Airlines
2019-2-27 17:55:32,4baa63,THY1PA  ,11248,787,44.280716,26.138109,131,748,Turkish Airlines
2019-2-27 17:55:32,4baa63,THY1PA  ,11248,787,44.280716,26.138109,131,749,Turkish Airlines
2019-2-27 17:55:32,4baa63,THY1PA  ,11248,787,44.280716,26.138109,131,750,Turkish Airlines
2019-2-27 17:55:32,4baa63,THY1PA  ,11248,787,44.277878,26.142426,131,752,Turkish Airlines
2019-2-27 17:55:32,4baa63,THY1PA  ,11248,787,44.277878,26.142426,131,757,Turkish Airlines
2019-2-27 17:55:32,4baa63,THY1PA  ,11248,787,44.277878,26.142426,131,758,Turkish Airlines
2019-2-27 17:55:32,4baa63,THY1PA  ,11255,787,44.277878,26.142426,131,760,Turkish Airlines
2019-2-27 17:55:32,4baa63,THY1PA  ,11255,787,44.277878,26.142426,131,761,Turkish Airlines
2019-2-27 17:55:32,4baa63,THY1PA  ,11255,787,44.277878,26.142426,131,762,Turkish Airlines
2019-2-27 17:55:32,4baa63,THY1PA  ,11255,787,44.277878,26.142426,131,765,Turkish Airlines
2019-2-27 17:55:32,4baa63,THY1PA  ,11255,787,44.277878,26.142426,131,767,Turkish Airlines
2019-2-27 17:55:32,4baa63,THY1PA  ,11255,787,44.277878,26.142426,131,769,Turkish Airlines
2019-2-27 17:55:32,4baa63,THY1PA  ,11255,788,44.277878,26.142426,131,772,Turkish Airlines
2019-2-27 17:55:32,4baa63,THY1PA  ,11255,788,44.277878,26.142426,131,773,Turkish Airlines
2019-2-27 17:55:32,4baa63,THY1PA  ,11255,788,44.277878,26.142426,131,777,Turkish Airlines
2019-2-27 17:55:32,4baa63,THY1PA  ,11255,788,44.277878,26.142426,131,779,Turkish Airlines
2019-2-27 17:55:32,4baa63,THY1PA  ,11255,788,44.277878,26.142426,131,780,Turkish Airlines
2019-2-27 17:55:32,4baa63,THY1PA  ,11255,788,44.262147,26.167357,131,781,Turkish Airlines
2019-2-27 17:55:32,4baa63,THY1PA  ,11255,788,44.262147,26.167357,131,784,Turkish Airlines
2019-2-27 17:55:32,4baa63,THY1PA  ,11255,790,44.260844,26.169367,131,786,Turkish Airlines
2019-2-27 17:55:32,4baa63,THY1PA  ,11255,790,44.260844,26.169367,131,789,Turkish Airlines
2019-2-27 17:55:32,4baa63,THY1PA  ,11255,790,44.260844,26.169367,131,790,Turkish Airlines
2019-2-27 17:55:32,4baa63,THY1PA  ,11255,790,44.260844,26.169367,131,791,Turkish Airlines
2019-2-27 17:55:32,4baa63,THY1PA  ,11255,790,44.260844,26.169367,131,792,Turkish Airlines
2019-2-27 17:55:32,4baa63,THY1PA  ,11255,790,44.260844,26.169367,131,793,Turkish Airlines
2019-2-27 17:55:32,4baa63,THY1PA  ,11255,790,44.260844,26.169367,131,794,Turkish Airlines
2019-2-27 17:55:32,4baa63,THY1PA  ,11255,790,44.256375,26.176401,131,797,Turkish Airlines
2019-2-27 17:55:32,4baa63,THY1PA  ,11255,790,44.256375,26.176401,131,798,Turkish Airlines
2019-2-27 17:55:32,4baa63,THY1PA  ,11255,790,44.256375,26.176401,131,799,Turkish Airlines
2019-2-27 17:55:32,4baa63,THY1PA  ,11255,790,44.256375,26.176401,131,803,Turkish Airlines
2019-2-27 17:55:32,4baa63,THY1PA  ,11255,790,44.253628,26.180688,131,804,Turkish Airlines
2019-2-27 17:55:32,4baa63,THY1PA  ,11255,790,44.253628,26.180688,131,805,Turkish Airlines
2019-2-27 17:55:32,4baa63,THY1PA  ,11255,790,44.253628,26.180688,131,806,Turkish Airlines
2019-2-27 17:55:32,4baa63,THY1PA  ,11255,790,44.253628,26.180688,131,807,Turkish Airlines
2019-2-27 17:55:32,4baa63,THY1PA  ,11255,790,44.253628,26.180688,131,808,Turkish Airlines
2019-2-27 17:55:32,4baa63,THY1PA  ,11255,790,44.253628,26.180688,131,809,Turkish Airlines
2019-2-27 17:55:32,4baa63,THY1PA  ,11255,790,44.253628,26.180688,131,812,Turkish Airlines
2019-2-27 17:55:32,4baa63,THY1PA  ,11255,790,44.249624,26.187052,131,815,Turkish Airlines
2019-2-27 17:55:32,4baa63,THY1PA  ,11255,790,44.249624,26.187052,131,816,Turkish Airlines
2019-2-27 17:55:32,4baa63,THY1PA  ,11255,790,44.249624,26.187052,131,820,Turkish Airlines
2019-2-27 17:55:32,4baa63,THY1PA  ,11255,790,44.249624,26.187052,131,821,Turkish Airlines
2019-2-27 17:55:32,4baa63,THY1PA  ,11255,790,44.249624,26.187052,131,824,Turkish Airlines
2019-2-27 17:55:32,4baa63,THY1PA  ,11255,790,44.249624,26.187052,131,828,Turkish Airlines
2019-2-27 17:55:32,4baa63,THY1PA  ,11255,790,44.249624,26.187052,131,829,Turkish Airlines
2019-2-27 17:55:32,4baa63,THY1PA  ,11255,790,44.249624,26.187052,131,831,Turkish Airlines
2019-2-27 17:55:32,4baa63,THY1PA  ,11255,790,44.245239,26.193564,131,833,Turkish Airlines
2019-2-27 17:55:32,4baa63,THY1PA  ,11255,790,44.245239,26.193564,131,834,Turkish Airlines
2019-2-27 17:55:32,4baa63,THY1PA  ,11255,790,44.245239,26.193564,131,835,Turkish Airlines
2019-2-27 17:55:32,4baa63,THY1PA  ,11255,790,44.241531,26.199842,131,837,Turkish Airlines
2019-2-27 17:55:32,4baa63,THY1PA  ,11255,790,44.241531,26.199842,131,839,Turkish Airlines
2019-2-27 17:55:32,4baa63,THY1PA  ,11255,790,44.241531,26.199842,131,840,Turkish Airlines
2019-2-27 17:55:32,4baa63,THY1PA  ,11255,792,44.240158,26.201869,131,845,Turkish Airlines
2019-2-27 17:55:32,4baa63,THY1PA  ,11255,792,44.240158,26.201869,131,847,Turkish Airlines
2019-2-27 17:55:32,4baa63,THY1PA  ,11255,792,44.238693,26.203831,131,849,Turkish Airlines
2019-2-27 17:55:32,4baa63,THY1PA  ,11255,792,44.238693,26.203831,131,850,Turkish Airlines
2019-2-27 17:55:32,4baa63,THY1PA  ,11255,792,44.238693,26.203831,131,851,Turkish Airlines
2019-2-27 17:55:32,4baa63,THY1PA  ,11255,792,44.238693,26.203831,131,852,Turkish Airlines
2019-2-27 17:55:32,4baa63,THY1PA  ,11255,792,44.238693,26.203831,131,854,Turkish Airlines
2019-2-27 17:55:32,4baa63,THY1PA  ,11255,792,44.238693,26.203831,131,855,Turkish Airlines
2019-2-27 17:55:32,4baa63,THY1PA  ,11255,792,44.238693,26.203831,131,857,Turkish Airlines
2019-2-27 17:55:32,4baa63,THY1PA  ,11248,792,44.238693,26.203831,131,861,Turkish Airlines
2019-2-27 17:55:32,4baa63,THY1PA  ,11255,792,44.236084,26.208344,131,865,Turkish Airlines
2019-2-27 17:55:32,4baa63,THY1PA  ,11255,792,44.236084,26.208344,131,866,Turkish Airlines
2019-2-27 17:55:32,4baa63,THY1PA  ,11255,792,44.234821,26.210364,131,868,Turkish Airlines
2019-2-27 17:55:32,4baa63,THY1PA  ,11255,792,44.234821,26.210364,131,869,Turkish Airlines
2019-2-27 17:55:32,4baa63,THY1PA  ,11255,792,44.234821,26.210364,131,871,Turkish Airlines
2019-2-27 17:55:32,4baa63,THY1PA  ,11255,792,44.234821,26.210364,131,873,Turkish Airlines
2019-2-27 17:55:32,4baa63,THY1PA  ,11255,792,44.234821,26.210364,131,874,Turkish Airlines
2019-2-27 17:55:32,4baa63,THY1PA  ,11255,792,44.234821,26.210364,131,876,Turkish Airlines
2019-2-27 17:55:32,4baa63,THY1PA  ,11255,792,44.234821,26.210364,131,877,Turkish Airlines
2019-2-27 17:55:32,4baa63,THY1PA  ,11255,792,44.234821,26.210364,131,878,Turkish Airlines
2019-2-27 17:55:32,4baa63,THY1PA  ,11255,792,44.232028,26.214451,131,880,Turkish Airlines
2019-2-27 17:55:32,4baa63,THY1PA  ,11255,792,44.232028,26.214451,131,881,Turkish Airlines
2019-2-27 17:55:32,4baa63,THY1PA  ,11255,792,44.232028,26.214451,131,884,Turkish Airlines
2019-2-27 17:55:32,4baa63,THY1PA  ,11255,792,44.232028,26.214451,131,885,Turkish Airlines
2019-2-27 17:55:32,4baa63,THY1PA  ,11255,792,44.232028,26.214451,131,887,Turkish Airlines
2019-2-27 17:55:32,4baa63,THY1PA  ,11248,792,44.232028,26.214451,131,888,Turkish Airlines
2019-2-27 17:55:32,4baa63,THY1PA  ,11255,792,44.232028,26.214451,131,891,Turkish Airlines
2019-2-27 17:55:32,4baa63,THY1PA  ,11255,792,44.232028,26.214451,131,892,Turkish Airlines
2019-2-27 17:55:32,4baa63,THY1PA  ,11255,796,44.232028,26.214451,131,893,Turkish Airlines
2019-2-27 17:55:32,4baa63,THY1PA  ,11255,796,44.232028,26.214451,131,899,Turkish Airlines
2019-2-27 17:55:32,4baa63,THY1PA  ,11255,796,44.232028,26.214451,131,901,Turkish Airlines
2019-2-27 17:55:32,4baa63,THY1PA  ,11255,796,44.225976,26.223896,131,906,Turkish Airlines
2019-2-27 17:55:32,4baa63,THY1PA  ,11255,796,44.225976,26.223896,131,907,Turkish Airlines
2019-2-27 17:55:32,4baa63,THY1PA  ,11255,796,44.225976,26.223896,131,908,Turkish Airlines
2019-2-27 17:55:32,4baa63,THY1PA  ,11255,796,44.225976,26.223896,131,909,Turkish Airlines
2019-2-27 17:55:32,4baa63,THY1PA  ,11248,796,44.225976,26.223896,131,911,Turkish Airlines
2019-2-27 17:55:32,4baa63,THY1PA  ,11255,798,44.225976,26.223896,131,915,Turkish Airlines
2019-2-27 17:55:32,4baa63,THY1PA  ,11255,798,44.225976,26.223896,131,916,Turkish Airlines
2019-2-27 17:55:32,4baa63,THY1PA  ,11255,798,44.225976,26.223896,131,918,Turkish Airlines
2019-2-27 17:57:17,4baa63,THY1PA  ,11255,798,44.225976,26.223896,131,920,Turkish Airlines
2019-2-27 17:57:17,4baa63,THY1PA  ,11255,798,44.225976,26.223896,131,921,Turkish Airlines
2019-2-27 17:57:17,4baa63,THY1PA  ,11255,798,44.225976,26.223896,131,923,Turkish Airlines
2019-2-27 17:57:17,4baa63,THY1PA  ,11255,798,44.225976,26.223896,131,924,Turkish Airlines
2019-2-27 17:57:17,4baa63,THY1PA  ,11255,798,44.225976,26.223896,131,925,Turkish Airlines
2019-2-27 17:57:17,4baa63,THY1PA  ,11255,798,44.225976,26.223896,131,926,Turkish Airlines
2019-2-27 17:57:17,4baa63,THY1PA  ,11255,798,44.225976,26.223896,131,927,Turkish Airlines
2019-2-27 17:57:17,4baa63,THY1PA  ,11263,798,44.225976,26.223896,131,928,Turkish Airlines
2019-2-27 17:57:17,4baa63,THY1PA  ,11263,803,44.225976,26.223896,131,930,Turkish Airlines
2019-2-27 17:57:17,4baa63,THY1PA  ,11263,803,44.225976,26.223896,131,932,Turkish Airlines
2019-2-27 17:57:17,4baa63,THY1PA  ,11263,803,44.225976,26.223896,131,933,Turkish Airlines
2019-2-27 17:57:17,4baa63,THY1PA  ,11263,803,44.225976,26.223896,131,934,Turkish Airlines
2019-2-27 17:57:17,4baa63,THY1PA  ,11263,803,44.225976,26.223896,131,938,Turkish Airlines
2019-2-27 17:57:17,4baa63,THY1PA  ,11270,807,44.225976,26.223896,131,942,Turkish Airlines
