2019-2-27 17:24:19,4baa61,,0,850,0.000000,0.000000,141,1,Unknown
2019-2-27 17:24:19,4baa61,,10661,850,0.000000,0.000000,141,2,Unknown
2019-2-27 17:24:19,4baa61,,10669,850,0.000000,0.000000,141,8,Unknown
2019-2-27 17:24:19,4baa61,,10669,850,0.000000,0.000000,141,12,Unknown
2019-2-27 17:25:29,4baa61,,10669,850,0.000000,0.000000,141,17,Unknown
2019-2-27 17:25:29,4baa61,,10669,850,0.000000,0.000000,141,23,Unknown
2019-2-27 17:25:29,4baa61,,10669,850,0.000000,0.000000,141,26,Unknown
2019-2-27 17:25:29,4baa61,,10669,850,0.000000,0.000000,141,33,Unknown
2019-2-27 17:25:29,4baa61,,10669,850,0.000000,0.000000,141,35,Unknown
2019-2-27 17:25:29,4baa61,,10669,850,0.000000,0.000000,141,42,Unknown
2019-2-27 17:25:29,4baa61,,10669,850,0.000000,0.000000,141,44,Unknown
2019-2-27 17:25:29,4baa61,,10669,850,0.000000,0.000000,141,48,Unknown
2019-2-27 17:25:29,4baa61,,10669,850,0.000000,0.000000,141,49,Unknown
2019-2-27 17:25:29,4baa61,,10669,850,0.000000,0.000000,141,50,Unknown
2019-2-27 17:26:2,4baa61,,10669,850,0.000000,0.000000,141,51,Unknown
2019-2-27 17:26:2,4baa61,,10676,850,0.000000,0.000000,141,52,Unknown
2019-2-27 17:26:2,4baa61,,10676,848,44.520745,25.985279,141,55,Unknown
2019-2-27 17:26:2,4baa61,,10676,848,44.520745,25.985279,141,57,Unknown
2019-2-27 17:26:2,4baa61,,10676,848,44.520745,25.985279,141,58,Unknown
2019-2-27 17:26:2,4baa61,,10676,848,44.520745,25.985279,141,59,Unknown
2019-2-27 17:26:2,4baa61,,10676,846,44.505386,26.002219,141,62,Unknown
2019-2-27 17:26:2,4baa61,,10676,846,44.505386,26.002219,141,63,Unknown
2019-2-27 17:26:2,4baa61,,10676,846,44.502319,26.005881,141,64,Unknown
2019-2-27 17:26:2,4baa61,,10676,846,44.502319,26.005881,141,65,Unknown
2019-2-27 17:26:2,4baa61,,10676,846,44.502319,26.005881,141,66,Unknown
2019-2-27 17:26:2,4baa61,,10676,846,44.502319,26.005881,141,69,Unknown
2019-2-27 17:26:2,4baa61,,10676,846,44.493558,26.015558,141,70,Unknown
2019-2-27 17:26:2,4baa61,,10669,846,44.493558,26.015558,141,73,Unknown
2019-2-27 17:26:2,4baa61,,10669,846,44.493558,26.015558,141,75,Unknown
2019-2-27 17:26:2,4baa61,,10676,846,44.488344,26.021118,141,76,Unknown
2019-2-27 17:26:2,4baa61,,10676,846,44.488344,26.021118,141,82,Unknown
2019-2-27 17:26:2,4baa61,,10676,846,44.488344,26.021118,141,84,Unknown
2019-2-27 17:26:2,4baa61,,10676,846,44.488344,26.021118,141,86,Unknown
2019-2-27 17:26:2,4baa61,,10676,846,44.488344,26.021118,141,87,Unknown
2019-2-27 17:26:2,4baa61,,10669,846,44.488344,26.021118,141,89,Unknown
2019-2-27 17:26:2,4baa61,,10669,846,44.488344,26.021118,141,99,Unknown
2019-2-27 17:26:2,4baa61,,10676,846,44.488344,26.021118,141,101,Unknown
2019-2-27 17:26:2,4baa61,,10669,846,44.488344,26.021118,141,109,Unknown
2019-2-27 17:26:2,4baa61,,10669,846,44.488344,26.021118,141,112,Unknown
2019-2-27 17:26:2,4baa61,,10669,844,44.488344,26.021118,141,114,Unknown
2019-2-27 17:26:2,4baa61,,10669,844,44.488344,26.021118,141,115,Unknown
2019-2-27 17:26:2,4baa61,,10676,844,44.488344,26.021118,141,122,Unknown
2019-2-27 17:26:2,4baa61,,10669,844,44.488344,26.021118,141,126,Unknown
2019-2-27 17:26:2,4baa61,,10669,844,44.488344,26.021118,141,128,Unknown
2019-2-27 17:26:2,4baa61,,10669,844,44.488344,26.021118,141,132,Unknown
2019-2-27 17:26:2,4baa61,,10669,844,44.488344,26.021118,141,134,Unknown
2019-2-27 17:26:2,4baa61,,10669,844,44.488344,26.021118,141,136,Unknown
2019-2-27 17:26:2,4baa61,,10676,844,44.488344,26.021118,141,139,Unknown
2019-2-27 17:26:2,4baa61,,10676,844,44.488344,26.021118,141,141,Unknown
2019-2-27 17:26:2,4baa61,,10669,844,44.488344,26.021118,141,142,Unknown
2019-2-27 17:26:35,4baa61,,10669,844,44.488344,26.021118,141,147,Unknown
2019-2-27 17:26:35,4baa61,,10669,844,44.488344,26.021118,141,148,Unknown
2019-2-27 17:26:35,4baa61,,10669,844,44.488344,26.021118,141,149,Unknown
2019-2-27 17:26:35,4baa61,,10669,844,44.488344,26.021118,141,156,Unknown
2019-2-27 17:26:35,4baa61,,10669,844,44.488344,26.021118,141,157,Unknown
2019-2-27 17:26:35,4baa61,,10669,844,44.488344,26.021118,141,159,Unknown
2019-2-27 17:26:35,4baa61,,10676,844,44.488344,26.021118,141,167,Unknown
2019-2-27 17:26:35,4baa61,,10669,844,44.488344,26.021118,141,169,Unknown
2019-2-27 17:26:35,4baa61,,10669,844,44.488344,26.021118,141,172,Unknown
2019-2-27 17:26:35,4baa61,,10669,844,44.488344,26.021118,141,178,Unknown
2019-2-27 17:26:35,4baa61,,10676,844,44.488344,26.021118,141,184,Unknown
2019-2-27 17:26:35,4baa61,,10669,842,44.488344,26.021118,141,194,Unknown
2019-2-27 17:26:35,4baa61,,10669,842,44.488344,26.021118,141,195,Unknown
2019-2-27 17:26:35,4baa61,,10676,842,44.488344,26.021118,141,202,Unknown
2019-2-27 17:26:35,4baa61,,10669,842,44.488344,26.021118,141,211,Unknown
2019-2-27 17:26:35,4baa61,,10676,842,44.488344,26.021118,141,215,Unknown
2019-2-27 17:26:35,4baa61,,10676,842,44.488344,26.021118,141,216,Unknown
2019-2-27 17:26:35,4baa61,,10676,842,44.488344,26.021118,141,218,Unknown
2019-2-27 17:26:35,4baa61,,10669,842,44.488344,26.021118,141,224,Unknown
2019-2-27 17:26:35,4baa61,,10676,842,44.460800,26.051527,141,229,Unknown
2019-2-27 17:26:35,4baa61,,10676,842,44.460800,26.051527,141,231,Unknown
2019-2-27 17:26:35,4baa61,,10676,842,44.460800,26.051527,141,237,Unknown
2019-2-27 17:26:35,4baa61,,10669,842,44.460800,26.051527,141,247,Unknown
2019-2-27 17:26:35,4baa61,,10669,842,44.458923,26.053423,141,250,Unknown
2019-2-27 17:26:35,4baa61,,10669,842,44.458923,26.053423,141,256,Unknown
2019-2-27 17:26:35,4baa61,,10669,842,44.458923,26.053423,141,262,Unknown
2019-2-27 17:26:35,4baa61,,10676,842,44.458923,26.053423,141,265,Unknown
2019-2-27 17:26:35,4baa61,,10676,842,44.457458,26.055058,141,270,Unknown
2019-2-27 17:26:35,4baa61,,10669,842,44.457458,26.055058,141,280,Unknown
2019-2-27 17:26:35,4baa61,,10676,842,44.457458,26.055058,141,286,Unknown
2019-2-27 17:26:35,4baa61,,10676,842,44.457458,26.055058,141,290,Unknown
2019-2-27 17:26:35,4baa61,,10676,842,44.457458,26.055058,141,292,Unknown
2019-2-27 17:26:44,4baa61,,10676,842,44.457458,26.055058,141,302,Unknown
2019-2-27 17:26:44,4baa61,,10676,842,44.457458,26.055058,141,307,Unknown
2019-2-27 17:26:44,4baa61,,10669,842,44.457458,26.055058,141,314,Unknown
2019-2-27 17:26:44,4baa61,,10669,842,44.457458,26.055058,141,315,Unknown
2019-2-27 17:26:44,4baa61,,10669,842,44.457458,26.055058,141,324,Unknown
2019-2-27 17:26:44,4baa61,,10669,842,44.457458,26.055058,141,335,Unknown
2019-2-27 17:26:44,4baa61,,10669,842,44.452127,26.061111,141,338,Unknown
2019-2-27 17:26:44,4baa61,,10676,842,44.452127,26.061111,141,340,Unknown
2019-2-27 17:26:44,4baa61,,10669,842,44.452127,26.061111,141,349,Unknown
2019-2-27 17:26:44,4baa61,,10669,842,44.452127,26.061111,141,362,Unknown
2019-2-27 17:26:44,4baa61,,10676,842,44.452127,26.061111,141,363,Unknown
2019-2-27 17:26:44,4baa61,,10669,842,44.452127,26.061111,141,370,Unknown
2019-2-27 17:26:44,4baa61,,10669,842,44.452127,26.061111,141,374,Unknown
2019-2-27 17:26:44,4baa61,,10676,842,44.452127,26.061111,141,380,Unknown
2019-2-27 17:26:44,4baa61,,10669,842,44.448728,26.064729,141,383,Unknown
2019-2-27 17:26:44,4baa61,THY1EV  ,10669,842,44.448728,26.064729,141,387,Turkish Airlines
2019-2-27 17:26:44,4baa61,THY1EV  ,10669,842,44.448728,26.064729,141,393,Turkish Airlines
2019-2-27 17:26:44,4baa61,THY1EV  ,10669,842,44.448728,26.064729,141,394,Turkish Airlines
2019-2-27 17:26:44,4baa61,THY1EV  ,10669,842,44.446976,26.066829,141,399,Turkish Airlines
2019-2-27 17:26:44,4baa61,THY1EV  ,10669,842,44.446976,26.066829,141,407,Turkish Airlines
2019-2-27 17:26:44,4baa61,THY1EV  ,10669,842,44.446976,26.066829,141,415,Turkish Airlines
2019-2-27 17:26:44,4baa61,THY1EV  ,10669,842,44.446976,26.066829,141,420,Turkish Airlines
2019-2-27 17:26:44,4baa61,THY1EV  ,10669,842,44.446976,26.066829,141,427,Turkish Airlines
2019-2-27 17:26:44,4baa61,THY1EV  ,10669,842,44.446976,26.066829,141,433,Turkish Airlines
2019-2-27 17:26:44,4baa61,THY1EV  ,10669,842,44.446976,26.066829,141,436,Turkish Airlines
2019-2-27 17:26:44,4baa61,THY1EV  ,10669,842,44.443561,26.070490,141,439,Turkish Airlines
2019-2-27 17:26:44,4baa61,THY1EV  ,10669,842,44.443561,26.070490,141,443,Turkish Airlines
2019-2-27 17:26:44,4baa61,THY1EV  ,10669,842,44.443561,26.070490,141,447,Turkish Airlines
2019-2-27 17:26:44,4baa61,THY1EV  ,10669,842,44.443561,26.070490,141,449,Turkish Airlines
2019-2-27 17:26:44,4baa61,THY1EV  ,10669,840,44.443561,26.070490,141,455,Turkish Airlines
2019-2-27 17:26:44,4baa61,THY1EV  ,10669,840,44.443561,26.070490,141,460,Turkish Airlines
2019-2-27 17:26:44,4baa61,THY1EV  ,10669,840,44.443561,26.070490,141,465,Turkish Airlines
2019-2-27 17:26:44,4baa61,THY1EV  ,10669,840,44.443561,26.070490,141,466,Turkish Airlines
2019-2-27 17:26:44,4baa61,THY1EV  ,10669,840,44.439837,26.074576,141,478,Turkish Airlines
2019-2-27 17:26:44,4baa61,THY1EV  ,10669,840,44.439837,26.074576,141,484,Turkish Airlines
2019-2-27 17:26:44,4baa61,THY1EV  ,10669,840,44.439837,26.074576,141,492,Turkish Airlines
2019-2-27 17:26:44,4baa61,THY1EV  ,10669,840,44.439837,26.074576,141,494,Turkish Airlines
2019-2-27 17:26:44,4baa61,THY1EV  ,10669,840,44.436539,26.078208,141,498,Turkish Airlines
2019-2-27 17:26:44,4baa61,THY1EV  ,10669,840,44.436539,26.078208,141,500,Turkish Airlines
2019-2-27 17:26:44,4baa61,THY1EV  ,10669,840,44.434753,26.080039,141,501,Turkish Airlines
2019-2-27 17:26:44,4baa61,THY1EV  ,10669,840,44.434753,26.080039,141,506,Turkish Airlines
2019-2-27 17:26:44,4baa61,THY1EV  ,10669,840,44.434753,26.080039,141,507,Turkish Airlines
2019-2-27 17:26:44,4baa61,THY1EV  ,10669,840,44.434753,26.080039,141,509,Turkish Airlines
2019-2-27 17:26:44,4baa61,THY1EV  ,10669,840,44.434753,26.080039,141,512,Turkish Airlines
2019-2-27 17:26:44,4baa61,THY1EV  ,10669,840,44.434753,26.080039,141,513,Turkish Airlines
2019-2-27 17:26:44,4baa61,THY1EV  ,10669,840,44.434753,26.080039,141,516,Turkish Airlines
2019-2-27 17:26:44,4baa61,THY1EV  ,10669,840,44.434753,26.080039,141,522,Turkish Airlines
2019-2-27 17:26:44,4baa61,THY1EV  ,10669,840,44.434753,26.080039,141,527,Turkish Airlines
2019-2-27 17:26:44,4baa61,THY1EV  ,10669,840,44.434753,26.080039,141,528,Turkish Airlines
2019-2-27 17:26:44,4baa61,THY1EV  ,10669,840,44.428152,26.087438,141,530,Turkish Airlines
2019-2-27 17:26:44,4baa61,THY1EV  ,10669,840,44.428152,26.087438,141,539,Turkish Airlines
2019-2-27 17:26:44,4baa61,THY1EV  ,10669,840,44.428152,26.087438,141,542,Turkish Airlines
2019-2-27 17:26:44,4baa61,THY1EV  ,10669,840,44.428152,26.087438,141,544,Turkish Airlines
2019-2-27 17:26:44,4baa61,THY1EV  ,10669,840,44.426383,26.089247,141,545,Turkish Airlines
2019-2-27 17:26:44,4baa61,THY1EV  ,10669,840,44.426383,26.089247,141,556,Turkish Airlines
2019-2-27 17:26:44,4baa61,THY1EV  ,10669,840,44.426383,26.089247,141,563,Turkish Airlines
2019-2-27 17:26:44,4baa61,THY1EV  ,10669,840,44.425778,26.089850,141,566,Turkish Airlines
2019-2-27 17:26:44,4baa61,THY1EV  ,10669,840,44.425778,26.089850,141,575,Turkish Airlines
2019-2-27 17:26:44,4baa61,THY1EV  ,10669,840,44.425778,26.089850,141,581,Turkish Airlines
2019-2-27 17:26:44,4baa61,THY1EV  ,10669,840,44.425778,26.089850,141,589,Turkish Airlines
2019-2-27 17:26:44,4baa61,THY1EV  ,10669,840,44.425778,26.089850,141,593,Turkish Airlines
2019-2-27 17:26:44,4baa61,THY1EV  ,10669,840,44.425778,26.089850,141,599,Turkish Airlines
2019-2-27 17:26:44,4baa61,THY1EV  ,10669,840,44.425778,26.089850,141,602,Turkish Airlines
2019-2-27 17:26:44,4baa61,THY1EV  ,10669,840,44.425778,26.089850,141,609,Turkish Airlines
2019-2-27 17:26:44,4baa61,THY1EV  ,10669,840,44.425778,26.089850,141,612,Turkish Airlines
2019-2-27 17:26:44,4baa61,THY1EV  ,10669,840,44.421076,26.095209,141,615,Turkish Airlines
2019-2-27 17:26:44,4baa61,THY1EV  ,10669,840,44.421076,26.095209,141,622,Turkish Airlines
2019-2-27 17:26:44,4baa61,THY1EV  ,10669,840,44.421076,26.095209,141,627,Turkish Airlines
2019-2-27 17:26:44,4baa61,THY1EV  ,10669,840,44.421076,26.095209,141,633,Turkish Airlines
2019-2-27 17:26:44,4baa61,THY1EV  ,10669,838,44.419261,26.097018,141,636,Turkish Airlines
2019-2-27 17:26:44,4baa61,THY1EV  ,10669,838,44.419261,26.097018,141,645,Turkish Airlines
2019-2-27 17:26:44,4baa61,THY1EV  ,10669,838,44.419261,26.097018,141,650,Turkish Airlines
2019-2-27 17:26:44,4baa61,THY1EV  ,10669,838,44.419261,26.097018,141,656,Turkish Airlines
2019-2-27 17:26:44,4baa61,THY1EV  ,10669,838,44.417953,26.098415,141,660,Turkish Airlines
2019-2-27 17:26:44,4baa61,THY1EV  ,10669,838,44.417953,26.098415,141,672,Turkish Airlines
2019-2-27 17:26:44,4baa61,THY1EV  ,10669,838,44.417953,26.098415,141,678,Turkish Airlines
2019-2-27 17:26:44,4baa61,THY1EV  ,10669,838,44.416397,26.100311,141,680,Turkish Airlines
2019-2-27 17:26:44,4baa61,THY1EV  ,10669,838,44.416397,26.100311,141,685,Turkish Airlines
2019-2-27 17:26:44,4baa61,THY1EV  ,10669,838,44.416397,26.100311,141,691,Turkish Airlines
2019-2-27 17:26:44,4baa61,THY1EV  ,10669,838,44.416397,26.100311,141,696,Turkish Airlines
2019-2-27 17:26:44,4baa61,THY1EV  ,10669,838,44.414419,26.102578,141,699,Turkish Airlines
2019-2-27 17:26:44,4baa61,THY1EV  ,10669,838,44.414419,26.102578,141,703,Turkish Airlines
2019-2-27 17:26:44,4baa61,THY1EV  ,10669,838,44.414419,26.102578,141,712,Turkish Airlines
2019-2-27 17:26:44,4baa61,THY1EV  ,10669,838,44.414419,26.102578,141,717,Turkish Airlines
2019-2-27 17:26:44,4baa61,THY1EV  ,10669,837,44.412460,26.104627,141,720,Turkish Airlines
2019-2-27 17:27:10,4baa61,THY1EV  ,10669,837,44.412460,26.104627,141,727,Turkish Airlines
2019-2-27 17:27:10,4baa61,THY1EV  ,10669,837,44.412460,26.104627,141,734,Turkish Airlines
2019-2-27 17:27:10,4baa61,THY1EV  ,10669,837,44.412460,26.104627,141,738,Turkish Airlines
2019-2-27 17:27:10,4baa61,THY1EV  ,10669,837,44.412460,26.104627,141,743,Turkish Airlines
2019-2-27 17:27:10,4baa61,THY1EV  ,10669,837,44.412460,26.104627,141,756,Turkish Airlines
2019-2-27 17:27:10,4baa61,THY1EV  ,10669,837,44.412460,26.104627,141,763,Turkish Airlines
2019-2-27 17:27:10,4baa61,THY1EV  ,10669,837,44.412460,26.104627,141,764,Turkish Airlines
2019-2-27 17:27:10,4baa61,THY1EV  ,10669,837,44.409252,26.108071,141,771,Turkish Airlines
2019-2-27 17:27:10,4baa61,THY1EV  ,10669,837,44.409252,26.108071,141,781,Turkish Airlines
2019-2-27 17:27:10,4baa61,THY1EV  ,10669,837,44.409252,26.108071,141,787,Turkish Airlines
2019-2-27 17:27:10,4baa61,THY1EV  ,10669,837,44.407669,26.109947,141,789,Turkish Airlines
2019-2-27 17:27:10,4baa61,THY1EV  ,10669,837,44.407669,26.109947,141,799,Turkish Airlines
2019-2-27 17:27:10,4baa61,THY1EV  ,10669,837,44.407669,26.109947,141,805,Turkish Airlines
2019-2-27 17:27:10,4baa61,THY1EV  ,10669,837,44.406226,26.111554,141,810,Turkish Airlines
2019-2-27 17:27:10,4baa61,THY1EV  ,10669,837,44.406226,26.111554,141,819,Turkish Airlines
2019-2-27 17:27:10,4baa61,THY1EV  ,10669,837,44.406226,26.111554,141,824,Turkish Airlines
2019-2-27 17:27:10,4baa61,THY1EV  ,10669,837,44.404312,26.113586,141,830,Turkish Airlines
2019-2-27 17:27:10,4baa61,THY1EV  ,10669,837,44.404312,26.113586,141,832,Turkish Airlines
2019-2-27 17:27:10,4baa61,THY1EV  ,10661,837,44.404312,26.113586,141,841,Turkish Airlines
2019-2-27 17:27:10,4baa61,THY1EV  ,10661,837,44.404312,26.113586,141,845,Turkish Airlines
2019-2-27 17:27:10,4baa61,THY1EV  ,10661,837,44.402688,26.115105,141,847,Turkish Airlines
2019-2-27 17:27:10,4baa61,THY1EV  ,10661,837,44.402688,26.115105,141,853,Turkish Airlines
2019-2-27 17:27:10,4baa61,THY1EV  ,10669,837,44.401199,26.116856,141,859,Turkish Airlines
2019-2-27 17:27:10,4baa61,THY1EV  ,10669,837,44.401199,26.116856,141,861,Turkish Airlines
2019-2-27 17:27:10,4baa61,THY1EV  ,10661,837,44.401199,26.116856,141,864,Turkish Airlines
2019-2-27 17:27:10,4baa61,THY1EV  ,10661,837,44.401199,26.116856,141,865,Turkish Airlines
2019-2-27 17:27:10,4baa61,THY1EV  ,10661,837,44.399430,26.118990,141,872,Turkish Airlines
2019-2-27 17:27:10,4baa61,THY1EV  ,10661,837,44.399430,26.118990,141,873,Turkish Airlines
2019-2-27 17:27:10,4baa61,THY1EV  ,10661,837,44.399430,26.118990,141,879,Turkish Airlines
2019-2-27 17:27:10,4baa61,THY1EV  ,10661,837,44.399430,26.118990,141,885,Turkish Airlines
2019-2-27 17:27:10,4baa61,THY1EV  ,10661,837,44.399430,26.118990,141,889,Turkish Airlines
2019-2-27 17:27:10,4baa61,THY1EV  ,10669,837,44.396264,26.122407,141,893,Turkish Airlines
2019-2-27 17:27:10,4baa61,THY1EV  ,10669,837,44.396264,26.122407,141,894,Turkish Airlines
2019-2-27 17:27:10,4baa61,THY1EV  ,10661,837,44.396264,26.122407,141,897,Turkish Airlines
2019-2-27 17:27:10,4baa61,THY1EV  ,10661,837,44.396264,26.122407,141,898,Turkish Airlines
2019-2-27 17:27:10,4baa61,THY1EV  ,10661,837,44.396264,26.122407,141,901,Turkish Airlines
2019-2-27 17:27:10,4baa61,THY1EV  ,10661,837,44.396264,26.122407,141,907,Turkish Airlines
2019-2-27 17:27:10,4baa61,THY1EV  ,10661,837,44.396264,26.122407,141,911,Turkish Airlines
2019-2-27 17:27:10,4baa61,THY1EV  ,10661,837,44.396264,26.122407,141,912,Turkish Airlines
2019-2-27 17:27:10,4baa61,THY1EV  ,10661,837,44.396264,26.122407,141,914,Turkish Airlines
2019-2-27 17:27:10,4baa61,THY1EV  ,10661,837,44.396264,26.122407,141,915,Turkish Airlines
2019-2-27 17:27:10,4baa61,THY1EV  ,10661,837,44.389840,26.129508,141,922,Turkish Airlines
2019-2-27 17:27:10,4baa61,THY1EV  ,10661,837,44.389840,26.129508,141,927,Turkish Airlines
2019-2-27 17:27:10,4baa61,THY1EV  ,10661,837,44.388071,26.131383,141,936,Turkish Airlines
2019-2-27 17:27:10,4baa61,THY1EV  ,10661,837,44.388071,26.131383,141,942,Turkish Airlines
2019-2-27 17:27:10,4baa61,THY1EV  ,10661,837,44.386093,26.133270,141,944,Turkish Airlines
2019-2-27 17:27:10,4baa61,THY1EV  ,10661,837,44.386093,26.133270,141,946,Turkish Airlines
2019-2-27 17:27:10,4baa61,THY1EV  ,10661,837,44.386093,26.133270,141,949,Turkish Airlines
2019-2-27 17:27:10,4baa61,THY1EV  ,10661,837,44.386093,26.133270,141,958,Turkish Airlines
2019-2-27 17:27:10,4baa61,THY1EV  ,10661,837,44.386395,26.133125,141,962,Turkish Airlines
2019-2-27 17:27:10,4baa61,THY1EV  ,10661,837,44.386395,26.133125,141,963,Turkish Airlines
2019-2-27 17:27:10,4baa61,THY1EV  ,10661,837,44.385269,26.134513,141,965,Turkish Airlines
2019-2-27 17:27:10,4baa61,THY1EV  ,10661,837,44.385269,26.134513,141,966,Turkish Airlines
2019-2-27 17:27:10,4baa61,THY1EV  ,10661,837,44.385269,26.134513,141,969,Turkish Airlines
2019-2-27 17:27:10,4baa61,THY1EV  ,10661,835,44.382997,26.136944,141,975,Turkish Airlines
2019-2-27 17:27:10,4baa61,THY1EV  ,10661,835,44.380902,26.139221,141,986,Turkish Airlines
2019-2-27 17:27:10,4baa61,THY1EV  ,10661,835,44.380902,26.139221,141,990,Turkish Airlines
2019-2-27 17:27:10,4baa61,THY1EV  ,10661,835,44.380902,26.139221,141,991,Turkish Airlines
2019-2-27 17:27:10,4baa61,THY1EV  ,10661,835,44.380902,26.139221,141,993,Turkish Airlines
2019-2-27 17:27:10,4baa61,THY1EV  ,10661,835,44.380902,26.139221,141,995,Turkish Airlines
2019-2-27 17:27:10,4baa61,THY1EV  ,10661,835,44.376247,26.144379,141,999,Turkish Airlines
2019-2-27 17:27:10,4baa61,THY1EV  ,10661,835,44.376247,26.144379,141,1000,Turkish Airlines
2019-2-27 17:27:10,4baa61,THY1EV  ,10661,835,44.376247,26.144379,141,1001,Turkish Airlines
2019-2-27 17:27:10,4baa61,THY1EV  ,10661,835,44.376247,26.144379,141,1002,Turkish Airlines
2019-2-27 17:27:10,4baa61,THY1EV  ,10654,835,44.376247,26.144379,141,1005,Turkish Airlines
2019-2-27 17:27:10,4baa61,THY1EV  ,10661,835,44.376247,26.144379,141,1007,Turkish Airlines
2019-2-27 17:27:10,4baa61,THY1EV  ,10654,835,44.376247,26.144379,141,1008,Turkish Airlines
2019-2-27 17:27:10,4baa61,THY1EV  ,10661,835,44.376247,26.144379,141,1010,Turkish Airlines
2019-2-27 17:27:10,4baa61,THY1EV  ,10654,835,44.376247,26.144379,141,1015,Turkish Airlines
2019-2-27 17:27:10,4baa61,THY1EV  ,10654,835,44.376247,26.144379,141,1019,Turkish Airlines
2019-2-27 17:27:10,4baa61,THY1EV  ,10661,835,44.376247,26.144379,141,1022,Turkish Airlines
2019-2-27 17:27:10,4baa61,THY1EV  ,10654,835,44.347431,26.175664,141,1023,Turkish Airlines
2019-2-27 17:27:10,4baa61,THY1EV  ,10654,835,44.347431,26.175664,141,1028,Turkish Airlines
2019-2-27 17:27:10,4baa61,THY1EV  ,10654,835,44.347431,26.175664,141,1029,Turkish Airlines
2019-2-27 17:27:10,4baa61,THY1EV  ,10654,835,44.347431,26.175664,141,1030,Turkish Airlines
2019-2-27 17:27:10,4baa61,THY1EV  ,10654,835,44.347431,26.175664,141,1031,Turkish Airlines
2019-2-27 17:27:10,4baa61,THY1EV  ,10654,835,44.337936,26.186305,141,1032,Turkish Airlines
2019-2-27 17:27:10,4baa61,THY1EV  ,10654,831,44.336305,26.188124,141,1034,Turkish Airlines
2019-2-27 17:27:10,4baa61,THY1EV  ,10654,831,44.336305,26.188124,141,1035,Turkish Airlines
2019-2-27 17:27:10,4baa61,THY1EV  ,10654,831,44.336305,26.188124,141,1039,Turkish Airlines
2019-2-27 17:27:10,4baa61,THY1EV  ,10654,831,44.336305,26.188124,141,1040,Turkish Airlines
2019-2-27 17:28:7,4baa61,THY1EV  ,10654,827,44.336305,26.188124,141,1045,Turkish Airlines
2019-2-27 17:28:7,4baa61,THY1EV  ,10654,827,44.336305,26.188124,141,1049,Turkish Airlines
2019-2-27 17:28:7,4baa61,THY1EV  ,10654,827,44.336305,26.188124,141,1050,Turkish Airlines
2019-2-27 17:28:7,4baa61,THY1EV  ,10654,827,44.313446,26.213117,141,1052,Turkish Airlines
2019-2-27 17:28:7,4baa61,THY1EV  ,10654,827,44.313446,26.213117,141,1053,Turkish Airlines
2019-2-27 17:28:12,4baa61,THY1EV  ,10654,827,44.305069,26.222273,141,1054,Turkish Airlines
2019-2-27 17:28:12,4baa61,THY1EV  ,10654,827,44.305069,26.222273,141,1055,Turkish Airlines
2019-2-27 17:28:12,4baa61,THY1EV  ,10646,827,44.305069,26.222273,141,1056,Turkish Airlines
2019-2-27 17:28:20,4baa61,THY1EV  ,10646,827,44.295851,26.232337,141,1059,Turkish Airlines
2019-2-27 17:28:20,4baa61,THY1EV  ,10646,827,44.295851,26.232337,141,1061,Turkish Airlines
2019-2-27 17:28:20,4baa61,THY1EV  ,10646,827,44.295851,26.232337,141,1062,Turkish Airlines
2019-2-27 17:28:20,4baa61,THY1EV  ,10654,827,44.295851,26.232337,141,1064,Turkish Airlines
2019-2-27 17:28:20,4baa61,THY1EV  ,10646,827,44.295851,26.232337,141,1065,Turkish Airlines
2019-2-27 17:28:20,4baa61,THY1EV  ,10646,827,44.295851,26.232337,141,1066,Turkish Airlines
2019-2-27 17:28:20,4baa61,THY1EV  ,10646,827,44.295851,26.232337,141,1067,Turkish Airlines
2019-2-27 17:28:20,4baa61,THY1EV  ,10646,827,44.295851,26.232337,141,1068,Turkish Airlines
