2019-2-27 18:23:48,06a1e6,,0,0,0.000000,0.000000,0,1,Unknown
2019-2-27 18:23:48,06a1e6,,10966,0,0.000000,0.000000,0,2,Unknown
2019-2-27 18:23:48,06a1e6,,10966,879,0.000000,0.000000,303,3,Unknown
2019-2-27 18:23:48,06a1e6,,10966,883,0.000000,0.000000,304,4,Unknown
