2019-2-27 14:57:38,392aeb,,1865,466,0.000000,0.000000,297,2,Unknown
2019-2-27 14:57:38,392aeb,,2117,466,0.000000,0.000000,297,5,Unknown
2019-2-27 14:57:38,392aeb,,2117,466,0.000000,0.000000,297,7,Unknown
2019-2-27 14:57:38,392aeb,,2124,466,0.000000,0.000000,297,12,Unknown
2019-2-27 14:57:38,392aeb,,2155,466,0.000000,0.000000,297,13,Unknown
2019-2-27 14:57:38,392aeb,,2155,475,0.000000,0.000000,292,14,Unknown
2019-2-27 14:57:38,392aeb,,2223,475,0.000000,0.000000,292,18,Unknown
2019-2-27 14:57:38,392aeb,,2231,475,0.000000,0.000000,292,28,Unknown
2019-2-27 14:57:38,392aeb,,2238,475,0.000000,0.000000,292,29,Unknown
2019-2-27 14:57:38,392aeb,,2238,475,0.000000,0.000000,292,30,Unknown
2019-2-27 14:57:38,392aeb,,2238,475,0.000000,0.000000,293,31,Unknown
2019-2-27 14:57:38,392aeb,,2345,475,0.000000,0.000000,293,34,Unknown
2019-2-27 14:57:38,392aeb,,2345,475,0.000000,0.000000,293,35,Unknown
2019-2-27 14:57:38,392aeb,,2345,475,0.000000,0.000000,293,37,Unknown
2019-2-27 14:57:38,392aeb,,2353,475,0.000000,0.000000,293,39,Unknown
2019-2-27 14:57:38,392aeb,,2391,475,0.000000,0.000000,293,40,Unknown
2019-2-27 14:57:38,392aeb,,2391,477,0.000000,0.000000,294,46,Unknown
2019-2-27 14:57:38,392aeb,,2391,477,0.000000,0.000000,294,49,Unknown
2019-2-27 14:57:38,392aeb,,2398,477,0.000000,0.000000,294,58,Unknown
2019-2-27 14:57:38,392aeb,,2398,477,0.000000,0.000000,294,59,Unknown
