2019-2-27 16:32:8,3c650c,,0,0,0.000000,0.000000,0,1,Unknown
2019-2-27 16:32:8,3c650c,,11864,0,0.000000,0.000000,0,4,Unknown
2019-2-27 16:32:43,3c650c,,11864,0,0.000000,0.000000,0,5,Unknown
2019-2-27 16:32:43,3c650c,,11864,850,0.000000,0.000000,119,7,Unknown
2019-2-27 16:32:43,3c650c,,11864,850,0.000000,0.000000,119,8,Unknown
2019-2-27 16:32:43,3c650c,,11864,850,0.000000,0.000000,119,10,Unknown
2019-2-27 16:32:43,3c650c,,11864,850,0.000000,0.000000,119,13,Unknown
2019-2-27 16:32:43,3c650c,,11864,850,0.000000,0.000000,119,14,Unknown
2019-2-27 16:32:46,3c650c,,11864,850,0.000000,0.000000,119,17,Unknown
2019-2-27 16:32:46,3c650c,,11864,850,0.000000,0.000000,119,18,Unknown
2019-2-27 16:32:46,3c650c,,11872,850,0.000000,0.000000,119,22,Unknown
2019-2-27 16:32:46,3c650c,,11872,850,0.000000,0.000000,119,23,Unknown
2019-2-27 16:32:46,3c650c,,11872,850,0.000000,0.000000,119,27,Unknown
2019-2-27 16:32:46,3c650c,,11872,850,0.000000,0.000000,119,28,Unknown
2019-2-27 16:32:46,3c650c,,11872,850,0.000000,0.000000,119,29,Unknown
2019-2-27 16:32:46,3c650c,,11872,850,0.000000,0.000000,119,32,Unknown
2019-2-27 16:32:46,3c650c,,11872,850,0.000000,0.000000,119,33,Unknown
2019-2-27 16:32:46,3c650c,,11872,850,44.338531,25.783866,119,35,Unknown
2019-2-27 16:32:46,3c650c,,11872,850,44.338531,25.783866,119,37,Unknown
2019-2-27 16:32:46,3c650c,,11872,850,44.338531,25.783866,119,38,Unknown
2019-2-27 16:32:46,3c650c,,11872,850,44.338531,25.783866,119,41,Unknown
2019-2-27 16:32:46,3c650c,DLH624  ,11872,850,44.338531,25.783866,119,43,Lufthansa
2019-2-27 16:32:46,3c650c,DLH624  ,11872,850,44.338531,25.783866,119,44,Lufthansa
2019-2-27 16:32:46,3c650c,DLH624  ,11872,850,44.338531,25.783866,119,46,Lufthansa
2019-2-27 16:32:46,3c650c,DLH624  ,11872,850,44.338531,25.783866,119,49,Lufthansa
2019-2-27 16:32:46,3c650c,DLH624  ,11872,850,44.336472,25.789032,119,51,Lufthansa
2019-2-27 16:32:46,3c650c,DLH624  ,11872,850,44.336472,25.789032,119,54,Lufthansa
2019-2-27 16:32:46,3c650c,DLH624  ,11872,850,44.335464,25.791582,119,56,Lufthansa
2019-2-27 16:32:46,3c650c,DLH624  ,11872,850,44.335464,25.791582,119,57,Lufthansa
2019-2-27 16:32:46,3c650c,DLH624  ,11872,850,44.335464,25.791582,119,58,Lufthansa
2019-2-27 16:32:46,3c650c,DLH624  ,11872,851,44.334536,25.793956,118,60,Lufthansa
2019-2-27 16:32:46,3c650c,DLH624  ,11872,851,44.334536,25.793956,118,62,Lufthansa
2019-2-27 16:32:46,3c650c,DLH624  ,11872,851,44.334536,25.793956,118,65,Lufthansa
2019-2-27 16:32:46,3c650c,DLH624  ,11872,851,44.334536,25.793956,118,67,Lufthansa
2019-2-27 16:32:46,3c650c,DLH624  ,11872,851,44.334536,25.793956,118,71,Lufthansa
2019-2-27 16:32:46,3c650c,DLH624  ,11872,853,44.332487,25.799114,119,75,Lufthansa
2019-2-27 16:32:46,3c650c,DLH624  ,11872,853,44.332487,25.799114,119,76,Lufthansa
2019-2-27 16:32:46,3c650c,DLH624  ,11872,853,44.332487,25.799114,119,78,Lufthansa
2019-2-27 16:32:46,3c650c,DLH624  ,11872,853,44.332487,25.799114,119,79,Lufthansa
2019-2-27 16:32:46,3c650c,DLH624  ,11872,853,44.332487,25.799114,119,83,Lufthansa
2019-2-27 16:32:46,3c650c,DLH624  ,11872,851,44.332487,25.799114,118,89,Lufthansa
2019-2-27 16:32:46,3c650c,DLH624  ,11872,853,44.326401,25.814340,119,92,Lufthansa
2019-2-27 16:32:46,3c650c,DLH624  ,11872,853,44.326401,25.814340,119,94,Lufthansa
2019-2-27 16:32:46,3c650c,DLH624  ,11864,853,44.326401,25.814340,119,96,Lufthansa
2019-2-27 16:32:46,3c650c,DLH624  ,11864,863,44.326401,25.814340,119,97,Lufthansa
2019-2-27 16:32:46,3c650c,DLH624  ,11864,863,44.326401,25.814340,119,98,Lufthansa
2019-2-27 16:32:46,3c650c,DLH624  ,11864,863,44.326401,25.814340,119,99,Lufthansa
2019-2-27 16:32:46,3c650c,DLH624  ,11872,863,44.326401,25.814340,119,105,Lufthansa
2019-2-27 16:32:46,3c650c,DLH624  ,11872,863,44.326401,25.814340,119,107,Lufthansa
2019-2-27 16:32:46,3c650c,DLH624  ,11872,863,44.326401,25.814340,119,108,Lufthansa
2019-2-27 16:32:46,3c650c,DLH624  ,11872,863,44.326401,25.814340,119,113,Lufthansa
2019-2-27 16:32:46,3c650c,DLH624  ,11872,863,44.326401,25.814340,119,117,Lufthansa
2019-2-27 16:32:46,3c650c,DLH624  ,11872,863,44.326401,25.814340,119,121,Lufthansa
2019-2-27 16:32:46,3c650c,DLH624  ,11872,863,44.326401,25.814340,119,123,Lufthansa
2019-2-27 16:32:46,3c650c,DLH624  ,11872,863,44.326401,25.814340,119,124,Lufthansa
2019-2-27 16:32:46,3c650c,DLH624  ,11864,863,44.326401,25.814340,119,126,Lufthansa
2019-2-27 16:32:46,3c650c,DLH624  ,11864,863,44.326401,25.814340,119,127,Lufthansa
2019-2-27 16:32:46,3c650c,DLH624  ,11864,863,44.326401,25.814340,119,128,Lufthansa
2019-2-27 16:32:46,3c650c,DLH624  ,11864,863,44.326401,25.814340,119,129,Lufthansa
2019-2-27 16:32:46,3c650c,DLH624  ,11864,863,44.326401,25.814340,119,130,Lufthansa
2019-2-27 16:32:46,3c650c,DLH624  ,11864,863,44.326401,25.814340,119,131,Lufthansa
2019-2-27 16:32:46,3c650c,DLH624  ,11864,863,44.326401,25.814340,119,132,Lufthansa
2019-2-27 16:32:46,3c650c,DLH624  ,11864,863,44.326401,25.814340,119,133,Lufthansa
2019-2-27 16:32:46,3c650c,DLH624  ,11864,861,44.326401,25.814340,119,135,Lufthansa
2019-2-27 16:32:46,3c650c,DLH624  ,11864,861,44.326401,25.814340,119,136,Lufthansa
2019-2-27 16:32:46,3c650c,DLH624  ,11864,861,44.238556,26.034328,119,137,Lufthansa
2019-2-27 16:32:46,3c650c,DLH624  ,11864,861,44.238556,26.034328,119,140,Lufthansa
2019-2-27 16:32:46,3c650c,DLH624  ,11864,861,44.238556,26.034328,119,143,Lufthansa
2019-2-27 16:32:46,3c650c,DLH624  ,11872,857,44.238556,26.034328,119,147,Lufthansa
2019-2-27 16:32:46,3c650c,DLH624  ,11864,857,44.238556,26.034328,119,149,Lufthansa
2019-2-27 16:32:46,3c650c,DLH624  ,11864,857,44.238556,26.034328,119,150,Lufthansa
2019-2-27 16:32:46,3c650c,DLH624  ,11864,857,44.238556,26.034328,119,152,Lufthansa
2019-2-27 16:32:46,3c650c,DLH624  ,11864,857,44.238556,26.034328,119,154,Lufthansa
2019-2-27 16:32:46,3c650c,DLH624  ,11872,857,44.232400,26.049656,119,156,Lufthansa
2019-2-27 16:32:46,3c650c,DLH624  ,11872,857,44.232400,26.049656,119,159,Lufthansa
2019-2-27 16:32:46,3c650c,DLH624  ,11872,857,44.232400,26.049656,119,162,Lufthansa
2019-2-27 16:32:46,3c650c,DLH624  ,11872,857,44.232400,26.049656,119,163,Lufthansa
2019-2-27 16:32:46,3c650c,DLH624  ,11872,857,44.232400,26.049656,119,164,Lufthansa
2019-2-27 16:32:46,3c650c,DLH624  ,11872,857,44.232400,26.049656,119,165,Lufthansa
2019-2-27 16:32:46,3c650c,DLH624  ,11872,855,44.230408,26.054600,119,168,Lufthansa
2019-2-27 16:32:46,3c650c,DLH624  ,11872,855,44.230408,26.054600,119,170,Lufthansa
2019-2-27 16:32:46,3c650c,DLH624  ,11872,855,44.230408,26.054600,119,171,Lufthansa
2019-2-27 16:32:46,3c650c,DLH624  ,11872,855,44.230408,26.054600,119,172,Lufthansa
2019-2-27 16:32:46,3c650c,DLH624  ,11872,855,44.230408,26.054600,119,173,Lufthansa
2019-2-27 16:32:46,3c650c,DLH624  ,11872,855,44.230408,26.054600,119,174,Lufthansa
2019-2-27 16:32:46,3c650c,DLH624  ,11872,855,44.230408,26.054600,119,175,Lufthansa
2019-2-27 16:32:46,3c650c,DLH624  ,11872,855,44.225138,26.067743,119,177,Lufthansa
2019-2-27 16:32:46,3c650c,DLH624  ,11872,855,44.223043,26.072901,119,178,Lufthansa
2019-2-27 16:32:46,3c650c,DLH624  ,11872,855,44.223043,26.072901,119,180,Lufthansa
2019-2-27 16:32:46,3c650c,DLH624  ,11872,851,44.222122,26.075200,119,183,Lufthansa
2019-2-27 16:32:46,3c650c,DLH624  ,11872,851,44.222122,26.075200,119,184,Lufthansa
2019-2-27 16:32:46,3c650c,DLH624  ,11872,851,44.222122,26.075200,119,186,Lufthansa
2019-2-27 16:32:46,3c650c,DLH624  ,11872,851,44.222122,26.075200,119,189,Lufthansa
2019-2-27 16:32:46,3c650c,DLH624  ,11872,851,44.222122,26.075200,119,191,Lufthansa
2019-2-27 16:32:46,3c650c,DLH624  ,11872,851,44.222122,26.075200,119,192,Lufthansa
2019-2-27 16:32:46,3c650c,DLH624  ,11872,851,44.222122,26.075200,119,193,Lufthansa
2019-2-27 16:32:46,3c650c,DLH624  ,11872,850,44.213965,26.095544,119,196,Lufthansa
2019-2-27 16:32:46,3c650c,DLH624  ,11872,850,44.213965,26.095544,119,197,Lufthansa
2019-2-27 16:35:2,3c650c,DLH624  ,11872,850,44.213965,26.095544,119,200,Lufthansa
2019-2-27 16:35:2,3c650c,DLH624  ,11872,850,44.213965,26.095544,119,201,Lufthansa
2019-2-27 16:35:2,3c650c,DLH624  ,11872,850,44.213965,26.095544,119,202,Lufthansa
2019-2-27 16:35:2,3c650c,DLH624  ,11872,850,44.213965,26.095544,119,204,Lufthansa
2019-2-27 16:35:2,3c650c,DLH624  ,11872,848,44.213965,26.095544,119,207,Lufthansa
2019-2-27 16:35:2,3c650c,DLH624  ,11872,848,44.213965,26.095544,119,208,Lufthansa
2019-2-27 16:35:2,3c650c,DLH624  ,11872,848,44.213965,26.095544,119,209,Lufthansa
2019-2-27 16:35:2,3c650c,DLH624  ,11872,848,44.213965,26.095544,119,213,Lufthansa
2019-2-27 16:35:2,3c650c,DLH624  ,11872,848,44.213965,26.095544,119,215,Lufthansa
2019-2-27 16:35:2,3c650c,DLH624  ,11872,848,44.213965,26.095544,119,216,Lufthansa
2019-2-27 16:35:2,3c650c,DLH624  ,11872,848,44.213965,26.095544,119,217,Lufthansa
2019-2-27 16:35:2,3c650c,DLH624  ,11872,848,44.213965,26.095544,119,219,Lufthansa
2019-2-27 16:35:2,3c650c,DLH624  ,11872,848,44.213965,26.095544,119,222,Lufthansa
2019-2-27 16:35:2,3c650c,DLH624  ,11872,848,44.213965,26.095544,119,224,Lufthansa
2019-2-27 16:35:2,3c650c,DLH624  ,11872,848,44.213965,26.095544,119,227,Lufthansa
2019-2-27 16:35:2,3c650c,DLH624  ,11872,848,44.213965,26.095544,119,228,Lufthansa
2019-2-27 16:35:2,3c650c,DLH624  ,11872,848,44.213965,26.095544,119,230,Lufthansa
2019-2-27 16:35:2,3c650c,DLH624  ,11872,848,44.213965,26.095544,119,231,Lufthansa
2019-2-27 16:35:2,3c650c,DLH624  ,11872,848,44.183241,26.172049,119,232,Lufthansa
2019-2-27 16:35:2,3c650c,DLH624  ,11864,848,44.183241,26.172049,119,233,Lufthansa
2019-2-27 16:35:2,3c650c,DLH624  ,11864,848,44.183241,26.172049,119,235,Lufthansa
2019-2-27 16:35:2,3c650c,DLH624  ,11864,848,44.183241,26.172049,119,238,Lufthansa
2019-2-27 16:35:32,3c650c,DLH624  ,11864,848,44.183241,26.172049,119,239,Lufthansa
2019-2-27 16:35:32,3c650c,DLH624  ,11864,848,44.183241,26.172049,119,240,Lufthansa
2019-2-27 16:35:32,3c650c,DLH624  ,11864,848,44.183241,26.172049,119,241,Lufthansa
2019-2-27 16:35:32,3c650c,DLH624  ,11864,850,44.183241,26.172049,119,243,Lufthansa
2019-2-27 16:35:32,3c650c,DLH624  ,11872,851,44.183241,26.172049,119,245,Lufthansa
2019-2-27 16:35:32,3c650c,DLH624  ,11872,851,44.183241,26.172049,119,246,Lufthansa
2019-2-27 16:35:32,3c650c,DLH624  ,11872,851,44.183241,26.172049,119,247,Lufthansa
2019-2-27 16:35:32,3c650c,DLH624  ,11872,851,44.183241,26.172049,119,248,Lufthansa
2019-2-27 16:35:32,3c650c,DLH624  ,11872,851,44.183241,26.172049,119,249,Lufthansa
2019-2-27 16:35:32,3c650c,DLH624  ,11872,851,44.183241,26.172049,119,250,Lufthansa
