2019-2-27 18:16:21,896452,,0,0,0.000000,0.000000,0,1,Unknown
2019-2-27 18:16:21,896452,,11270,0,0.000000,0.000000,0,8,Unknown
2019-2-27 18:16:21,896452,,11270,0,0.000000,0.000000,0,9,Unknown
2019-2-27 18:19:2,896452,,11270,0,0.000000,0.000000,0,10,Unknown
2019-2-27 18:19:22,896452,,11270,0,0.000000,0.000000,0,11,Unknown
2019-2-27 18:19:22,896452,,11270,0,0.000000,0.000000,0,12,Unknown
2019-2-27 18:19:22,896452,,11270,0,0.000000,0.000000,0,17,Unknown
2019-2-27 18:19:22,896452,,11270,0,0.000000,0.000000,0,18,Unknown
2019-2-27 18:19:22,896452,,11270,0,0.000000,0.000000,0,19,Unknown
2019-2-27 18:19:22,896452,,11270,863,44.570835,25.972685,128,21,Unknown
2019-2-27 18:19:22,896452,,11270,863,44.570835,25.972685,128,23,Unknown
2019-2-27 18:19:22,896452,,11270,863,44.570835,25.972685,128,26,Unknown
2019-2-27 18:19:22,896452,,11270,863,44.570835,25.972685,128,27,Unknown
2019-2-27 18:19:22,896452,,11270,863,44.570835,25.972685,128,30,Unknown
2019-2-27 18:19:22,896452,,11270,863,44.570835,25.972685,128,33,Unknown
2019-2-27 18:19:22,896452,,11270,859,44.570835,25.972685,128,34,Unknown
2019-2-27 18:19:22,896452,,11270,859,44.570835,25.972685,128,38,Unknown
2019-2-27 18:19:22,896452,,11270,859,44.570835,25.972685,128,41,Unknown
2019-2-27 18:19:22,896452,,11270,859,44.570835,25.972685,128,42,Unknown
2019-2-27 18:19:22,896452,,11270,859,44.570835,25.972685,128,43,Unknown
2019-2-27 18:19:22,896452,,11270,859,44.570835,25.972685,128,45,Unknown
2019-2-27 18:19:22,896452,,11270,859,44.570835,25.972685,128,47,Unknown
2019-2-27 18:19:22,896452,,11270,859,44.570835,25.972685,128,49,Unknown
2019-2-27 18:19:22,896452,,11270,859,44.570835,25.972685,128,52,Unknown
2019-2-27 18:19:22,896452,,11270,857,44.570835,25.972685,128,55,Unknown
2019-2-27 18:19:22,896452,,11270,857,44.570835,25.972685,128,57,Unknown
2019-2-27 18:19:22,896452,,11270,857,44.570835,25.972685,128,58,Unknown
2019-2-27 18:19:22,896452,,11270,857,44.570835,25.972685,128,61,Unknown
2019-2-27 18:19:22,896452,UAE60   ,11270,857,44.570835,25.972685,128,66,Emirates Airlines
2019-2-27 18:19:22,896452,UAE60   ,11270,857,44.570835,25.972685,128,70,Emirates Airlines
2019-2-27 18:19:22,896452,UAE60   ,11270,857,44.570835,25.972685,128,78,Emirates Airlines
2019-2-27 18:19:22,896452,UAE60   ,11270,857,44.570835,25.972685,128,80,Emirates Airlines
2019-2-27 18:19:22,896452,UAE60   ,11270,857,44.570835,25.972685,128,81,Emirates Airlines
2019-2-27 18:19:22,896452,UAE60   ,11270,857,44.570835,25.972685,128,82,Emirates Airlines
2019-2-27 18:19:22,896452,UAE60   ,11270,857,44.570835,25.972685,128,83,Emirates Airlines
2019-2-27 18:19:22,896452,UAE60   ,11270,857,44.570835,25.972685,128,84,Emirates Airlines
2019-2-27 18:19:22,896452,UAE60   ,11270,857,44.570835,25.972685,128,87,Emirates Airlines
2019-2-27 18:19:22,896452,UAE60   ,11270,857,44.570835,25.972685,128,91,Emirates Airlines
2019-2-27 18:19:22,896452,UAE60   ,11270,857,44.570835,25.972685,128,100,Emirates Airlines
2019-2-27 18:19:22,896452,UAE60   ,11270,857,44.570835,25.972685,128,107,Emirates Airlines
2019-2-27 18:19:22,896452,UAE60   ,11270,857,44.570835,25.972685,128,109,Emirates Airlines
2019-2-27 18:19:22,896452,UAE60   ,11270,857,44.570835,25.972685,128,111,Emirates Airlines
2019-2-27 18:19:22,896452,UAE60   ,11270,857,44.570835,25.972685,128,113,Emirates Airlines
2019-2-27 18:19:22,896452,UAE60   ,11270,857,44.570835,25.972685,128,114,Emirates Airlines
2019-2-27 18:19:22,896452,UAE60   ,11270,857,44.570835,25.972685,128,115,Emirates Airlines
2019-2-27 18:19:22,896452,UAE60   ,11270,857,44.570835,25.972685,128,116,Emirates Airlines
2019-2-27 18:19:22,896452,UAE60   ,11270,857,44.570835,25.972685,128,117,Emirates Airlines
2019-2-27 18:19:22,896452,UAE60   ,11270,857,44.570835,25.972685,128,118,Emirates Airlines
2019-2-27 18:19:22,896452,UAE60   ,11270,857,44.570835,25.972685,128,120,Emirates Airlines
2019-2-27 18:19:22,896452,UAE60   ,11270,857,44.570835,25.972685,128,128,Emirates Airlines
2019-2-27 18:19:22,896452,UAE60   ,11270,857,44.570835,25.972685,128,130,Emirates Airlines
2019-2-27 18:19:22,896452,UAE60   ,11270,857,44.505755,26.087304,128,136,Emirates Airlines
2019-2-27 18:19:22,896452,UAE60   ,11270,857,44.505755,26.087304,128,141,Emirates Airlines
2019-2-27 18:19:22,896452,UAE60   ,11270,857,44.505755,26.087304,128,143,Emirates Airlines
2019-2-27 18:19:22,896452,UAE60   ,11270,857,44.504405,26.089582,128,145,Emirates Airlines
2019-2-27 18:19:22,896452,UAE60   ,11270,857,44.504405,26.089582,128,147,Emirates Airlines
2019-2-27 18:19:22,896452,UAE60   ,11270,857,44.501891,26.094070,128,148,Emirates Airlines
2019-2-27 18:19:22,896452,UAE60   ,11270,857,44.500681,26.096147,128,150,Emirates Airlines
2019-2-27 18:19:22,896452,UAE60   ,11270,857,44.500681,26.096147,128,156,Emirates Airlines
2019-2-27 18:19:22,896452,UAE60   ,11270,857,44.500681,26.096147,128,161,Emirates Airlines
2019-2-27 18:19:22,896452,UAE60   ,11270,857,44.500681,26.096147,128,164,Emirates Airlines
2019-2-27 18:19:22,896452,UAE60   ,11270,857,44.500681,26.096147,128,166,Emirates Airlines
2019-2-27 18:19:22,896452,UAE60   ,11270,857,44.500681,26.096147,128,169,Emirates Airlines
2019-2-27 18:19:22,896452,UAE60   ,11270,857,44.500681,26.096147,128,170,Emirates Airlines
2019-2-27 18:19:22,896452,UAE60   ,11270,857,44.500681,26.096147,128,173,Emirates Airlines
2019-2-27 18:19:22,896452,UAE60   ,11270,857,44.500681,26.096147,128,176,Emirates Airlines
2019-2-27 18:19:22,896452,UAE60   ,11270,857,44.500681,26.096147,128,179,Emirates Airlines
2019-2-27 18:19:22,896452,UAE60   ,11270,857,44.500681,26.096147,128,181,Emirates Airlines
2019-2-27 18:19:22,896452,UAE60   ,11270,857,44.500681,26.096147,128,187,Emirates Airlines
2019-2-27 18:19:22,896452,UAE60   ,11270,857,44.500681,26.096147,128,194,Emirates Airlines
2019-2-27 18:19:22,896452,UAE60   ,11270,857,44.500681,26.096147,128,199,Emirates Airlines
2019-2-27 18:19:22,896452,UAE60   ,11270,857,44.500681,26.096147,128,200,Emirates Airlines
2019-2-27 18:19:22,896452,UAE60   ,11270,857,44.500681,26.096147,128,201,Emirates Airlines
2019-2-27 18:19:22,896452,UAE60   ,11270,857,44.500681,26.096147,128,203,Emirates Airlines
2019-2-27 18:19:22,896452,UAE60   ,11270,857,44.500681,26.096147,128,204,Emirates Airlines
2019-2-27 18:19:22,896452,UAE60   ,11270,857,44.500681,26.096147,128,216,Emirates Airlines
2019-2-27 18:20:51,896452,UAE60   ,11270,857,44.500681,26.096147,128,219,Emirates Airlines
2019-2-27 18:20:51,896452,UAE60   ,11270,857,44.500681,26.096147,128,220,Emirates Airlines
2019-2-27 18:20:51,896452,UAE60   ,11270,857,44.500681,26.096147,128,222,Emirates Airlines
2019-2-27 18:20:51,896452,UAE60   ,11270,857,44.478243,26.135604,128,223,Emirates Airlines
2019-2-27 18:20:51,896452,UAE60   ,11270,857,44.478243,26.135604,128,234,Emirates Airlines
2019-2-27 18:20:51,896452,UAE60   ,11270,857,44.478243,26.135604,128,242,Emirates Airlines
2019-2-27 18:20:51,896452,UAE60   ,11270,857,44.478243,26.135604,128,244,Emirates Airlines
2019-2-27 18:20:51,896452,UAE60   ,11270,857,44.478243,26.135604,128,248,Emirates Airlines
2019-2-27 18:20:51,896452,UAE60   ,11270,857,44.478243,26.135604,128,249,Emirates Airlines
2019-2-27 18:20:51,896452,UAE60   ,11270,857,44.474030,26.142949,128,256,Emirates Airlines
2019-2-27 18:20:51,896452,UAE60   ,11270,857,44.474030,26.142949,128,262,Emirates Airlines
2019-2-27 18:20:51,896452,UAE60   ,11270,857,44.472839,26.145107,128,265,Emirates Airlines
2019-2-27 18:20:51,896452,UAE60   ,11270,857,44.472839,26.145107,128,274,Emirates Airlines
2019-2-27 18:20:51,896452,UAE60   ,11270,857,44.472839,26.145107,128,278,Emirates Airlines
2019-2-27 18:20:51,896452,UAE60   ,11270,857,44.472839,26.145107,128,287,Emirates Airlines
2019-2-27 18:20:51,896452,UAE60   ,11270,857,44.471512,26.147396,128,289,Emirates Airlines
2019-2-27 18:20:51,896452,UAE60   ,11270,857,44.471512,26.147396,128,296,Emirates Airlines
2019-2-27 18:20:51,896452,UAE60   ,11270,857,44.471512,26.147396,128,300,Emirates Airlines
2019-2-27 18:20:51,896452,UAE60   ,11270,857,44.471512,26.147396,128,303,Emirates Airlines
2019-2-27 18:20:51,896452,UAE60   ,11270,857,44.470142,26.149873,128,304,Emirates Airlines
2019-2-27 18:20:51,896452,UAE60   ,11270,857,44.470142,26.149873,128,307,Emirates Airlines
2019-2-27 18:20:51,896452,UAE60   ,11270,857,44.470142,26.149873,128,312,Emirates Airlines
2019-2-27 18:20:51,896452,UAE60   ,11270,857,44.468994,26.151842,128,316,Emirates Airlines
2019-2-27 18:20:51,896452,UAE60   ,11270,857,44.467804,26.153935,128,319,Emirates Airlines
2019-2-27 18:20:51,896452,UAE60   ,11270,857,44.467804,26.153935,128,325,Emirates Airlines
2019-2-27 18:20:51,896452,UAE60   ,11270,857,44.467804,26.153935,128,326,Emirates Airlines
2019-2-27 18:20:51,896452,UAE60   ,11270,857,44.467804,26.153935,128,327,Emirates Airlines
2019-2-27 18:20:51,896452,UAE60   ,11270,857,44.466418,26.156371,128,330,Emirates Airlines
2019-2-27 18:21:3,896452,UAE60   ,11270,857,44.466418,26.156371,128,334,Emirates Airlines
2019-2-27 18:21:3,896452,UAE60   ,11270,857,44.466418,26.156371,128,335,Emirates Airlines
2019-2-27 18:21:3,896452,UAE60   ,11270,857,44.466418,26.156371,128,338,Emirates Airlines
2019-2-27 18:21:3,896452,UAE60   ,11270,857,44.465012,26.158840,128,341,Emirates Airlines
2019-2-27 18:21:3,896452,UAE60   ,11270,857,44.465012,26.158840,128,345,Emirates Airlines
2019-2-27 18:21:3,896452,UAE60   ,11270,857,44.465012,26.158840,128,350,Emirates Airlines
2019-2-27 18:21:3,896452,UAE60   ,11270,857,44.463684,26.161194,128,351,Emirates Airlines
2019-2-27 18:21:3,896452,UAE60   ,11270,857,44.463684,26.161194,128,363,Emirates Airlines
2019-2-27 18:21:3,896452,UAE60   ,11270,857,44.463684,26.161194,128,364,Emirates Airlines
2019-2-27 18:21:3,896452,UAE60   ,11270,857,44.462275,26.163605,128,367,Emirates Airlines
2019-2-27 18:21:3,896452,UAE60   ,11270,857,44.462275,26.163605,128,368,Emirates Airlines
2019-2-27 18:21:3,896452,UAE60   ,11270,857,44.462275,26.163605,128,378,Emirates Airlines
2019-2-27 18:21:3,896452,UAE60   ,11270,857,44.462275,26.163605,128,379,Emirates Airlines
2019-2-27 18:21:3,896452,UAE60   ,11270,857,44.462275,26.163605,128,380,Emirates Airlines
2019-2-27 18:21:3,896452,UAE60   ,11270,857,44.462275,26.163605,128,387,Emirates Airlines
2019-2-27 18:21:3,896452,UAE60   ,11270,857,44.462275,26.163605,128,394,Emirates Airlines
2019-2-27 18:21:3,896452,UAE60   ,11270,857,44.462275,26.163605,128,401,Emirates Airlines
2019-2-27 18:21:3,896452,UAE60   ,11270,857,44.462275,26.163605,128,402,Emirates Airlines
2019-2-27 18:21:3,896452,UAE60   ,11270,857,44.459342,26.168764,128,409,Emirates Airlines
2019-2-27 18:21:3,896452,UAE60   ,11270,857,44.459342,26.168764,128,413,Emirates Airlines
2019-2-27 18:21:3,896452,UAE60   ,11270,857,44.459342,26.168764,128,420,Emirates Airlines
2019-2-27 18:21:3,896452,UAE60   ,11270,857,44.459342,26.168764,128,428,Emirates Airlines
2019-2-27 18:21:3,896452,UAE60   ,11270,857,44.459342,26.168764,128,431,Emirates Airlines
2019-2-27 18:21:3,896452,UAE60   ,11270,857,44.459342,26.168764,128,433,Emirates Airlines
2019-2-27 18:21:3,896452,UAE60   ,11270,857,44.459342,26.168764,128,438,Emirates Airlines
2019-2-27 18:21:3,896452,UAE60   ,11270,857,44.459342,26.168764,128,439,Emirates Airlines
2019-2-27 18:21:3,896452,UAE60   ,11270,857,44.459342,26.168764,128,441,Emirates Airlines
2019-2-27 18:21:3,896452,UAE60   ,11270,857,44.455385,26.175731,128,442,Emirates Airlines
2019-2-27 18:21:3,896452,UAE60   ,11270,857,44.455385,26.175731,128,448,Emirates Airlines
2019-2-27 18:21:3,896452,UAE60   ,11270,857,44.455385,26.175731,128,453,Emirates Airlines
2019-2-27 18:21:3,896452,UAE60   ,11270,857,44.455385,26.175731,128,457,Emirates Airlines
2019-2-27 18:21:3,896452,UAE60   ,11270,857,44.455385,26.175731,128,459,Emirates Airlines
2019-2-27 18:21:3,896452,UAE60   ,11270,857,44.455385,26.175731,128,462,Emirates Airlines
2019-2-27 18:21:3,896452,UAE60   ,11270,857,44.455385,26.175731,128,464,Emirates Airlines
2019-2-27 18:21:3,896452,UAE60   ,11270,857,44.455385,26.175731,128,471,Emirates Airlines
2019-2-27 18:21:3,896452,UAE60   ,11270,857,44.455385,26.175731,128,480,Emirates Airlines
2019-2-27 18:21:3,896452,UAE60   ,11270,857,44.455385,26.175731,128,483,Emirates Airlines
2019-2-27 18:21:3,896452,UAE60   ,11270,857,44.455385,26.175731,128,484,Emirates Airlines
2019-2-27 18:21:3,896452,UAE60   ,11270,857,44.455385,26.175731,128,485,Emirates Airlines
2019-2-27 18:21:3,896452,UAE60   ,11270,857,44.450134,26.184932,128,487,Emirates Airlines
2019-2-27 18:21:3,896452,UAE60   ,11270,857,44.450134,26.184932,128,494,Emirates Airlines
2019-2-27 18:21:3,896452,UAE60   ,11270,857,44.450134,26.184932,128,498,Emirates Airlines
2019-2-27 18:21:3,896452,UAE60   ,11270,857,44.450134,26.184932,128,503,Emirates Airlines
2019-2-27 18:21:3,896452,UAE60   ,11270,857,44.450134,26.184932,128,511,Emirates Airlines
2019-2-27 18:21:3,896452,UAE60   ,11270,857,44.450134,26.184932,128,513,Emirates Airlines
2019-2-27 18:21:3,896452,UAE60   ,11270,857,44.450134,26.184932,128,517,Emirates Airlines
2019-2-27 18:21:3,896452,UAE60   ,11270,857,44.450134,26.184932,128,518,Emirates Airlines
2019-2-27 18:21:3,896452,UAE60   ,11270,857,44.450134,26.184932,128,520,Emirates Airlines
2019-2-27 18:21:3,896452,UAE60   ,11270,857,44.450134,26.184932,128,525,Emirates Airlines
2019-2-27 18:21:3,896452,UAE60   ,11270,857,44.450134,26.184932,128,532,Emirates Airlines
2019-2-27 18:21:3,896452,UAE60   ,11270,857,44.450134,26.184932,128,535,Emirates Airlines
2019-2-27 18:21:3,896452,UAE60   ,11270,857,44.442211,26.198775,128,536,Emirates Airlines
2019-2-27 18:21:3,896452,UAE60   ,11270,857,44.442211,26.198775,128,542,Emirates Airlines
2019-2-27 18:21:3,896452,UAE60   ,11270,857,44.442211,26.198775,128,543,Emirates Airlines
2019-2-27 18:21:3,896452,UAE60   ,11270,857,44.442211,26.198775,128,549,Emirates Airlines
2019-2-27 18:21:3,896452,UAE60   ,11270,857,44.440933,26.201019,128,550,Emirates Airlines
2019-2-27 18:21:3,896452,UAE60   ,11270,857,44.440933,26.201019,128,557,Emirates Airlines
2019-2-27 18:21:3,896452,UAE60   ,11270,857,44.440933,26.201019,128,558,Emirates Airlines
2019-2-27 18:21:3,896452,UAE60   ,11270,857,44.440933,26.201019,128,560,Emirates Airlines
2019-2-27 18:21:3,896452,UAE60   ,11270,857,44.440933,26.201019,128,567,Emirates Airlines
2019-2-27 18:21:3,896452,UAE60   ,11270,857,44.440933,26.201019,128,572,Emirates Airlines
2019-2-27 18:21:3,896452,UAE60   ,11270,857,44.438278,26.205662,128,575,Emirates Airlines
2019-2-27 18:21:3,896452,UAE60   ,11270,857,44.438278,26.205662,128,579,Emirates Airlines
2019-2-27 18:21:3,896452,UAE60   ,11270,857,44.438278,26.205662,128,586,Emirates Airlines
2019-2-27 18:21:3,896452,UAE60   ,11270,857,44.438278,26.205662,128,592,Emirates Airlines
2019-2-27 18:21:3,896452,UAE60   ,11270,857,44.438278,26.205662,128,596,Emirates Airlines
2019-2-27 18:21:3,896452,UAE60   ,11270,857,44.438278,26.205662,128,603,Emirates Airlines
2019-2-27 18:21:3,896452,UAE60   ,11270,857,44.438278,26.205662,128,605,Emirates Airlines
2019-2-27 18:21:3,896452,UAE60   ,11270,857,44.438278,26.205662,128,608,Emirates Airlines
2019-2-27 18:21:3,896452,UAE60   ,11270,857,44.438278,26.205662,128,616,Emirates Airlines
2019-2-27 18:21:3,896452,UAE60   ,11270,857,44.438278,26.205662,128,620,Emirates Airlines
2019-2-27 18:21:3,896452,UAE60   ,11270,857,44.438278,26.205662,128,623,Emirates Airlines
2019-2-27 18:21:3,896452,UAE60   ,11270,857,44.438278,26.205662,128,631,Emirates Airlines
2019-2-27 18:21:3,896452,UAE60   ,11270,857,44.438278,26.205662,128,635,Emirates Airlines
2019-2-27 18:21:3,896452,UAE60   ,11270,857,44.438278,26.205662,128,641,Emirates Airlines
2019-2-27 18:21:3,896452,UAE60   ,11270,857,44.438278,26.205662,128,643,Emirates Airlines
2019-2-27 18:21:3,896452,UAE60   ,11270,857,44.438278,26.205662,128,651,Emirates Airlines
2019-2-27 18:21:3,896452,UAE60   ,11270,857,44.438278,26.205662,128,658,Emirates Airlines
2019-2-27 18:21:3,896452,UAE60   ,11270,857,44.438278,26.205662,128,667,Emirates Airlines
2019-2-27 18:21:3,896452,UAE60   ,11270,857,44.438278,26.205662,128,671,Emirates Airlines
2019-2-27 18:21:3,896452,UAE60   ,11270,857,44.438278,26.205662,128,677,Emirates Airlines
2019-2-27 18:21:3,896452,UAE60   ,11270,857,44.438278,26.205662,128,688,Emirates Airlines
2019-2-27 18:21:3,896452,UAE60   ,11270,857,44.438278,26.205662,128,696,Emirates Airlines
2019-2-27 18:21:3,896452,UAE60   ,11270,857,44.438278,26.205662,128,702,Emirates Airlines
2019-2-27 18:21:3,896452,UAE60   ,11270,857,44.438278,26.205662,128,703,Emirates Airlines
2019-2-27 18:21:3,896452,UAE60   ,11270,857,44.438278,26.205662,128,707,Emirates Airlines
2019-2-27 18:21:3,896452,UAE60   ,11270,857,44.438278,26.205662,128,708,Emirates Airlines
2019-2-27 18:21:3,896452,UAE60   ,11270,857,44.438278,26.205662,128,711,Emirates Airlines
2019-2-27 18:21:3,896452,UAE60   ,11270,857,44.438278,26.205662,128,712,Emirates Airlines
2019-2-27 18:21:3,896452,UAE60   ,11270,857,44.438278,26.205662,128,713,Emirates Airlines
2019-2-27 18:21:3,896452,UAE60   ,11270,857,44.438278,26.205662,128,717,Emirates Airlines
2019-2-27 18:21:3,896452,UAE60   ,11270,857,44.438278,26.205662,128,719,Emirates Airlines
2019-2-27 18:21:3,896452,UAE60   ,11270,857,44.438278,26.205662,128,724,Emirates Airlines
2019-2-27 18:21:3,896452,UAE60   ,11270,857,44.438278,26.205662,128,726,Emirates Airlines
2019-2-27 18:21:3,896452,UAE60   ,11270,857,44.438278,26.205662,128,728,Emirates Airlines
2019-2-27 18:21:3,896452,UAE60   ,11270,857,44.438278,26.205662,128,729,Emirates Airlines
2019-2-27 18:21:3,896452,UAE60   ,11270,857,44.438278,26.205662,128,733,Emirates Airlines
2019-2-27 18:21:3,896452,UAE60   ,11270,857,44.438278,26.205662,128,734,Emirates Airlines
2019-2-27 18:21:3,896452,UAE60   ,11270,857,44.438278,26.205662,128,736,Emirates Airlines
2019-2-27 18:21:3,896452,UAE60   ,11270,857,44.438278,26.205662,128,737,Emirates Airlines
2019-2-27 18:21:3,896452,UAE60   ,11270,857,44.438278,26.205662,128,738,Emirates Airlines
2019-2-27 18:21:3,896452,UAE60   ,11270,857,44.438278,26.205662,128,739,Emirates Airlines
2019-2-27 18:21:3,896452,UAE60   ,11270,857,44.438278,26.205662,128,740,Emirates Airlines
2019-2-27 18:21:3,896452,UAE60   ,11270,857,44.438278,26.205662,128,741,Emirates Airlines
2019-2-27 18:21:3,896452,UAE60   ,11270,857,44.438278,26.205662,128,752,Emirates Airlines
2019-2-27 18:21:3,896452,UAE60   ,11270,857,44.438278,26.205662,128,755,Emirates Airlines
2019-2-27 18:21:3,896452,UAE60   ,11270,855,44.401478,26.269918,128,760,Emirates Airlines
2019-2-27 18:21:3,896452,UAE60   ,11270,855,44.401478,26.269918,128,761,Emirates Airlines
2019-2-27 18:21:3,896452,UAE60   ,11270,855,44.401478,26.269918,128,762,Emirates Airlines
2019-2-27 18:21:3,896452,UAE60   ,11270,855,44.401478,26.269918,128,766,Emirates Airlines
2019-2-27 18:21:3,896452,UAE60   ,11270,855,44.401478,26.269918,128,767,Emirates Airlines
2019-2-27 18:21:3,896452,UAE60   ,11270,855,44.401478,26.269918,128,770,Emirates Airlines
2019-2-27 18:21:3,896452,UAE60   ,11270,855,44.401478,26.269918,128,772,Emirates Airlines
2019-2-27 18:21:3,896452,UAE60   ,11270,855,44.401478,26.269918,128,773,Emirates Airlines
2019-2-27 18:21:3,896452,UAE60   ,11270,855,44.401478,26.269918,128,775,Emirates Airlines
2019-2-27 18:21:3,896452,UAE60   ,11270,855,44.401478,26.269918,128,778,Emirates Airlines
2019-2-27 18:21:3,896452,UAE60   ,11270,855,44.401478,26.269918,128,780,Emirates Airlines
2019-2-27 18:22:6,896452,UAE60   ,11270,855,44.401478,26.269918,128,783,Emirates Airlines
2019-2-27 18:22:6,896452,UAE60   ,11270,855,44.380064,26.307299,128,786,Emirates Airlines
2019-2-27 18:22:6,896452,UAE60   ,11270,855,44.380064,26.307299,128,787,Emirates Airlines
2019-2-27 18:22:6,896452,UAE60   ,11270,855,44.380064,26.307299,128,791,Emirates Airlines
2019-2-27 18:22:6,896452,UAE60   ,11270,853,44.380064,26.307299,128,796,Emirates Airlines
2019-2-27 18:22:6,896452,UAE60   ,11270,853,44.380064,26.307299,128,797,Emirates Airlines
2019-2-27 18:22:27,896452,UAE60   ,11270,853,44.380064,26.307299,128,798,Emirates Airlines
2019-2-27 18:22:27,896452,UAE60   ,11270,853,44.380064,26.307299,128,799,Emirates Airlines
2019-2-27 18:22:34,896452,UAE60   ,11270,853,44.380064,26.307299,128,800,Emirates Airlines
