2019-2-27 19:37:29,45d066,,0,0,0.000000,0.000000,0,1,Unknown
2019-2-27 19:37:29,45d066,,10372,0,0.000000,0.000000,0,5,Unknown
2019-2-27 19:37:29,45d066,,10372,0,0.000000,0.000000,0,8,Unknown
2019-2-27 19:37:29,45d066,,10372,0,0.000000,0.000000,0,9,Unknown
2019-2-27 19:37:29,45d066,,10372,764,0.000000,0.000000,322,11,Unknown
2019-2-27 19:37:29,45d066,,10372,764,0.000000,0.000000,322,12,Unknown
2019-2-27 19:37:29,45d066,,10372,764,44.746942,26.322103,322,16,Unknown
2019-2-27 19:37:29,45d066,,10372,764,44.746942,26.322103,322,17,Unknown
2019-2-27 19:37:29,45d066,,10372,764,44.746942,26.322103,322,19,Unknown
2019-2-27 19:37:29,45d066,,10372,764,44.746942,26.322103,322,23,Unknown
2019-2-27 19:37:29,45d066,,10372,764,44.746942,26.322103,322,24,Unknown
2019-2-27 19:37:29,45d066,,10372,764,44.746942,26.322103,322,27,Unknown
2019-2-27 19:37:29,45d066,,10372,764,44.746942,26.322103,322,30,Unknown
2019-2-27 19:37:29,45d066,,10372,764,44.746942,26.322103,322,31,Unknown
2019-2-27 19:37:29,45d066,,10372,764,44.746942,26.322103,322,34,Unknown
2019-2-27 19:37:29,45d066,,10372,764,44.746942,26.322103,322,37,Unknown
2019-2-27 19:37:29,45d066,,10372,764,44.746942,26.322103,322,39,Unknown
2019-2-27 19:37:29,45d066,,10372,764,44.746942,26.322103,322,41,Unknown
2019-2-27 19:37:29,45d066,,10372,764,44.746942,26.322103,322,43,Unknown
2019-2-27 19:37:29,45d066,,10372,764,44.746942,26.322103,322,47,Unknown
2019-2-27 19:37:29,45d066,,10372,764,44.746942,26.322103,322,51,Unknown
2019-2-27 19:37:29,45d066,,10372,764,44.746942,26.322103,322,53,Unknown
2019-2-27 19:37:29,45d066,,10372,764,44.746942,26.322103,322,57,Unknown
2019-2-27 19:37:29,45d066,,10372,764,44.746942,26.322103,322,59,Unknown
2019-2-27 19:37:29,45d066,,10372,764,44.746942,26.322103,322,60,Unknown
2019-2-27 19:37:29,45d066,,10372,763,44.746942,26.322103,322,63,Unknown
2019-2-27 19:37:29,45d066,,10372,763,44.746942,26.322103,322,69,Unknown
2019-2-27 19:37:29,45d066,,10372,763,44.746942,26.322103,322,71,Unknown
2019-2-27 19:37:29,45d066,,10372,763,44.746942,26.322103,322,72,Unknown
2019-2-27 19:37:29,45d066,,10372,763,44.746942,26.322103,322,75,Unknown
2019-2-27 19:37:29,45d066,,10372,763,44.777664,26.287864,322,81,Unknown
2019-2-27 19:37:29,45d066,,10372,763,44.777664,26.287864,322,83,Unknown
2019-2-27 19:37:29,45d066,,10372,763,44.777664,26.287864,322,89,Unknown
2019-2-27 19:37:29,45d066,,10372,763,44.777664,26.287864,322,94,Unknown
2019-2-27 19:37:29,45d066,,10372,763,44.777664,26.287864,322,96,Unknown
2019-2-27 19:37:29,45d066,,10372,763,44.777664,26.287864,322,97,Unknown
2019-2-27 19:37:29,45d066,,10372,763,44.777664,26.287864,322,98,Unknown
2019-2-27 19:37:29,45d066,,10364,763,44.777664,26.287864,322,100,Unknown
2019-2-27 19:37:29,45d066,,10364,763,44.777664,26.287864,322,101,Unknown
2019-2-27 19:37:29,45d066,,10364,763,44.777664,26.287864,322,107,Unknown
2019-2-27 19:37:29,45d066,,10364,763,44.777664,26.287864,322,108,Unknown
2019-2-27 19:37:29,45d066,,10364,763,44.777664,26.287864,322,109,Unknown
2019-2-27 19:37:29,45d066,,10364,759,44.777664,26.287864,322,110,Unknown
2019-2-27 19:37:29,45d066,,10357,759,44.777664,26.287864,322,111,Unknown
2019-2-27 19:37:29,45d066,,10357,759,44.777664,26.287864,322,112,Unknown
2019-2-27 19:37:29,45d066,VKG623  ,10357,759,44.777664,26.287864,322,115,MyTravel Airways
2019-2-27 19:37:29,45d066,VKG623  ,10357,759,44.777664,26.287864,322,116,MyTravel Airways
2019-2-27 19:37:29,45d066,VKG623  ,10357,759,44.777664,26.287864,322,119,MyTravel Airways
2019-2-27 19:37:29,45d066,VKG623  ,10357,759,44.777664,26.287864,322,120,MyTravel Airways
2019-2-27 19:37:29,45d066,VKG623  ,10357,759,44.777664,26.287864,322,121,MyTravel Airways
2019-2-27 19:37:29,45d066,VKG623  ,10357,759,44.777664,26.287864,322,122,MyTravel Airways
2019-2-27 19:37:29,45d066,VKG623  ,10349,759,44.777664,26.287864,322,123,MyTravel Airways
2019-2-27 19:37:29,45d066,VKG623  ,10349,759,44.777664,26.287864,322,124,MyTravel Airways
2019-2-27 19:37:29,45d066,VKG623  ,10349,759,44.842529,26.215537,322,125,MyTravel Airways
2019-2-27 19:37:29,45d066,VKG623  ,10349,759,44.842529,26.215537,322,126,MyTravel Airways
2019-2-27 19:37:29,45d066,VKG623  ,10349,759,44.842529,26.215537,322,127,MyTravel Airways
2019-2-27 19:37:29,45d066,VKG623  ,10349,759,44.842529,26.215537,322,130,MyTravel Airways
2019-2-27 19:37:29,45d066,VKG623  ,10349,759,44.842529,26.215537,322,133,MyTravel Airways
2019-2-27 19:37:29,45d066,VKG623  ,10349,759,44.842529,26.215537,322,134,MyTravel Airways
2019-2-27 19:37:29,45d066,VKG623  ,10349,759,44.842529,26.215537,322,135,MyTravel Airways
2019-2-27 19:37:29,45d066,VKG623  ,10349,757,44.842529,26.215537,322,137,MyTravel Airways
2019-2-27 19:37:29,45d066,VKG623  ,10349,757,44.842529,26.215537,322,138,MyTravel Airways
2019-2-27 19:37:29,45d066,VKG623  ,10349,757,44.855874,26.200651,322,142,MyTravel Airways
2019-2-27 19:37:29,45d066,VKG623  ,10349,757,44.855874,26.200651,322,143,MyTravel Airways
2019-2-27 19:37:29,45d066,VKG623  ,10349,757,44.855874,26.200651,322,144,MyTravel Airways
2019-2-27 19:37:29,45d066,VKG623  ,10349,757,44.855874,26.200651,322,145,MyTravel Airways
2019-2-27 19:37:29,45d066,VKG623  ,10349,757,44.855874,26.200651,322,146,MyTravel Airways
2019-2-27 19:37:29,45d066,VKG623  ,10349,757,44.855874,26.200651,322,147,MyTravel Airways
2019-2-27 19:37:29,45d066,VKG623  ,10349,757,44.855874,26.200651,322,149,MyTravel Airways
2019-2-27 19:37:29,45d066,VKG623  ,10349,757,44.855874,26.200651,322,150,MyTravel Airways
2019-2-27 19:37:29,45d066,VKG623  ,10349,757,44.855874,26.200651,322,151,MyTravel Airways
2019-2-27 19:37:29,45d066,VKG623  ,10349,757,44.855874,26.200651,322,153,MyTravel Airways
2019-2-27 19:37:29,45d066,VKG623  ,10349,757,44.855874,26.200651,322,156,MyTravel Airways
2019-2-27 19:37:29,45d066,VKG623  ,10349,757,44.855874,26.200651,322,157,MyTravel Airways
2019-2-27 19:37:29,45d066,VKG623  ,10349,757,44.855874,26.200651,322,159,MyTravel Airways
2019-2-27 19:37:29,45d066,VKG623  ,10349,757,44.855874,26.200651,322,160,MyTravel Airways
2019-2-27 19:37:29,45d066,VKG623  ,10349,757,44.855874,26.200651,322,161,MyTravel Airways
2019-2-27 19:37:29,45d066,VKG623  ,10349,757,44.855874,26.200651,322,162,MyTravel Airways
2019-2-27 19:37:29,45d066,VKG623  ,10349,757,44.855874,26.200651,322,165,MyTravel Airways
2019-2-27 19:37:29,45d066,VKG623  ,10349,757,44.911789,26.138044,322,166,MyTravel Airways
2019-2-27 19:37:29,45d066,VKG623  ,10349,757,44.916253,26.132991,322,167,MyTravel Airways
