2019-2-27 18:55:1,3965b4,,0,0,0.000000,0.000000,0,1,Unknown
2019-2-27 18:55:1,3965b4,,0,0,0.000000,0.000000,0,3,Unknown
2019-2-27 18:55:1,3965b4,,1957,0,0.000000,0.000000,0,4,Unknown
2019-2-27 18:55:1,3965b4,,1820,483,0.000000,0.000000,261,6,Unknown
2019-2-27 18:55:1,3965b4,,1812,483,0.000000,0.000000,261,7,Unknown
2019-2-27 18:55:1,3965b4,,1797,483,44.661484,26.080954,261,8,Unknown
2019-2-27 18:55:1,3965b4,,1797,483,44.661484,26.080954,261,12,Unknown
2019-2-27 18:55:1,3965b4,,1797,483,44.661484,26.080954,261,14,Unknown
2019-2-27 18:55:1,3965b4,,1797,483,44.661484,26.080954,261,15,Unknown
