2019-2-27 15:17:55,4bb1e4,,0,761,0.000000,0.000000,130,1,Unknown
2019-2-27 15:17:55,4bb1e4,,0,761,0.000000,0.000000,130,2,Unknown
2019-2-27 15:17:55,4bb1e4,,0,761,0.000000,0.000000,130,3,Unknown
2019-2-27 15:17:55,4bb1e4,,10661,761,0.000000,0.000000,130,4,Unknown
2019-2-27 15:17:55,4bb1e4,,10661,761,0.000000,0.000000,130,8,Unknown
2019-2-27 15:17:55,4bb1e4,,10661,761,0.000000,0.000000,130,9,Unknown
2019-2-27 15:17:55,4bb1e4,,10661,759,44.496258,25.773926,130,11,Unknown
2019-2-27 15:17:55,4bb1e4,,10661,759,44.496258,25.773926,130,13,Unknown
2019-2-27 15:17:55,4bb1e4,,10661,759,44.496258,25.773926,130,15,Unknown
2019-2-27 15:17:55,4bb1e4,,10661,759,44.496258,25.773926,130,16,Unknown
2019-2-27 15:20:8,4bb1e4,,10654,759,44.496258,25.773926,130,17,Unknown
2019-2-27 15:20:24,4bb1e4,,10654,763,44.496258,25.773926,130,22,Unknown
2019-2-27 15:20:24,4bb1e4,,10654,763,44.496258,25.773926,130,23,Unknown
2019-2-27 15:20:24,4bb1e4,,10654,763,44.496258,25.773926,130,26,Unknown
2019-2-27 15:20:24,4bb1e4,,10654,763,44.387054,25.953565,130,37,Unknown
2019-2-27 15:20:24,4bb1e4,,10654,763,44.387054,25.953565,130,39,Unknown
2019-2-27 15:20:24,4bb1e4,,10654,763,44.387054,25.953565,130,41,Unknown
2019-2-27 15:20:24,4bb1e4,,10661,763,44.384486,25.957679,130,42,Unknown
2019-2-27 15:20:24,4bb1e4,,10661,763,44.384486,25.957679,130,43,Unknown
2019-2-27 15:20:24,4bb1e4,,10654,763,44.384486,25.957679,130,46,Unknown
2019-2-27 15:20:24,4bb1e4,,10654,763,44.384486,25.957679,130,50,Unknown
2019-2-27 15:20:24,4bb1e4,,10654,763,44.384486,25.957679,130,51,Unknown
2019-2-27 15:20:24,4bb1e4,,10654,763,44.378295,25.967861,130,61,Unknown
2019-2-27 15:20:24,4bb1e4,,10654,763,44.378295,25.967861,130,64,Unknown
2019-2-27 15:20:24,4bb1e4,,10654,763,44.375565,25.972334,130,70,Unknown
2019-2-27 15:20:24,4bb1e4,,10654,763,44.375565,25.972334,130,72,Unknown
2019-2-27 15:20:24,4bb1e4,,10654,763,44.375565,25.972334,130,75,Unknown
2019-2-27 15:20:24,4bb1e4,,10654,763,44.375565,25.972334,130,78,Unknown
2019-2-27 15:20:24,4bb1e4,,10654,763,44.375565,25.972334,130,81,Unknown
2019-2-27 15:20:24,4bb1e4,,10654,763,44.375565,25.972334,130,84,Unknown
2019-2-27 15:20:24,4bb1e4,,10654,763,44.375565,25.972334,130,87,Unknown
2019-2-27 15:20:24,4bb1e4,,10654,763,44.371536,25.979004,130,91,Unknown
2019-2-27 15:20:24,4bb1e4,,10654,763,44.371536,25.979004,130,92,Unknown
2019-2-27 15:20:24,4bb1e4,,10654,763,44.371536,25.979004,130,93,Unknown
2019-2-27 15:20:24,4bb1e4,,10654,763,44.371536,25.979004,130,97,Unknown
2019-2-27 15:20:24,4bb1e4,,10654,763,44.368881,25.983255,130,100,Unknown
2019-2-27 15:20:24,4bb1e4,,10654,763,44.368881,25.983255,130,101,Unknown
2019-2-27 15:20:24,4bb1e4,,10661,763,44.368881,25.983255,130,107,Unknown
2019-2-27 15:20:24,4bb1e4,,10654,763,44.367681,25.985011,130,111,Unknown
2019-2-27 15:20:24,4bb1e4,,10661,763,44.367681,25.985011,130,116,Unknown
2019-2-27 15:20:24,4bb1e4,,10661,763,44.367681,25.985011,130,118,Unknown
2019-2-27 15:20:24,4bb1e4,,10661,763,44.367681,25.985011,130,119,Unknown
2019-2-27 15:20:24,4bb1e4,,10661,763,44.367681,25.985011,130,121,Unknown
2019-2-27 15:20:24,4bb1e4,,10661,763,44.367681,25.985011,130,122,Unknown
2019-2-27 15:20:24,4bb1e4,,10661,763,44.367681,25.985011,130,124,Unknown
2019-2-27 15:20:24,4bb1e4,,10661,763,44.367681,25.985011,130,126,Unknown
2019-2-27 15:20:24,4bb1e4,,10661,763,44.367681,25.985011,130,133,Unknown
2019-2-27 15:20:24,4bb1e4,,10661,764,44.367681,25.985011,130,136,Unknown
2019-2-27 15:20:24,4bb1e4,,10661,764,44.367681,25.985011,130,140,Unknown
2019-2-27 15:20:24,4bb1e4,,10661,764,44.367681,25.985011,130,141,Unknown
2019-2-27 15:20:24,4bb1e4,,10661,764,44.367681,25.985011,130,143,Unknown
2019-2-27 15:20:24,4bb1e4,,10661,764,44.367681,25.985011,130,147,Unknown
2019-2-27 15:20:24,4bb1e4,,10661,764,44.367681,25.985011,130,148,Unknown
2019-2-27 15:20:24,4bb1e4,,10661,764,44.367681,25.985011,130,150,Unknown
2019-2-27 15:20:24,4bb1e4,,10661,764,44.367681,25.985011,130,152,Unknown
2019-2-27 15:20:24,4bb1e4,,10661,764,44.367681,25.985011,130,159,Unknown
2019-2-27 15:20:24,4bb1e4,,10661,764,44.367681,25.985011,130,163,Unknown
2019-2-27 15:20:24,4bb1e4,,10661,764,44.346081,26.020649,130,173,Unknown
2019-2-27 15:20:24,4bb1e4,,10661,764,44.346081,26.020649,130,177,Unknown
2019-2-27 15:20:24,4bb1e4,,10661,764,44.344731,26.022592,130,179,Unknown
2019-2-27 15:20:24,4bb1e4,,10661,764,44.344731,26.022592,130,184,Unknown
2019-2-27 15:20:24,4bb1e4,,10661,764,44.344731,26.022592,130,191,Unknown
2019-2-27 15:20:24,4bb1e4,,10661,764,44.344731,26.022592,130,192,Unknown
2019-2-27 15:20:24,4bb1e4,,10661,764,44.343338,26.024911,130,198,Unknown
2019-2-27 15:20:24,4bb1e4,,10661,764,44.343338,26.024911,130,202,Unknown
2019-2-27 15:20:24,4bb1e4,,10661,764,44.343338,26.024911,130,204,Unknown
2019-2-27 15:20:24,4bb1e4,,10661,764,44.342263,26.026879,130,213,Unknown
2019-2-27 15:20:24,4bb1e4,,10661,764,44.342263,26.026879,130,217,Unknown
2019-2-27 15:20:24,4bb1e4,,10661,764,44.342263,26.026879,130,222,Unknown
2019-2-27 15:20:24,4bb1e4,,10661,763,44.342263,26.026879,130,224,Unknown
2019-2-27 15:20:24,4bb1e4,,10661,763,44.342263,26.026879,130,226,Unknown
2019-2-27 15:20:24,4bb1e4,THY9EJ  ,10661,763,44.342263,26.026879,130,227,Turkish Airlines
2019-2-27 15:20:24,4bb1e4,THY9EJ  ,10661,763,44.342263,26.026879,130,229,Turkish Airlines
2019-2-27 15:20:24,4bb1e4,THY9EJ  ,10661,764,44.339539,26.031320,130,237,Turkish Airlines
2019-2-27 15:20:24,4bb1e4,THY9EJ  ,10661,764,44.339539,26.031320,130,240,Turkish Airlines
2019-2-27 15:20:24,4bb1e4,THY9EJ  ,10661,764,44.339539,26.031320,130,243,Turkish Airlines
2019-2-27 15:20:24,4bb1e4,THY9EJ  ,10661,764,44.339539,26.031320,130,246,Turkish Airlines
2019-2-27 15:20:24,4bb1e4,THY9EJ  ,10661,763,44.338306,26.033109,130,253,Turkish Airlines
2019-2-27 15:20:24,4bb1e4,THY9EJ  ,10661,763,44.338306,26.033109,130,255,Turkish Airlines
2019-2-27 15:20:24,4bb1e4,THY9EJ  ,10661,763,44.338306,26.033109,130,256,Turkish Airlines
2019-2-27 15:20:24,4bb1e4,THY9EJ  ,10661,763,44.337050,26.035186,130,263,Turkish Airlines
2019-2-27 15:20:24,4bb1e4,THY9EJ  ,10661,763,44.337050,26.035186,130,269,Turkish Airlines
2019-2-27 15:20:24,4bb1e4,THY9EJ  ,10661,763,44.337050,26.035186,130,274,Turkish Airlines
2019-2-27 15:20:24,4bb1e4,THY9EJ  ,10661,763,44.335839,26.037397,130,283,Turkish Airlines
2019-2-27 15:20:24,4bb1e4,THY9EJ  ,10661,763,44.335839,26.037397,130,289,Turkish Airlines
2019-2-27 15:20:24,4bb1e4,THY9EJ  ,10661,763,44.335839,26.037397,130,291,Turkish Airlines
2019-2-27 15:20:24,4bb1e4,THY9EJ  ,10661,763,44.335839,26.037397,130,299,Turkish Airlines
2019-2-27 15:20:24,4bb1e4,THY9EJ  ,10661,763,44.335839,26.037397,130,301,Turkish Airlines
2019-2-27 15:20:24,4bb1e4,THY9EJ  ,10661,763,44.335839,26.037397,130,302,Turkish Airlines
2019-2-27 15:20:24,4bb1e4,THY9EJ  ,10661,763,44.335839,26.037397,130,303,Turkish Airlines
2019-2-27 15:20:24,4bb1e4,THY9EJ  ,10661,763,44.333176,26.041914,130,305,Turkish Airlines
2019-2-27 15:20:24,4bb1e4,THY9EJ  ,10661,763,44.333176,26.041914,130,307,Turkish Airlines
2019-2-27 15:20:24,4bb1e4,THY9EJ  ,10661,763,44.333176,26.041914,130,309,Turkish Airlines
2019-2-27 15:20:24,4bb1e4,THY9EJ  ,10661,763,44.333176,26.041914,130,314,Turkish Airlines
2019-2-27 15:20:24,4bb1e4,THY9EJ  ,10661,763,44.333176,26.041914,130,319,Turkish Airlines
2019-2-27 15:20:24,4bb1e4,THY9EJ  ,10661,763,44.333176,26.041914,130,324,Turkish Airlines
2019-2-27 15:20:24,4bb1e4,THY9EJ  ,10661,764,44.326172,26.052965,130,331,Turkish Airlines
2019-2-27 15:20:24,4bb1e4,THY9EJ  ,10661,764,44.326172,26.052965,130,336,Turkish Airlines
2019-2-27 15:20:24,4bb1e4,THY9EJ  ,10661,764,44.326172,26.052965,130,340,Turkish Airlines
2019-2-27 15:20:24,4bb1e4,THY9EJ  ,10661,764,44.326172,26.052965,130,347,Turkish Airlines
2019-2-27 15:20:24,4bb1e4,THY9EJ  ,10661,764,44.326172,26.052965,130,352,Turkish Airlines
2019-2-27 15:20:24,4bb1e4,THY9EJ  ,10661,764,44.326172,26.052965,130,356,Turkish Airlines
2019-2-27 15:20:24,4bb1e4,THY9EJ  ,10661,764,44.326172,26.052965,130,363,Turkish Airlines
2019-2-27 15:20:24,4bb1e4,THY9EJ  ,10661,764,44.326172,26.052965,130,367,Turkish Airlines
2019-2-27 15:20:24,4bb1e4,THY9EJ  ,10661,764,44.326172,26.052965,130,368,Turkish Airlines
2019-2-27 15:20:24,4bb1e4,THY9EJ  ,10661,764,44.326172,26.052965,130,371,Turkish Airlines
2019-2-27 15:20:24,4bb1e4,THY9EJ  ,10661,766,44.326172,26.052965,130,373,Turkish Airlines
2019-2-27 15:20:24,4bb1e4,THY9EJ  ,10661,766,44.326172,26.052965,130,374,Turkish Airlines
2019-2-27 15:20:24,4bb1e4,THY9EJ  ,10661,766,44.326172,26.052965,130,379,Turkish Airlines
2019-2-27 15:20:24,4bb1e4,THY9EJ  ,10654,766,44.318289,26.066068,130,380,Turkish Airlines
2019-2-27 15:20:24,4bb1e4,THY9EJ  ,10654,766,44.318289,26.066068,130,384,Turkish Airlines
2019-2-27 15:20:24,4bb1e4,THY9EJ  ,10654,766,44.318289,26.066068,130,387,Turkish Airlines
2019-2-27 15:20:24,4bb1e4,THY9EJ  ,10661,766,44.318289,26.066068,130,389,Turkish Airlines
2019-2-27 15:20:24,4bb1e4,THY9EJ  ,10661,766,44.318289,26.066068,130,391,Turkish Airlines
2019-2-27 15:20:24,4bb1e4,THY9EJ  ,10661,766,44.318289,26.066068,130,394,Turkish Airlines
2019-2-27 15:20:24,4bb1e4,THY9EJ  ,10661,766,44.318289,26.066068,130,400,Turkish Airlines
2019-2-27 15:20:24,4bb1e4,THY9EJ  ,10661,766,44.315506,26.070491,130,402,Turkish Airlines
2019-2-27 15:20:24,4bb1e4,THY9EJ  ,10654,766,44.315506,26.070491,130,410,Turkish Airlines
2019-2-27 15:20:24,4bb1e4,THY9EJ  ,10654,766,44.315506,26.070491,130,417,Turkish Airlines
2019-2-27 15:20:24,4bb1e4,THY9EJ  ,10654,766,44.313904,26.072911,130,419,Turkish Airlines
2019-2-27 15:20:24,4bb1e4,THY9EJ  ,10654,766,44.313904,26.072911,130,424,Turkish Airlines
2019-2-27 15:20:24,4bb1e4,THY9EJ  ,10654,766,44.313904,26.072911,130,426,Turkish Airlines
2019-2-27 15:20:24,4bb1e4,THY9EJ  ,10654,766,44.313904,26.072911,130,430,Turkish Airlines
2019-2-27 15:21:30,4bb1e4,THY9EJ  ,10661,764,44.312563,26.075313,130,437,Turkish Airlines
2019-2-27 15:21:30,4bb1e4,THY9EJ  ,10654,764,44.312563,26.075313,130,443,Turkish Airlines
2019-2-27 15:21:30,4bb1e4,THY9EJ  ,10661,764,44.312563,26.075313,130,449,Turkish Airlines
2019-2-27 15:21:30,4bb1e4,THY9EJ  ,10661,764,44.312563,26.075313,130,452,Turkish Airlines
2019-2-27 15:21:30,4bb1e4,THY9EJ  ,10661,764,44.312563,26.075313,130,453,Turkish Airlines
2019-2-27 15:21:30,4bb1e4,THY9EJ  ,10661,764,44.312563,26.075313,130,454,Turkish Airlines
2019-2-27 15:21:30,4bb1e4,THY9EJ  ,10654,764,44.312563,26.075313,130,459,Turkish Airlines
2019-2-27 15:21:30,4bb1e4,THY9EJ  ,10654,764,44.312563,26.075313,130,466,Turkish Airlines
2019-2-27 15:21:30,4bb1e4,THY9EJ  ,10661,764,44.312563,26.075313,130,468,Turkish Airlines
2019-2-27 15:21:30,4bb1e4,THY9EJ  ,10661,764,44.312563,26.075313,130,469,Turkish Airlines
2019-2-27 15:21:30,4bb1e4,THY9EJ  ,10654,764,44.312563,26.075313,130,472,Turkish Airlines
2019-2-27 15:21:30,4bb1e4,THY9EJ  ,10654,764,44.312563,26.075313,130,480,Turkish Airlines
2019-2-27 15:21:30,4bb1e4,THY9EJ  ,10654,764,44.312563,26.075313,130,481,Turkish Airlines
2019-2-27 15:21:30,4bb1e4,THY9EJ  ,10654,764,44.312563,26.075313,130,484,Turkish Airlines
2019-2-27 15:21:30,4bb1e4,THY9EJ  ,10654,764,44.306030,26.085990,130,489,Turkish Airlines
2019-2-27 15:21:30,4bb1e4,THY9EJ  ,10654,764,44.306030,26.085990,130,496,Turkish Airlines
2019-2-27 15:21:30,4bb1e4,THY9EJ  ,10654,764,44.306030,26.085990,130,497,Turkish Airlines
2019-2-27 15:21:30,4bb1e4,THY9EJ  ,10654,764,44.304835,26.087974,130,500,Turkish Airlines
2019-2-27 15:21:30,4bb1e4,THY9EJ  ,10661,764,44.304835,26.087974,130,505,Turkish Airlines
2019-2-27 15:21:30,4bb1e4,THY9EJ  ,10661,764,44.304835,26.087974,130,506,Turkish Airlines
2019-2-27 15:21:30,4bb1e4,THY9EJ  ,10654,764,44.304835,26.087974,130,510,Turkish Airlines
2019-2-27 15:21:30,4bb1e4,THY9EJ  ,10654,764,44.304835,26.087974,130,515,Turkish Airlines
2019-2-27 15:21:30,4bb1e4,THY9EJ  ,10661,764,44.304835,26.087974,130,518,Turkish Airlines
2019-2-27 15:21:30,4bb1e4,THY9EJ  ,10654,764,44.304835,26.087974,130,521,Turkish Airlines
2019-2-27 15:21:30,4bb1e4,THY9EJ  ,10654,764,44.304835,26.087974,130,522,Turkish Airlines
2019-2-27 15:21:30,4bb1e4,THY9EJ  ,10654,764,44.304835,26.087974,130,529,Turkish Airlines
2019-2-27 15:21:30,4bb1e4,THY9EJ  ,10654,764,44.304835,26.087974,130,531,Turkish Airlines
2019-2-27 15:21:30,4bb1e4,THY9EJ  ,10654,764,44.304835,26.087974,130,532,Turkish Airlines
2019-2-27 15:21:30,4bb1e4,THY9EJ  ,10654,764,44.304835,26.087974,130,534,Turkish Airlines
2019-2-27 15:21:30,4bb1e4,THY9EJ  ,10654,764,44.296188,26.101815,130,536,Turkish Airlines
2019-2-27 15:21:30,4bb1e4,THY9EJ  ,10654,764,44.296188,26.101815,130,538,Turkish Airlines
2019-2-27 15:21:30,4bb1e4,THY9EJ  ,10654,764,44.296188,26.101815,130,540,Turkish Airlines
2019-2-27 15:21:30,4bb1e4,THY9EJ  ,10654,764,44.294861,26.104104,130,542,Turkish Airlines
2019-2-27 15:21:30,4bb1e4,THY9EJ  ,10654,764,44.294861,26.104104,130,545,Turkish Airlines
2019-2-27 15:21:30,4bb1e4,THY9EJ  ,10654,764,44.294861,26.104104,130,546,Turkish Airlines
2019-2-27 15:21:30,4bb1e4,THY9EJ  ,10654,764,44.294861,26.104104,130,547,Turkish Airlines
2019-2-27 15:21:30,4bb1e4,THY9EJ  ,10654,764,44.294861,26.104104,130,548,Turkish Airlines
2019-2-27 15:21:30,4bb1e4,THY9EJ  ,10654,764,44.294861,26.104104,130,549,Turkish Airlines
2019-2-27 15:21:30,4bb1e4,THY9EJ  ,10654,764,44.294861,26.104104,130,551,Turkish Airlines
2019-2-27 15:21:30,4bb1e4,THY9EJ  ,10654,764,44.294861,26.104104,130,552,Turkish Airlines
2019-2-27 15:21:30,4bb1e4,THY9EJ  ,10654,764,44.294861,26.104104,130,558,Turkish Airlines
2019-2-27 15:21:30,4bb1e4,THY9EJ  ,10654,764,44.294861,26.104104,130,560,Turkish Airlines
2019-2-27 15:21:30,4bb1e4,THY9EJ  ,10654,764,44.294861,26.104104,130,563,Turkish Airlines
2019-2-27 15:21:30,4bb1e4,THY9EJ  ,10661,764,44.294861,26.104104,130,565,Turkish Airlines
2019-2-27 15:21:30,4bb1e4,THY9EJ  ,10661,764,44.294861,26.104104,130,567,Turkish Airlines
2019-2-27 15:21:30,4bb1e4,THY9EJ  ,10661,764,44.294861,26.104104,130,568,Turkish Airlines
2019-2-27 15:21:30,4bb1e4,THY9EJ  ,10661,763,44.286727,26.117450,130,570,Turkish Airlines
2019-2-27 15:21:30,4bb1e4,THY9EJ  ,10661,763,44.286727,26.117450,130,572,Turkish Airlines
2019-2-27 15:21:30,4bb1e4,THY9EJ  ,10661,763,44.286727,26.117450,130,573,Turkish Airlines
2019-2-27 15:21:30,4bb1e4,THY9EJ  ,10654,763,44.286727,26.117450,130,575,Turkish Airlines
2019-2-27 15:21:30,4bb1e4,THY9EJ  ,10654,763,44.286727,26.117450,130,577,Turkish Airlines
2019-2-27 15:21:30,4bb1e4,THY9EJ  ,10661,763,44.284073,26.121536,130,580,Turkish Airlines
2019-2-27 15:21:30,4bb1e4,THY9EJ  ,10661,763,44.284073,26.121536,130,582,Turkish Airlines
2019-2-27 15:21:30,4bb1e4,THY9EJ  ,10661,763,44.283005,26.123461,130,583,Turkish Airlines
2019-2-27 15:21:30,4bb1e4,THY9EJ  ,10661,763,44.283005,26.123461,130,584,Turkish Airlines
2019-2-27 15:21:30,4bb1e4,THY9EJ  ,10661,763,44.283005,26.123461,130,586,Turkish Airlines
2019-2-27 15:21:30,4bb1e4,THY9EJ  ,10661,763,44.283005,26.123461,130,587,Turkish Airlines
2019-2-27 15:21:30,4bb1e4,THY9EJ  ,10661,763,44.281606,26.125823,130,591,Turkish Airlines
2019-2-27 15:21:30,4bb1e4,THY9EJ  ,10661,763,44.281606,26.125823,130,594,Turkish Airlines
2019-2-27 15:21:30,4bb1e4,THY9EJ  ,10661,763,44.280302,26.127967,130,596,Turkish Airlines
2019-2-27 15:21:30,4bb1e4,THY9EJ  ,10661,763,44.280302,26.127967,130,598,Turkish Airlines
2019-2-27 15:21:30,4bb1e4,THY9EJ  ,10661,763,44.280302,26.127967,130,600,Turkish Airlines
2019-2-27 15:21:30,4bb1e4,THY9EJ  ,10661,763,44.278839,26.130131,130,601,Turkish Airlines
2019-2-27 15:21:30,4bb1e4,THY9EJ  ,10661,763,44.278839,26.130131,130,603,Turkish Airlines
2019-2-27 15:21:30,4bb1e4,THY9EJ  ,10661,763,44.278839,26.130131,130,606,Turkish Airlines
2019-2-27 15:21:30,4bb1e4,THY9EJ  ,10661,763,44.278839,26.130131,130,607,Turkish Airlines
2019-2-27 15:21:30,4bb1e4,THY9EJ  ,10661,763,44.278839,26.130131,130,608,Turkish Airlines
2019-2-27 15:21:30,4bb1e4,THY9EJ  ,10654,763,44.276367,26.134382,130,613,Turkish Airlines
2019-2-27 15:21:30,4bb1e4,THY9EJ  ,10661,763,44.276367,26.134382,130,617,Turkish Airlines
2019-2-27 15:21:30,4bb1e4,THY9EJ  ,10654,763,44.276367,26.134382,130,618,Turkish Airlines
2019-2-27 15:21:30,4bb1e4,THY9EJ  ,10661,763,44.276367,26.134382,130,621,Turkish Airlines
2019-2-27 15:21:30,4bb1e4,THY9EJ  ,10661,763,44.276367,26.134382,130,625,Turkish Airlines
2019-2-27 15:21:30,4bb1e4,THY9EJ  ,10654,763,44.276367,26.134382,130,626,Turkish Airlines
2019-2-27 15:21:30,4bb1e4,THY9EJ  ,10661,763,44.273832,26.138551,130,628,Turkish Airlines
2019-2-27 15:21:30,4bb1e4,THY9EJ  ,10654,763,44.273832,26.138551,130,630,Turkish Airlines
2019-2-27 15:21:30,4bb1e4,THY9EJ  ,10661,763,44.273832,26.138551,130,633,Turkish Airlines
2019-2-27 15:21:30,4bb1e4,THY9EJ  ,10661,763,44.273832,26.138551,130,635,Turkish Airlines
2019-2-27 15:21:30,4bb1e4,THY9EJ  ,10661,763,44.273832,26.138551,130,636,Turkish Airlines
2019-2-27 15:21:30,4bb1e4,THY9EJ  ,10661,763,44.273832,26.138551,130,641,Turkish Airlines
2019-2-27 15:21:30,4bb1e4,THY9EJ  ,10661,763,44.273832,26.138551,130,642,Turkish Airlines
2019-2-27 15:21:30,4bb1e4,THY9EJ  ,10661,763,44.269642,26.145384,130,644,Turkish Airlines
2019-2-27 15:21:30,4bb1e4,THY9EJ  ,10661,763,44.269642,26.145384,130,645,Turkish Airlines
2019-2-27 15:21:30,4bb1e4,THY9EJ  ,10661,763,44.269642,26.145384,130,647,Turkish Airlines
2019-2-27 15:21:30,4bb1e4,THY9EJ  ,10661,763,44.268525,26.147126,130,649,Turkish Airlines
2019-2-27 15:21:30,4bb1e4,THY9EJ  ,10654,763,44.268525,26.147126,130,650,Turkish Airlines
2019-2-27 15:21:30,4bb1e4,THY9EJ  ,10654,763,44.268525,26.147126,130,651,Turkish Airlines
2019-2-27 15:21:30,4bb1e4,THY9EJ  ,10661,763,44.268525,26.147126,130,653,Turkish Airlines
2019-2-27 15:21:30,4bb1e4,THY9EJ  ,10661,763,44.268525,26.147126,130,656,Turkish Airlines
2019-2-27 15:21:30,4bb1e4,THY9EJ  ,10661,763,44.268525,26.147126,130,657,Turkish Airlines
2019-2-27 15:21:30,4bb1e4,THY9EJ  ,10661,763,44.268525,26.147126,130,663,Turkish Airlines
2019-2-27 15:21:30,4bb1e4,THY9EJ  ,10654,763,44.268525,26.147126,130,667,Turkish Airlines
2019-2-27 15:21:30,4bb1e4,THY9EJ  ,10654,763,44.268525,26.147126,130,668,Turkish Airlines
2019-2-27 15:21:30,4bb1e4,THY9EJ  ,10661,763,44.268525,26.147126,130,670,Turkish Airlines
2019-2-27 15:21:30,4bb1e4,THY9EJ  ,10661,763,44.268525,26.147126,130,673,Turkish Airlines
2019-2-27 15:21:30,4bb1e4,THY9EJ  ,10654,763,44.268525,26.147126,130,676,Turkish Airlines
2019-2-27 15:21:30,4bb1e4,THY9EJ  ,10661,763,44.268525,26.147126,130,681,Turkish Airlines
2019-2-27 15:21:30,4bb1e4,THY9EJ  ,10661,763,44.268525,26.147126,130,683,Turkish Airlines
2019-2-27 15:21:30,4bb1e4,THY9EJ  ,10661,763,44.268525,26.147126,130,684,Turkish Airlines
2019-2-27 15:21:30,4bb1e4,THY9EJ  ,10661,763,44.268525,26.147126,130,685,Turkish Airlines
2019-2-27 15:21:30,4bb1e4,THY9EJ  ,10661,763,44.268525,26.147126,130,686,Turkish Airlines
2019-2-27 15:21:30,4bb1e4,THY9EJ  ,10661,763,44.268525,26.147126,130,687,Turkish Airlines
2019-2-27 15:21:30,4bb1e4,THY9EJ  ,10661,763,44.268525,26.147126,130,688,Turkish Airlines
2019-2-27 15:21:30,4bb1e4,THY9EJ  ,10661,763,44.268525,26.147126,130,689,Turkish Airlines
2019-2-27 15:21:30,4bb1e4,THY9EJ  ,10661,763,44.268525,26.147126,130,690,Turkish Airlines
2019-2-27 15:21:30,4bb1e4,THY9EJ  ,10654,763,44.268525,26.147126,130,691,Turkish Airlines
2019-2-27 15:21:30,4bb1e4,THY9EJ  ,10654,763,44.268525,26.147126,130,692,Turkish Airlines
2019-2-27 15:21:30,4bb1e4,THY9EJ  ,10654,763,44.268525,26.147126,130,693,Turkish Airlines
2019-2-27 15:21:30,4bb1e4,THY9EJ  ,10654,763,44.268525,26.147126,130,694,Turkish Airlines
2019-2-27 15:21:30,4bb1e4,THY9EJ  ,10654,763,44.268525,26.147126,130,695,Turkish Airlines
2019-2-27 15:21:30,4bb1e4,THY9EJ  ,10654,763,44.268525,26.147126,130,696,Turkish Airlines
2019-2-27 15:21:30,4bb1e4,THY9EJ  ,10661,763,44.268525,26.147126,130,698,Turkish Airlines
2019-2-27 15:21:30,4bb1e4,THY9EJ  ,10661,763,44.268525,26.147126,130,700,Turkish Airlines
2019-2-27 15:21:30,4bb1e4,THY9EJ  ,10661,763,44.268525,26.147126,130,701,Turkish Airlines
2019-2-27 15:21:30,4bb1e4,THY9EJ  ,10661,763,44.268525,26.147126,130,703,Turkish Airlines
2019-2-27 15:21:30,4bb1e4,THY9EJ  ,10661,763,44.268525,26.147126,130,705,Turkish Airlines
2019-2-27 15:21:30,4bb1e4,THY9EJ  ,10661,763,44.268525,26.147126,130,706,Turkish Airlines
2019-2-27 15:21:30,4bb1e4,THY9EJ  ,10661,763,44.244278,26.186502,130,708,Turkish Airlines
2019-2-27 15:21:30,4bb1e4,THY9EJ  ,10661,763,44.244278,26.186502,130,711,Turkish Airlines
2019-2-27 15:21:30,4bb1e4,THY9EJ  ,10661,763,44.244278,26.186502,130,713,Turkish Airlines
2019-2-27 15:21:30,4bb1e4,THY9EJ  ,10661,763,44.244278,26.186502,130,718,Turkish Airlines
2019-2-27 15:21:30,4bb1e4,THY9EJ  ,10661,763,44.244278,26.186502,130,721,Turkish Airlines
2019-2-27 15:21:30,4bb1e4,THY9EJ  ,10661,763,44.244278,26.186502,130,724,Turkish Airlines
2019-2-27 15:21:30,4bb1e4,THY9EJ  ,10661,763,44.244278,26.186502,130,725,Turkish Airlines
2019-2-27 15:21:30,4bb1e4,THY9EJ  ,10661,763,44.241385,26.191138,130,726,Turkish Airlines
2019-2-27 15:21:30,4bb1e4,THY9EJ  ,10661,763,44.241385,26.191138,130,729,Turkish Airlines
2019-2-27 15:21:30,4bb1e4,THY9EJ  ,10661,763,44.241385,26.191138,130,731,Turkish Airlines
2019-2-27 15:21:30,4bb1e4,THY9EJ  ,10661,763,44.241385,26.191138,130,733,Turkish Airlines
2019-2-27 15:21:30,4bb1e4,THY9EJ  ,10661,763,44.241385,26.191138,130,734,Turkish Airlines
2019-2-27 15:21:30,4bb1e4,THY9EJ  ,10661,763,44.241385,26.191138,130,737,Turkish Airlines
2019-2-27 15:21:30,4bb1e4,THY9EJ  ,10661,763,44.241385,26.191138,130,738,Turkish Airlines
2019-2-27 15:21:30,4bb1e4,THY9EJ  ,10661,763,44.235901,26.200104,130,739,Turkish Airlines
2019-2-27 15:21:30,4bb1e4,THY9EJ  ,10661,763,44.235901,26.200104,130,744,Turkish Airlines
2019-2-27 15:21:30,4bb1e4,THY9EJ  ,10661,761,44.234528,26.202393,130,746,Turkish Airlines
2019-2-27 15:21:30,4bb1e4,THY9EJ  ,10661,761,44.234528,26.202393,130,748,Turkish Airlines
2019-2-27 15:21:30,4bb1e4,THY9EJ  ,10661,761,44.234528,26.202393,130,749,Turkish Airlines
2019-2-27 15:21:30,4bb1e4,THY9EJ  ,10661,761,44.233246,26.204420,130,754,Turkish Airlines
2019-2-27 15:21:30,4bb1e4,THY9EJ  ,10661,761,44.233246,26.204420,130,757,Turkish Airlines
2019-2-27 15:21:30,4bb1e4,THY9EJ  ,10661,761,44.233246,26.204420,130,760,Turkish Airlines
2019-2-27 15:21:30,4bb1e4,THY9EJ  ,10661,761,44.231964,26.206316,130,764,Turkish Airlines
2019-2-27 15:21:30,4bb1e4,THY9EJ  ,10661,761,44.231964,26.206316,130,769,Turkish Airlines
2019-2-27 15:21:30,4bb1e4,THY9EJ  ,10661,761,44.231964,26.206316,130,771,Turkish Airlines
2019-2-27 15:21:30,4bb1e4,THY9EJ  ,10661,761,44.230538,26.208690,130,772,Turkish Airlines
2019-2-27 15:21:30,4bb1e4,THY9EJ  ,10661,761,44.230538,26.208690,130,773,Turkish Airlines
2019-2-27 15:21:30,4bb1e4,THY9EJ  ,10661,761,44.230538,26.208690,130,779,Turkish Airlines
2019-2-27 15:21:30,4bb1e4,THY9EJ  ,10661,761,44.230538,26.208690,130,780,Turkish Airlines
2019-2-27 15:21:30,4bb1e4,THY9EJ  ,10661,761,44.230538,26.208690,130,781,Turkish Airlines
2019-2-27 15:21:30,4bb1e4,THY9EJ  ,10661,761,44.230538,26.208690,130,782,Turkish Airlines
2019-2-27 15:21:30,4bb1e4,THY9EJ  ,10661,761,44.230538,26.208690,130,785,Turkish Airlines
2019-2-27 15:21:30,4bb1e4,THY9EJ  ,10661,761,44.230538,26.208690,130,786,Turkish Airlines
2019-2-27 15:21:30,4bb1e4,THY9EJ  ,10661,761,44.230538,26.208690,130,789,Turkish Airlines
2019-2-27 15:21:30,4bb1e4,THY9EJ  ,10661,761,44.230538,26.208690,130,790,Turkish Airlines
2019-2-27 15:21:30,4bb1e4,THY9EJ  ,10654,761,44.230538,26.208690,130,792,Turkish Airlines
2019-2-27 15:21:30,4bb1e4,THY9EJ  ,10661,761,44.226721,26.214987,130,794,Turkish Airlines
2019-2-27 15:21:30,4bb1e4,THY9EJ  ,10661,761,44.226721,26.214987,130,795,Turkish Airlines
2019-2-27 15:21:30,4bb1e4,THY9EJ  ,10661,759,44.226721,26.214987,130,797,Turkish Airlines
2019-2-27 15:21:30,4bb1e4,THY9EJ  ,10661,759,44.226721,26.214987,130,798,Turkish Airlines
2019-2-27 15:21:30,4bb1e4,THY9EJ  ,10661,759,44.226721,26.214987,130,800,Turkish Airlines
2019-2-27 15:21:30,4bb1e4,THY9EJ  ,10661,759,44.226721,26.214987,130,803,Turkish Airlines
2019-2-27 15:21:30,4bb1e4,THY9EJ  ,10661,759,44.226721,26.214987,130,805,Turkish Airlines
2019-2-27 15:21:30,4bb1e4,THY9EJ  ,10654,759,44.226721,26.214987,130,806,Turkish Airlines
2019-2-27 15:21:30,4bb1e4,THY9EJ  ,10661,759,44.226721,26.214987,130,808,Turkish Airlines
2019-2-27 15:21:30,4bb1e4,THY9EJ  ,10654,759,44.226721,26.214987,130,810,Turkish Airlines
2019-2-27 15:21:30,4bb1e4,THY9EJ  ,10661,759,44.226721,26.214987,130,817,Turkish Airlines
2019-2-27 15:21:30,4bb1e4,THY9EJ  ,10661,759,44.226721,26.214987,130,819,Turkish Airlines
2019-2-27 15:21:30,4bb1e4,THY9EJ  ,10661,759,44.226721,26.214987,130,820,Turkish Airlines
2019-2-27 15:21:30,4bb1e4,THY9EJ  ,10661,759,44.226721,26.214987,130,821,Turkish Airlines
2019-2-27 15:21:30,4bb1e4,THY9EJ  ,10661,759,44.226721,26.214987,130,822,Turkish Airlines
