2019-2-27 18:50:47,06a10e,,0,863,0.000000,0.000000,122,1,Unknown
2019-2-27 18:50:47,06a10e,,12489,863,0.000000,0.000000,122,2,Unknown
2019-2-27 18:50:47,06a10e,,12489,863,0.000000,0.000000,122,4,Unknown
2019-2-27 18:50:47,06a10e,,12489,863,0.000000,0.000000,122,5,Unknown
