2019-2-27 16:20:9,3c6753,,0,0,0.000000,0.000000,0,1,Unknown
2019-2-27 16:20:9,3c6753,,2033,0,0.000000,0.000000,0,3,Unknown
2019-2-27 16:20:9,3c6753,,2033,0,0.000000,0.000000,0,5,Unknown
2019-2-27 16:20:9,3c6753,,2094,0,0.000000,0.000000,0,13,Unknown
2019-2-27 16:20:9,3c6753,,2101,0,0.000000,0.000000,0,15,Unknown
2019-2-27 16:20:9,3c6753,,2117,0,0.000000,0.000000,0,16,Unknown
2019-2-27 16:20:9,3c6753,,2124,459,0.000000,0.000000,308,19,Unknown
2019-2-27 16:20:9,3c6753,,2124,459,0.000000,0.000000,308,20,Unknown
2019-2-27 16:20:9,3c6753,,2132,459,0.000000,0.000000,308,23,Unknown
2019-2-27 16:20:9,3c6753,,2170,459,0.000000,0.000000,308,27,Unknown
2019-2-27 16:20:9,3c6753,,2178,459,0.000000,0.000000,308,32,Unknown
2019-2-27 16:20:9,3c6753,,2178,463,44.672607,26.101750,308,37,Unknown
2019-2-27 16:20:9,3c6753,,2185,463,44.672607,26.101750,308,39,Unknown
2019-2-27 16:20:9,3c6753,,2193,463,44.672607,26.101750,308,44,Unknown
2019-2-27 16:20:9,3c6753,,2216,463,44.672607,26.101750,308,45,Unknown
2019-2-27 16:20:9,3c6753,,2223,463,44.672607,26.101750,308,52,Unknown
2019-2-27 16:20:9,3c6753,,2223,463,44.672607,26.101750,308,57,Unknown
2019-2-27 16:20:9,3c6753,,2231,463,44.672607,26.101750,308,58,Unknown
2019-2-27 16:20:9,3c6753,,2238,463,44.672607,26.101750,308,60,Unknown
2019-2-27 16:20:9,3c6753,,2238,463,44.672607,26.101750,308,61,Unknown
2019-2-27 16:20:9,3c6753,,2261,463,44.672607,26.101750,308,62,Unknown
2019-2-27 16:20:9,3c6753,,2337,463,44.672607,26.101750,308,64,Unknown
2019-2-27 16:20:9,3c6753,,2337,463,44.672607,26.101750,308,69,Unknown
2019-2-27 16:20:9,3c6753,,2345,463,44.672607,26.101750,308,71,Unknown
2019-2-27 16:20:9,3c6753,,2353,463,44.672607,26.101750,308,74,Unknown
2019-2-27 16:20:9,3c6753,,2353,464,44.672607,26.101750,308,77,Unknown
2019-2-27 16:20:9,3c6753,,2360,464,44.672607,26.101750,308,80,Unknown
2019-2-27 16:20:9,3c6753,,2360,464,44.672607,26.101750,308,82,Unknown
2019-2-27 16:20:9,3c6753,,2376,464,44.672607,26.101750,308,84,Unknown
2019-2-27 16:20:9,3c6753,,2376,464,44.672607,26.101750,308,86,Unknown
2019-2-27 16:20:9,3c6753,,2376,464,44.672607,26.101750,308,87,Unknown
2019-2-27 16:20:9,3c6753,,2376,464,44.672607,26.101750,308,89,Unknown
2019-2-27 16:20:9,3c6753,,2376,464,44.672607,26.101750,308,90,Unknown
2019-2-27 16:20:9,3c6753,,2406,466,44.672607,26.101750,308,93,Unknown
2019-2-27 16:20:9,3c6753,,2414,466,44.672607,26.101750,308,97,Unknown
2019-2-27 16:20:9,3c6753,,2414,466,44.672607,26.101750,308,98,Unknown
2019-2-27 16:20:9,3c6753,,2414,466,44.672607,26.101750,308,99,Unknown
2019-2-27 16:20:9,3c6753,,2414,466,44.672607,26.101750,308,100,Unknown
2019-2-27 16:20:9,3c6753,,2429,466,44.672607,26.101750,308,103,Unknown
