2019-2-27 17:26:35,4baa75,,0,0,0.000000,0.000000,0,1,Unknown
2019-2-27 17:26:44,4baa75,,0,766,0.000000,0.000000,322,2,Unknown
2019-2-27 17:26:44,4baa75,,10357,766,0.000000,0.000000,322,4,Unknown
2019-2-27 17:26:44,4baa75,,10357,766,0.000000,0.000000,322,10,Unknown
2019-2-27 17:26:44,4baa75,,10357,766,0.000000,0.000000,322,12,Unknown
2019-2-27 17:26:44,4baa75,,10349,766,0.000000,0.000000,322,14,Unknown
2019-2-27 17:26:44,4baa75,,10349,766,0.000000,0.000000,322,16,Unknown
2019-2-27 17:26:44,4baa75,,10357,766,0.000000,0.000000,322,17,Unknown
2019-2-27 17:26:44,4baa75,,10349,766,0.000000,0.000000,322,21,Unknown
2019-2-27 17:26:44,4baa75,,10349,764,0.000000,0.000000,322,27,Unknown
2019-2-27 17:26:44,4baa75,,10349,764,0.000000,0.000000,322,30,Unknown
2019-2-27 17:26:44,4baa75,,10349,764,0.000000,0.000000,322,31,Unknown
2019-2-27 17:26:44,4baa75,,10349,764,0.000000,0.000000,322,33,Unknown
2019-2-27 17:26:44,4baa75,,10349,764,0.000000,0.000000,322,34,Unknown
2019-2-27 17:26:44,4baa75,,10357,764,0.000000,0.000000,322,35,Unknown
2019-2-27 17:26:44,4baa75,,10357,764,0.000000,0.000000,322,36,Unknown
2019-2-27 17:26:44,4baa75,THY4LQ  ,10357,764,0.000000,0.000000,322,37,Turkish Airlines
2019-2-27 17:26:44,4baa75,THY4LQ  ,10357,764,0.000000,0.000000,322,40,Turkish Airlines
2019-2-27 17:27:10,4baa75,THY4LQ  ,10357,764,0.000000,0.000000,322,41,Turkish Airlines
2019-2-27 17:27:10,4baa75,THY4LQ  ,10357,764,0.000000,0.000000,322,42,Turkish Airlines
2019-2-27 17:27:10,4baa75,THY4LQ  ,10349,764,0.000000,0.000000,322,43,Turkish Airlines
2019-2-27 17:27:10,4baa75,THY4LQ  ,10349,768,0.000000,0.000000,323,48,Turkish Airlines
2019-2-27 17:27:10,4baa75,THY4LQ  ,10349,768,0.000000,0.000000,323,50,Turkish Airlines
2019-2-27 17:27:10,4baa75,THY4LQ  ,10357,768,0.000000,0.000000,323,52,Turkish Airlines
2019-2-27 17:27:10,4baa75,THY4LQ  ,10357,768,0.000000,0.000000,323,54,Turkish Airlines
2019-2-27 17:27:10,4baa75,THY4LQ  ,10357,768,0.000000,0.000000,323,55,Turkish Airlines
2019-2-27 17:27:10,4baa75,THY4LQ  ,10357,768,0.000000,0.000000,323,56,Turkish Airlines
2019-2-27 17:27:10,4baa75,THY4LQ  ,10357,768,0.000000,0.000000,323,59,Turkish Airlines
2019-2-27 17:27:10,4baa75,THY4LQ  ,10357,768,0.000000,0.000000,323,60,Turkish Airlines
2019-2-27 17:27:10,4baa75,THY4LQ  ,10357,768,0.000000,0.000000,323,61,Turkish Airlines
2019-2-27 17:27:10,4baa75,THY4LQ  ,10349,768,0.000000,0.000000,323,65,Turkish Airlines
2019-2-27 17:27:10,4baa75,THY4LQ  ,10349,768,0.000000,0.000000,323,66,Turkish Airlines
2019-2-27 17:27:10,4baa75,THY4LQ  ,10349,768,0.000000,0.000000,323,71,Turkish Airlines
2019-2-27 17:27:10,4baa75,THY4LQ  ,10349,768,0.000000,0.000000,323,72,Turkish Airlines
2019-2-27 17:27:10,4baa75,THY4LQ  ,10349,768,0.000000,0.000000,323,73,Turkish Airlines
2019-2-27 17:27:10,4baa75,THY4LQ  ,10349,768,0.000000,0.000000,323,74,Turkish Airlines
2019-2-27 17:27:10,4baa75,THY4LQ  ,10349,768,0.000000,0.000000,323,75,Turkish Airlines
2019-2-27 17:27:10,4baa75,THY4LQ  ,10349,768,0.000000,0.000000,323,80,Turkish Airlines
2019-2-27 17:27:10,4baa75,THY4LQ  ,10349,768,0.000000,0.000000,323,85,Turkish Airlines
2019-2-27 17:27:10,4baa75,THY4LQ  ,10349,768,44.446354,26.426607,323,88,Turkish Airlines
2019-2-27 17:27:10,4baa75,THY4LQ  ,10349,768,44.446354,26.426607,323,90,Turkish Airlines
2019-2-27 17:27:10,4baa75,THY4LQ  ,10349,766,44.446354,26.426607,323,91,Turkish Airlines
2019-2-27 17:27:10,4baa75,THY4LQ  ,10357,766,44.446354,26.426607,323,98,Turkish Airlines
2019-2-27 17:27:10,4baa75,THY4LQ  ,10349,766,44.446354,26.426607,323,100,Turkish Airlines
2019-2-27 17:27:10,4baa75,THY4LQ  ,10357,766,44.446354,26.426607,323,104,Turkish Airlines
2019-2-27 17:28:7,4baa75,THY4LQ  ,10357,766,44.446354,26.426607,323,105,Turkish Airlines
2019-2-27 17:28:7,4baa75,THY4LQ  ,10357,766,44.446354,26.426607,323,109,Turkish Airlines
2019-2-27 17:28:7,4baa75,THY4LQ  ,10357,766,44.446354,26.426607,323,112,Turkish Airlines
2019-2-27 17:28:7,4baa75,THY4LQ  ,10357,763,44.446354,26.426607,322,114,Turkish Airlines
2019-2-27 17:28:7,4baa75,THY4LQ  ,10357,763,44.446354,26.426607,322,116,Turkish Airlines
2019-2-27 17:28:7,4baa75,THY4LQ  ,10357,763,44.446354,26.426607,322,124,Turkish Airlines
2019-2-27 17:28:7,4baa75,THY4LQ  ,10357,763,44.446354,26.426607,322,125,Turkish Airlines
2019-2-27 17:28:12,4baa75,THY4LQ  ,10357,763,44.446354,26.426607,322,128,Turkish Airlines
2019-2-27 17:28:12,4baa75,THY4LQ  ,10357,763,44.446354,26.426607,322,130,Turkish Airlines
2019-2-27 17:28:12,4baa75,THY4LQ  ,10357,763,44.446354,26.426607,322,131,Turkish Airlines
2019-2-27 17:28:12,4baa75,THY4LQ  ,10357,763,44.446354,26.426607,322,132,Turkish Airlines
2019-2-27 17:28:12,4baa75,THY4LQ  ,10357,763,44.446354,26.426607,322,138,Turkish Airlines
2019-2-27 17:28:12,4baa75,THY4LQ  ,10357,763,44.446354,26.426607,322,139,Turkish Airlines
2019-2-27 17:28:12,4baa75,THY4LQ  ,10357,763,44.446354,26.426607,322,140,Turkish Airlines
2019-2-27 17:28:12,4baa75,THY4LQ  ,10357,763,44.446354,26.426607,322,143,Turkish Airlines
2019-2-27 17:28:12,4baa75,THY4LQ  ,10357,763,44.446354,26.426607,322,145,Turkish Airlines
2019-2-27 17:28:12,4baa75,THY4LQ  ,10357,763,44.446354,26.426607,322,147,Turkish Airlines
2019-2-27 17:28:12,4baa75,THY4LQ  ,10357,763,44.446354,26.426607,322,149,Turkish Airlines
2019-2-27 17:28:12,4baa75,THY4LQ  ,10357,763,44.446354,26.426607,322,151,Turkish Airlines
2019-2-27 17:28:12,4baa75,THY4LQ  ,10357,763,44.446354,26.426607,322,152,Turkish Airlines
2019-2-27 17:28:12,4baa75,THY4LQ  ,10357,763,44.446354,26.426607,322,153,Turkish Airlines
2019-2-27 17:28:20,4baa75,THY4LQ  ,10357,763,44.446354,26.426607,322,158,Turkish Airlines
2019-2-27 17:28:20,4baa75,THY4LQ  ,10357,763,44.446354,26.426607,322,161,Turkish Airlines
2019-2-27 17:28:20,4baa75,THY4LQ  ,10357,763,44.446354,26.426607,322,164,Turkish Airlines
2019-2-27 17:28:20,4baa75,THY4LQ  ,10357,763,44.446354,26.426607,322,169,Turkish Airlines
2019-2-27 17:28:20,4baa75,THY4LQ  ,10357,763,44.446354,26.426607,322,172,Turkish Airlines
2019-2-27 17:28:20,4baa75,THY4LQ  ,10357,763,44.446354,26.426607,322,174,Turkish Airlines
2019-2-27 17:28:20,4baa75,THY4LQ  ,10357,763,44.446354,26.426607,322,177,Turkish Airlines
2019-2-27 17:28:20,4baa75,THY4LQ  ,10357,763,44.446354,26.426607,322,180,Turkish Airlines
2019-2-27 17:28:20,4baa75,THY4LQ  ,10357,755,44.446354,26.426607,322,181,Turkish Airlines
2019-2-27 17:28:20,4baa75,THY4LQ  ,10357,755,44.446354,26.426607,322,183,Turkish Airlines
2019-2-27 17:28:20,4baa75,THY4LQ  ,10357,755,44.446354,26.426607,322,184,Turkish Airlines
2019-2-27 17:28:20,4baa75,THY4LQ  ,10349,755,44.446354,26.426607,322,186,Turkish Airlines
2019-2-27 17:28:20,4baa75,THY4LQ  ,10349,755,44.446354,26.426607,322,191,Turkish Airlines
2019-2-27 17:28:20,4baa75,THY4LQ  ,10349,755,44.446354,26.426607,322,196,Turkish Airlines
2019-2-27 17:28:20,4baa75,THY4LQ  ,10349,755,44.446354,26.426607,322,197,Turkish Airlines
2019-2-27 17:28:20,4baa75,THY4LQ  ,10349,755,44.446354,26.426607,322,198,Turkish Airlines
2019-2-27 17:28:20,4baa75,THY4LQ  ,10349,755,44.446354,26.426607,322,201,Turkish Airlines
2019-2-27 17:28:20,4baa75,THY4LQ  ,10349,755,44.446354,26.426607,322,208,Turkish Airlines
2019-2-27 17:28:20,4baa75,THY4LQ  ,10349,755,44.446354,26.426607,322,211,Turkish Airlines
2019-2-27 17:28:20,4baa75,THY4LQ  ,10349,755,44.446354,26.426607,322,212,Turkish Airlines
2019-2-27 17:28:20,4baa75,THY4LQ  ,10349,755,44.446354,26.426607,322,213,Turkish Airlines
2019-2-27 17:28:20,4baa75,THY4LQ  ,10349,755,44.446354,26.426607,322,219,Turkish Airlines
2019-2-27 17:28:20,4baa75,THY4LQ  ,10349,755,44.446354,26.426607,322,220,Turkish Airlines
2019-2-27 17:28:20,4baa75,THY4LQ  ,10349,755,44.446354,26.426607,322,222,Turkish Airlines
2019-2-27 17:28:20,4baa75,THY4LQ  ,10349,755,44.446354,26.426607,322,225,Turkish Airlines
2019-2-27 17:28:20,4baa75,THY4LQ  ,10349,755,44.446354,26.426607,322,226,Turkish Airlines
2019-2-27 17:28:20,4baa75,THY4LQ  ,10349,755,44.446354,26.426607,322,230,Turkish Airlines
2019-2-27 17:28:20,4baa75,THY4LQ  ,10349,755,44.446354,26.426607,322,231,Turkish Airlines
2019-2-27 17:28:20,4baa75,THY4LQ  ,10349,755,44.446354,26.426607,322,239,Turkish Airlines
2019-2-27 17:28:20,4baa75,THY4LQ  ,10349,753,44.446354,26.426607,322,244,Turkish Airlines
2019-2-27 17:28:20,4baa75,THY4LQ  ,10349,753,44.446354,26.426607,322,247,Turkish Airlines
2019-2-27 17:28:20,4baa75,THY4LQ  ,10349,753,44.446354,26.426607,322,252,Turkish Airlines
2019-2-27 17:28:20,4baa75,THY4LQ  ,10349,753,44.446354,26.426607,322,256,Turkish Airlines
2019-2-27 17:28:20,4baa75,THY4LQ  ,10349,753,44.446354,26.426607,322,258,Turkish Airlines
2019-2-27 17:28:20,4baa75,THY4LQ  ,10349,753,44.446354,26.426607,322,259,Turkish Airlines
2019-2-27 17:28:20,4baa75,THY4LQ  ,10349,753,44.446354,26.426607,322,264,Turkish Airlines
2019-2-27 17:28:20,4baa75,THY4LQ  ,10349,753,44.446354,26.426607,322,265,Turkish Airlines
2019-2-27 17:28:20,4baa75,THY4LQ  ,10349,753,44.446354,26.426607,322,266,Turkish Airlines
2019-2-27 17:28:20,4baa75,THY4LQ  ,10349,753,44.446354,26.426607,322,267,Turkish Airlines
2019-2-27 17:28:20,4baa75,THY4LQ  ,10349,753,44.446354,26.426607,322,269,Turkish Airlines
2019-2-27 17:28:20,4baa75,THY4LQ  ,10349,753,44.446354,26.426607,322,278,Turkish Airlines
2019-2-27 17:28:20,4baa75,THY4LQ  ,10349,753,44.625208,26.230126,322,288,Turkish Airlines
2019-2-27 17:28:20,4baa75,THY4LQ  ,10349,753,44.625208,26.230126,322,289,Turkish Airlines
2019-2-27 17:28:20,4baa75,THY4LQ  ,10349,753,44.625870,26.229466,322,290,Turkish Airlines
2019-2-27 17:28:20,4baa75,THY4LQ  ,10341,753,44.625870,26.229466,322,293,Turkish Airlines
2019-2-27 17:28:20,4baa75,THY4LQ  ,10349,753,44.625870,26.229466,322,294,Turkish Airlines
2019-2-27 17:28:20,4baa75,THY4LQ  ,10341,753,44.625870,26.229466,322,299,Turkish Airlines
2019-2-27 17:28:20,4baa75,THY4LQ  ,10349,753,44.628983,26.226000,322,307,Turkish Airlines
2019-2-27 17:28:20,4baa75,THY4LQ  ,10349,753,44.628983,26.226000,322,314,Turkish Airlines
2019-2-27 17:28:20,4baa75,THY4LQ  ,10349,753,44.628983,26.226000,322,317,Turkish Airlines
2019-2-27 17:28:20,4baa75,THY4LQ  ,10349,753,44.628983,26.226000,322,319,Turkish Airlines
2019-2-27 17:28:20,4baa75,THY4LQ  ,10349,753,44.632050,26.222600,322,320,Turkish Airlines
2019-2-27 17:28:20,4baa75,THY4LQ  ,10349,753,44.632050,26.222600,322,321,Turkish Airlines
2019-2-27 17:28:20,4baa75,THY4LQ  ,10349,753,44.632050,26.222600,322,326,Turkish Airlines
2019-2-27 17:28:20,4baa75,THY4LQ  ,10349,753,44.632050,26.222600,322,328,Turkish Airlines
2019-2-27 17:28:20,4baa75,THY4LQ  ,10349,753,44.636627,26.217564,322,330,Turkish Airlines
2019-2-27 17:28:20,4baa75,THY4LQ  ,10349,753,44.636627,26.217564,322,332,Turkish Airlines
2019-2-27 17:28:20,4baa75,THY4LQ  ,10349,753,44.636627,26.217564,322,336,Turkish Airlines
2019-2-27 17:28:20,4baa75,THY4LQ  ,10349,753,44.636627,26.217564,322,338,Turkish Airlines
2019-2-27 17:28:20,4baa75,THY4LQ  ,10349,753,44.636627,26.217564,322,345,Turkish Airlines
2019-2-27 17:28:20,4baa75,THY4LQ  ,10349,753,44.636627,26.217564,322,347,Turkish Airlines
2019-2-27 17:28:20,4baa75,THY4LQ  ,10349,753,44.645225,26.207953,322,348,Turkish Airlines
2019-2-27 17:28:20,4baa75,THY4LQ  ,10349,753,44.645225,26.207953,322,349,Turkish Airlines
2019-2-27 17:28:20,4baa75,THY4LQ  ,10349,753,44.645225,26.207953,322,352,Turkish Airlines
2019-2-27 17:28:20,4baa75,THY4LQ  ,10349,753,44.645225,26.207953,322,355,Turkish Airlines
2019-2-27 17:28:20,4baa75,THY4LQ  ,10349,751,44.645225,26.207953,322,356,Turkish Airlines
2019-2-27 17:28:20,4baa75,THY4LQ  ,10349,751,44.645225,26.207953,322,357,Turkish Airlines
2019-2-27 17:28:20,4baa75,THY4LQ  ,10349,751,44.645225,26.207953,322,363,Turkish Airlines
2019-2-27 17:28:20,4baa75,THY4LQ  ,10349,751,44.645225,26.207953,322,371,Turkish Airlines
2019-2-27 17:28:20,4baa75,THY4LQ  ,10349,751,44.645225,26.207953,322,380,Turkish Airlines
2019-2-27 17:28:20,4baa75,THY4LQ  ,10357,751,44.645225,26.207953,322,384,Turkish Airlines
2019-2-27 17:28:20,4baa75,THY4LQ  ,10357,751,44.645225,26.207953,322,389,Turkish Airlines
2019-2-27 17:28:20,4baa75,THY4LQ  ,10357,751,44.645225,26.207953,322,395,Turkish Airlines
2019-2-27 17:28:20,4baa75,THY4LQ  ,10357,751,44.645225,26.207953,322,398,Turkish Airlines
2019-2-27 17:28:20,4baa75,THY4LQ  ,10357,751,44.645225,26.207953,322,401,Turkish Airlines
2019-2-27 17:28:20,4baa75,THY4LQ  ,10357,751,44.645225,26.207953,322,404,Turkish Airlines
2019-2-27 17:28:20,4baa75,THY4LQ  ,10357,751,44.645225,26.207953,322,407,Turkish Airlines
2019-2-27 17:28:20,4baa75,THY4LQ  ,10349,751,44.645225,26.207953,322,410,Turkish Airlines
2019-2-27 17:28:20,4baa75,THY4LQ  ,10357,751,44.645225,26.207953,322,414,Turkish Airlines
2019-2-27 17:28:20,4baa75,THY4LQ  ,10357,751,44.671143,26.178981,322,419,Turkish Airlines
2019-2-27 17:28:20,4baa75,THY4LQ  ,10357,751,44.671692,26.178262,322,421,Turkish Airlines
2019-2-27 17:28:20,4baa75,THY4LQ  ,10357,751,44.671692,26.178262,322,429,Turkish Airlines
2019-2-27 17:28:20,4baa75,THY4LQ  ,10357,751,44.671692,26.178262,322,437,Turkish Airlines
2019-2-27 17:28:20,4baa75,THY4LQ  ,10357,751,44.671692,26.178262,322,440,Turkish Airlines
2019-2-27 17:28:20,4baa75,THY4LQ  ,10357,751,44.671692,26.178262,322,441,Turkish Airlines
2019-2-27 17:28:20,4baa75,THY4LQ  ,10357,751,44.671692,26.178262,322,443,Turkish Airlines
2019-2-27 17:28:20,4baa75,THY4LQ  ,10357,751,44.671692,26.178262,322,445,Turkish Airlines
2019-2-27 17:28:20,4baa75,THY4LQ  ,10357,751,44.671692,26.178262,322,447,Turkish Airlines
2019-2-27 17:28:20,4baa75,THY4LQ  ,10357,751,44.671692,26.178262,322,448,Turkish Airlines
2019-2-27 17:28:20,4baa75,THY4LQ  ,10357,751,44.671692,26.178262,322,454,Turkish Airlines
2019-2-27 17:28:20,4baa75,THY4LQ  ,10357,751,44.671692,26.178262,322,457,Turkish Airlines
2019-2-27 17:28:20,4baa75,THY4LQ  ,10357,751,44.671692,26.178262,322,459,Turkish Airlines
2019-2-27 17:28:20,4baa75,THY4LQ  ,10357,751,44.671692,26.178262,322,465,Turkish Airlines
2019-2-27 17:28:20,4baa75,THY4LQ  ,10357,751,44.671692,26.178262,322,466,Turkish Airlines
2019-2-27 17:28:20,4baa75,THY4LQ  ,10357,751,44.671692,26.178262,322,471,Turkish Airlines
2019-2-27 17:28:20,4baa75,THY4LQ  ,10357,751,44.671692,26.178262,322,475,Turkish Airlines
2019-2-27 17:28:20,4baa75,THY4LQ  ,10357,751,44.671692,26.178262,322,477,Turkish Airlines
2019-2-27 17:28:20,4baa75,THY4LQ  ,10364,748,44.671692,26.178262,322,482,Turkish Airlines
2019-2-27 17:28:20,4baa75,THY4LQ  ,10364,748,44.671692,26.178262,322,483,Turkish Airlines
2019-2-27 17:28:20,4baa75,THY4LQ  ,10364,748,44.671692,26.178262,322,485,Turkish Airlines
2019-2-27 17:28:20,4baa75,THY4LQ  ,10357,748,44.671692,26.178262,322,488,Turkish Airlines
2019-2-27 17:28:20,4baa75,THY4LQ  ,10357,748,44.671692,26.178262,322,491,Turkish Airlines
2019-2-27 17:28:20,4baa75,THY4LQ  ,10357,748,44.671692,26.178262,322,492,Turkish Airlines
2019-2-27 17:28:20,4baa75,THY4LQ  ,10357,748,44.671692,26.178262,322,493,Turkish Airlines
2019-2-27 17:28:20,4baa75,THY4LQ  ,10357,746,44.671692,26.178262,322,494,Turkish Airlines
2019-2-27 17:28:20,4baa75,THY4LQ  ,10357,746,44.671692,26.178262,322,498,Turkish Airlines
2019-2-27 17:28:20,4baa75,THY4LQ  ,10364,746,44.671692,26.178262,322,501,Turkish Airlines
2019-2-27 17:28:20,4baa75,THY4LQ  ,10364,746,44.671692,26.178262,322,506,Turkish Airlines
2019-2-27 17:28:20,4baa75,THY4LQ  ,10364,746,44.671692,26.178262,322,509,Turkish Airlines
2019-2-27 17:28:20,4baa75,THY4LQ  ,10364,746,44.671692,26.178262,322,518,Turkish Airlines
2019-2-27 17:28:20,4baa75,THY4LQ  ,10364,746,44.671692,26.178262,322,519,Turkish Airlines
2019-2-27 17:30:43,4baa75,THY4LQ  ,10364,746,44.671692,26.178262,322,527,Turkish Airlines
2019-2-27 17:30:43,4baa75,THY4LQ  ,10357,746,44.723373,26.120584,322,529,Turkish Airlines
2019-2-27 17:30:43,4baa75,THY4LQ  ,10364,746,44.723373,26.120584,322,532,Turkish Airlines
2019-2-27 17:30:43,4baa75,THY4LQ  ,10357,746,44.724271,26.119727,322,537,Turkish Airlines
2019-2-27 17:30:43,4baa75,THY4LQ  ,10357,746,44.724271,26.119727,322,542,Turkish Airlines
2019-2-27 17:30:43,4baa75,THY4LQ  ,10357,746,44.724271,26.119727,322,543,Turkish Airlines
2019-2-27 17:30:43,4baa75,THY4LQ  ,10364,746,44.724271,26.119727,322,544,Turkish Airlines
2019-2-27 17:30:43,4baa75,THY4LQ  ,10364,746,44.724271,26.119727,322,545,Turkish Airlines
2019-2-27 17:30:43,4baa75,THY4LQ  ,10357,746,44.727157,26.116445,322,546,Turkish Airlines
2019-2-27 17:30:43,4baa75,THY4LQ  ,10357,744,44.727157,26.116445,322,548,Turkish Airlines
2019-2-27 17:30:43,4baa75,THY4LQ  ,10357,744,44.728500,26.114829,322,560,Turkish Airlines
2019-2-27 17:30:43,4baa75,THY4LQ  ,10357,744,44.728500,26.114829,322,562,Turkish Airlines
2019-2-27 17:30:43,4baa75,THY4LQ  ,10357,744,44.728500,26.114829,322,567,Turkish Airlines
2019-2-27 17:30:43,4baa75,THY4LQ  ,10357,744,44.728500,26.114829,322,570,Turkish Airlines
2019-2-27 17:30:43,4baa75,THY4LQ  ,10357,744,44.740677,26.101488,322,573,Turkish Airlines
2019-2-27 17:30:43,4baa75,THY4LQ  ,10357,744,44.740677,26.101488,322,576,Turkish Airlines
2019-2-27 17:30:43,4baa75,THY4LQ  ,10357,744,44.740677,26.101488,322,578,Turkish Airlines
2019-2-27 17:30:43,4baa75,THY4LQ  ,10357,744,44.740677,26.101488,322,582,Turkish Airlines
2019-2-27 17:30:43,4baa75,THY4LQ  ,10357,742,44.742096,26.099788,322,590,Turkish Airlines
2019-2-27 17:30:43,4baa75,THY4LQ  ,10364,742,44.742096,26.099788,322,599,Turkish Airlines
2019-2-27 17:30:43,4baa75,THY4LQ  ,10364,742,44.742096,26.099788,322,600,Turkish Airlines
2019-2-27 17:31:2,4baa75,THY4LQ  ,10364,742,44.742096,26.099788,322,601,Turkish Airlines
2019-2-27 17:31:2,4baa75,THY4LQ  ,10364,742,44.742096,26.099788,322,602,Turkish Airlines
2019-2-27 17:31:2,4baa75,THY4LQ  ,10364,742,44.742096,26.099788,322,603,Turkish Airlines
2019-2-27 17:31:2,4baa75,THY4LQ  ,10357,742,44.742096,26.099788,322,605,Turkish Airlines
2019-2-27 17:31:2,4baa75,THY4LQ  ,10364,742,44.742096,26.099788,322,606,Turkish Airlines
2019-2-27 17:31:2,4baa75,THY4LQ  ,10357,742,44.742096,26.099788,322,608,Turkish Airlines
2019-2-27 17:31:2,4baa75,THY4LQ  ,10364,742,44.748059,26.093266,322,610,Turkish Airlines
2019-2-27 17:31:2,4baa75,THY4LQ  ,10364,742,44.748059,26.093266,322,612,Turkish Airlines
2019-2-27 17:31:2,4baa75,THY4LQ  ,10357,740,44.748059,26.093266,322,615,Turkish Airlines
2019-2-27 17:31:2,4baa75,THY4LQ  ,10357,740,44.748059,26.093266,322,617,Turkish Airlines
2019-2-27 17:31:2,4baa75,THY4LQ  ,10357,740,44.748059,26.093266,322,625,Turkish Airlines
2019-2-27 17:31:2,4baa75,THY4LQ  ,10357,740,44.748059,26.093266,322,629,Turkish Airlines
2019-2-27 17:31:2,4baa75,THY4LQ  ,10364,740,44.751205,26.089717,322,638,Turkish Airlines
2019-2-27 17:31:2,4baa75,THY4LQ  ,10357,740,44.751205,26.089717,322,642,Turkish Airlines
2019-2-27 17:31:2,4baa75,THY4LQ  ,10357,740,44.751205,26.089717,322,643,Turkish Airlines
2019-2-27 17:31:2,4baa75,THY4LQ  ,10357,740,44.751205,26.089717,322,644,Turkish Airlines
2019-2-27 17:31:2,4baa75,THY4LQ  ,10364,740,44.751205,26.089717,322,647,Turkish Airlines
2019-2-27 17:31:2,4baa75,THY4LQ  ,10364,740,44.751205,26.089717,322,650,Turkish Airlines
2019-2-27 17:31:2,4baa75,THY4LQ  ,10364,740,44.751205,26.089717,322,651,Turkish Airlines
2019-2-27 17:31:2,4baa75,THY4LQ  ,10357,740,44.751205,26.089717,322,653,Turkish Airlines
2019-2-27 17:31:2,4baa75,THY4LQ  ,10364,740,44.751205,26.089717,322,656,Turkish Airlines
2019-2-27 17:31:2,4baa75,THY4LQ  ,10364,740,44.754483,26.086098,322,658,Turkish Airlines
2019-2-27 17:31:2,4baa75,THY4LQ  ,10364,740,44.754483,26.086098,322,659,Turkish Airlines
2019-2-27 17:31:2,4baa75,THY4LQ  ,10357,740,44.754483,26.086098,322,664,Turkish Airlines
2019-2-27 17:31:2,4baa75,THY4LQ  ,10364,740,44.759216,26.081020,322,667,Turkish Airlines
2019-2-27 17:31:2,4baa75,THY4LQ  ,10357,740,44.759216,26.081020,322,671,Turkish Airlines
2019-2-27 17:31:2,4baa75,THY4LQ  ,10364,740,44.759216,26.081020,322,681,Turkish Airlines
2019-2-27 17:31:2,4baa75,THY4LQ  ,10364,740,44.759216,26.081020,322,686,Turkish Airlines
2019-2-27 17:31:2,4baa75,THY4LQ  ,10364,740,44.760861,26.079198,322,689,Turkish Airlines
2019-2-27 17:31:2,4baa75,THY4LQ  ,10364,740,44.760861,26.079198,322,699,Turkish Airlines
2019-2-27 17:31:2,4baa75,THY4LQ  ,10357,740,44.760861,26.079198,322,704,Turkish Airlines
2019-2-27 17:31:2,4baa75,THY4LQ  ,10364,740,44.760861,26.079198,322,708,Turkish Airlines
2019-2-27 17:31:2,4baa75,THY4LQ  ,10364,740,44.762211,26.077524,322,710,Turkish Airlines
2019-2-27 17:31:2,4baa75,THY4LQ  ,10364,740,44.762211,26.077524,322,716,Turkish Airlines
2019-2-27 17:31:2,4baa75,THY4LQ  ,10364,740,44.762211,26.077524,322,721,Turkish Airlines
2019-2-27 17:31:2,4baa75,THY4LQ  ,10364,740,44.762211,26.077524,322,725,Turkish Airlines
2019-2-27 17:31:2,4baa75,THY4LQ  ,10364,740,44.762211,26.077524,322,727,Turkish Airlines
2019-2-27 17:31:2,4baa75,THY4LQ  ,10364,740,44.762211,26.077524,322,728,Turkish Airlines
2019-2-27 17:31:2,4baa75,THY4LQ  ,10364,740,44.762211,26.077524,322,732,Turkish Airlines
2019-2-27 17:31:2,4baa75,THY4LQ  ,10364,740,44.762211,26.077524,322,738,Turkish Airlines
2019-2-27 17:31:2,4baa75,THY4LQ  ,10364,740,44.762211,26.077524,322,742,Turkish Airlines
2019-2-27 17:31:2,4baa75,THY4LQ  ,10364,740,44.762211,26.077524,322,747,Turkish Airlines
2019-2-27 17:31:2,4baa75,THY4LQ  ,10364,740,44.766866,26.072566,322,753,Turkish Airlines
2019-2-27 17:31:2,4baa75,THY4LQ  ,10364,740,44.766866,26.072566,322,758,Turkish Airlines
2019-2-27 17:31:2,4baa75,THY4LQ  ,10364,740,44.766866,26.072566,322,764,Turkish Airlines
2019-2-27 17:31:2,4baa75,THY4LQ  ,10364,738,44.766866,26.072566,322,771,Turkish Airlines
2019-2-27 17:31:2,4baa75,THY4LQ  ,10364,738,44.766866,26.072566,322,773,Turkish Airlines
2019-2-27 17:31:2,4baa75,THY4LQ  ,10364,738,44.766866,26.072566,322,778,Turkish Airlines
2019-2-27 17:31:2,4baa75,THY4LQ  ,10364,738,44.766866,26.072566,322,788,Turkish Airlines
2019-2-27 17:31:2,4baa75,THY4LQ  ,10364,738,44.769562,26.069314,322,793,Turkish Airlines
2019-2-27 17:31:2,4baa75,THY4LQ  ,10364,738,44.769562,26.069314,322,796,Turkish Airlines
2019-2-27 17:31:2,4baa75,THY4LQ  ,10364,738,44.769562,26.069314,322,798,Turkish Airlines
2019-2-27 17:31:2,4baa75,THY4LQ  ,10364,738,44.771289,26.067408,322,802,Turkish Airlines
2019-2-27 17:31:2,4baa75,THY4LQ  ,10364,738,44.771289,26.067408,322,803,Turkish Airlines
2019-2-27 17:31:2,4baa75,THY4LQ  ,10364,738,44.771289,26.067408,322,804,Turkish Airlines
2019-2-27 17:31:2,4baa75,THY4LQ  ,10364,738,44.780692,26.057226,322,805,Turkish Airlines
2019-2-27 17:31:29,4baa75,THY4LQ  ,10364,738,44.780692,26.057226,322,806,Turkish Airlines
2019-2-27 17:31:29,4baa75,THY4LQ  ,10357,738,44.780692,26.057226,322,809,Turkish Airlines
2019-2-27 17:31:29,4baa75,THY4LQ  ,10357,738,44.780692,26.057226,322,810,Turkish Airlines
2019-2-27 17:31:29,4baa75,THY4LQ  ,10357,738,44.780692,26.057226,322,815,Turkish Airlines
2019-2-27 17:31:29,4baa75,THY4LQ  ,10357,738,44.780692,26.057226,322,818,Turkish Airlines
2019-2-27 17:31:29,4baa75,THY4LQ  ,10357,738,44.780692,26.057226,322,823,Turkish Airlines
2019-2-27 17:31:29,4baa75,THY4LQ  ,10357,738,44.780692,26.057226,322,824,Turkish Airlines
2019-2-27 17:31:29,4baa75,THY4LQ  ,10357,738,44.780692,26.057226,322,825,Turkish Airlines
2019-2-27 17:31:29,4baa75,THY4LQ  ,10357,738,44.780692,26.057226,322,827,Turkish Airlines
2019-2-27 17:31:29,4baa75,THY4LQ  ,10357,738,44.780692,26.057226,322,830,Turkish Airlines
2019-2-27 17:31:29,4baa75,THY4LQ  ,10357,738,44.780692,26.057226,322,834,Turkish Airlines
2019-2-27 17:31:29,4baa75,THY4LQ  ,10357,738,44.780692,26.057226,322,835,Turkish Airlines
2019-2-27 17:31:29,4baa75,THY4LQ  ,10357,735,44.780692,26.057226,322,842,Turkish Airlines
2019-2-27 17:31:29,4baa75,THY4LQ  ,10357,735,44.780692,26.057226,322,847,Turkish Airlines
2019-2-27 17:31:29,4baa75,THY4LQ  ,10357,735,44.780692,26.057226,322,848,Turkish Airlines
2019-2-27 17:31:29,4baa75,THY4LQ  ,10357,735,44.780692,26.057226,322,853,Turkish Airlines
2019-2-27 17:31:29,4baa75,THY4LQ  ,10357,735,44.812441,26.021855,322,856,Turkish Airlines
2019-2-27 17:31:29,4baa75,THY4LQ  ,10357,735,44.812441,26.021855,322,864,Turkish Airlines
2019-2-27 17:31:29,4baa75,THY4LQ  ,10357,735,44.812441,26.021855,322,866,Turkish Airlines
2019-2-27 17:32:11,4baa75,THY4LQ  ,10357,735,44.812441,26.021855,322,868,Turkish Airlines
2019-2-27 17:32:11,4baa75,THY4LQ  ,10357,735,44.812441,26.021855,322,869,Turkish Airlines
