2019-2-27 17:20:55,896183,,0,0,0.000000,0.000000,0,2,Unknown
2019-2-27 17:22:12,896183,,0,0,0.000000,0.000000,0,3,Unknown
2019-2-27 17:22:12,896183,,12489,898,0.000000,0.000000,126,5,Unknown
2019-2-27 17:22:12,896183,,12489,898,0.000000,0.000000,126,6,Unknown
2019-2-27 17:22:12,896183,,12489,898,0.000000,0.000000,126,9,Unknown
2019-2-27 17:22:12,896183,,12489,898,0.000000,0.000000,126,10,Unknown
2019-2-27 17:22:12,896183,,12489,898,0.000000,0.000000,126,13,Unknown
2019-2-27 17:22:12,896183,,12489,898,0.000000,0.000000,126,16,Unknown
2019-2-27 17:22:12,896183,,12489,898,0.000000,0.000000,126,18,Unknown
2019-2-27 17:22:12,896183,,12489,898,0.000000,0.000000,126,19,Unknown
2019-2-27 17:22:12,896183,,12489,898,44.324158,25.986720,126,20,Unknown
2019-2-27 17:22:12,896183,,12489,900,44.324158,25.986720,126,25,Unknown
2019-2-27 17:22:12,896183,,12489,900,44.324158,25.986720,126,31,Unknown
2019-2-27 17:22:12,896183,,12489,900,44.324158,25.986720,126,32,Unknown
2019-2-27 17:22:12,896183,,12489,900,44.324158,25.986720,126,34,Unknown
2019-2-27 17:22:12,896183,,12489,900,44.321501,25.991777,126,40,Unknown
2019-2-27 17:22:12,896183,,12489,900,44.321501,25.991777,126,42,Unknown
2019-2-27 17:22:12,896183,,12489,900,44.321501,25.991777,126,43,Unknown
2019-2-27 17:22:12,896183,,12489,900,44.321501,25.991777,126,44,Unknown
2019-2-27 17:22:12,896183,,12489,900,44.321501,25.991777,126,45,Unknown
2019-2-27 17:22:12,896183,,12489,900,44.321501,25.991777,126,48,Unknown
2019-2-27 17:22:12,896183,,12489,900,44.321501,25.991777,126,50,Unknown
2019-2-27 17:22:12,896183,,12489,900,44.321501,25.991777,126,54,Unknown
2019-2-27 17:22:12,896183,,12489,900,44.314891,26.004237,126,63,Unknown
2019-2-27 17:22:12,896183,,12489,900,44.314891,26.004237,126,71,Unknown
2019-2-27 17:22:12,896183,,12489,900,44.314891,26.004237,126,73,Unknown
2019-2-27 17:22:12,896183,,12489,900,44.313629,26.006601,126,76,Unknown
2019-2-27 17:22:12,896183,,12489,900,44.313629,26.006601,126,79,Unknown
2019-2-27 17:22:12,896183,,12489,900,44.313629,26.006601,126,82,Unknown
2019-2-27 17:22:12,896183,,12489,900,44.312237,26.009194,126,89,Unknown
2019-2-27 17:22:12,896183,UAE54J  ,12489,900,44.312237,26.009194,126,97,Emirates Airlines
2019-2-27 17:22:12,896183,UAE54J  ,12489,900,44.312237,26.009194,126,98,Emirates Airlines
2019-2-27 17:22:12,896183,UAE54J  ,12489,900,44.312237,26.009194,126,99,Emirates Airlines
2019-2-27 17:22:12,896183,UAE54J  ,12489,900,44.312237,26.009194,126,102,Emirates Airlines
2019-2-27 17:22:12,896183,UAE54J  ,12489,900,44.312237,26.009194,126,103,Emirates Airlines
2019-2-27 17:22:12,896183,UAE54J  ,12489,900,44.312237,26.009194,126,104,Emirates Airlines
2019-2-27 17:22:53,896183,UAE54J  ,12489,900,44.312237,26.009194,126,106,Emirates Airlines
2019-2-27 17:22:53,896183,UAE54J  ,12489,900,44.306808,26.019483,126,107,Emirates Airlines
2019-2-27 17:22:53,896183,UAE54J  ,12489,900,44.298923,26.034382,126,113,Emirates Airlines
2019-2-27 17:22:53,896183,UAE54J  ,12489,900,44.298923,26.034382,126,115,Emirates Airlines
2019-2-27 17:22:53,896183,UAE54J  ,12489,900,44.298923,26.034382,126,117,Emirates Airlines
2019-2-27 17:22:53,896183,UAE54J  ,12489,900,44.298923,26.034382,126,119,Emirates Airlines
2019-2-27 17:22:53,896183,UAE54J  ,12489,900,44.298923,26.034382,126,120,Emirates Airlines
2019-2-27 17:22:53,896183,UAE54J  ,12489,900,44.298923,26.034382,126,124,Emirates Airlines
2019-2-27 17:22:53,896183,UAE54J  ,12489,900,44.298923,26.034382,126,127,Emirates Airlines
2019-2-27 17:22:53,896183,UAE54J  ,12489,900,44.298923,26.034382,126,129,Emirates Airlines
2019-2-27 17:22:53,896183,UAE54J  ,12489,900,44.298923,26.034382,126,130,Emirates Airlines
2019-2-27 17:22:53,896183,UAE54J  ,12489,900,44.298923,26.034382,126,131,Emirates Airlines
2019-2-27 17:22:53,896183,UAE54J  ,12489,900,44.286026,26.058786,126,137,Emirates Airlines
2019-2-27 17:22:53,896183,UAE54J  ,12489,900,44.286026,26.058786,126,140,Emirates Airlines
2019-2-27 17:22:53,896183,UAE54J  ,12489,900,44.286026,26.058786,126,142,Emirates Airlines
2019-2-27 17:22:53,896183,UAE54J  ,12489,905,44.286026,26.058786,126,151,Emirates Airlines
2019-2-27 17:22:53,896183,UAE54J  ,12489,905,44.286026,26.058786,126,152,Emirates Airlines
2019-2-27 17:22:53,896183,UAE54J  ,12489,905,44.283468,26.063590,126,153,Emirates Airlines
2019-2-27 17:22:53,896183,UAE54J  ,12489,905,44.283468,26.063590,126,154,Emirates Airlines
2019-2-27 17:22:53,896183,UAE54J  ,12489,905,44.283468,26.063590,126,156,Emirates Airlines
2019-2-27 17:22:53,896183,UAE54J  ,12489,905,44.283468,26.063590,126,157,Emirates Airlines
2019-2-27 17:22:53,896183,UAE54J  ,12489,907,44.283468,26.063590,126,160,Emirates Airlines
2019-2-27 17:22:53,896183,UAE54J  ,12489,907,44.283468,26.063590,126,163,Emirates Airlines
2019-2-27 17:22:53,896183,UAE54J  ,12489,907,44.283468,26.063590,126,165,Emirates Airlines
2019-2-27 17:22:53,896183,UAE54J  ,12489,907,44.283468,26.063590,126,167,Emirates Airlines
2019-2-27 17:22:53,896183,UAE54J  ,12489,907,44.283468,26.063590,126,168,Emirates Airlines
2019-2-27 17:22:53,896183,UAE54J  ,12489,907,44.283468,26.063590,126,171,Emirates Airlines
2019-2-27 17:22:53,896183,UAE54J  ,12489,907,44.283468,26.063590,126,173,Emirates Airlines
2019-2-27 17:22:53,896183,UAE54J  ,12489,907,44.283468,26.063590,126,174,Emirates Airlines
2019-2-27 17:22:53,896183,UAE54J  ,12489,907,44.283468,26.063590,126,175,Emirates Airlines
2019-2-27 17:22:53,896183,UAE54J  ,12489,907,44.283468,26.063590,126,178,Emirates Airlines
2019-2-27 17:22:53,896183,UAE54J  ,12489,907,44.221802,26.179831,126,179,Emirates Airlines
2019-2-27 17:22:53,896183,UAE54J  ,12489,916,44.221802,26.179831,126,180,Emirates Airlines
2019-2-27 17:22:53,896183,UAE54J  ,12489,916,44.220520,26.182251,126,182,Emirates Airlines
2019-2-27 17:22:53,896183,UAE54J  ,12489,916,44.220520,26.182251,126,183,Emirates Airlines
2019-2-27 17:22:53,896183,UAE54J  ,12489,916,44.219086,26.184908,126,184,Emirates Airlines
2019-2-27 17:22:53,896183,UAE54J  ,12489,916,44.208891,26.204134,126,185,Emirates Airlines
2019-2-27 17:22:53,896183,UAE54J  ,12489,916,44.208891,26.204134,126,190,Emirates Airlines
2019-2-27 17:22:53,896183,UAE54J  ,12489,916,44.208891,26.204134,126,194,Emirates Airlines
2019-2-27 17:22:53,896183,UAE54J  ,12489,916,44.208891,26.204134,126,196,Emirates Airlines
2019-2-27 17:22:53,896183,UAE54J  ,12489,916,44.208891,26.204134,126,197,Emirates Airlines
2019-2-27 17:22:53,896183,UAE54J  ,12489,916,44.208891,26.204134,126,201,Emirates Airlines
2019-2-27 17:22:53,896183,UAE54J  ,12489,916,44.208891,26.204134,126,204,Emirates Airlines
2019-2-27 17:22:53,896183,UAE54J  ,12489,916,44.208891,26.204134,126,205,Emirates Airlines
2019-2-27 17:22:53,896183,UAE54J  ,12489,916,44.208891,26.204134,126,207,Emirates Airlines
2019-2-27 17:22:53,896183,UAE54J  ,12489,916,44.208891,26.204134,126,210,Emirates Airlines
2019-2-27 17:22:53,896183,UAE54J  ,12489,918,44.199417,26.221880,126,215,Emirates Airlines
2019-2-27 17:22:53,896183,UAE54J  ,12489,918,44.199417,26.221880,126,216,Emirates Airlines
2019-2-27 17:22:53,896183,UAE54J  ,12489,918,44.199417,26.221880,126,220,Emirates Airlines
2019-2-27 17:22:53,896183,UAE54J  ,12489,918,44.199417,26.221880,126,222,Emirates Airlines
2019-2-27 17:22:53,896183,UAE54J  ,12489,918,44.199417,26.221880,126,230,Emirates Airlines
2019-2-27 17:22:53,896183,UAE54J  ,12489,918,44.199417,26.221880,126,231,Emirates Airlines
2019-2-27 17:22:53,896183,UAE54J  ,12489,918,44.199417,26.221880,126,232,Emirates Airlines
2019-2-27 17:24:19,896183,UAE54J  ,12489,918,44.199417,26.221880,126,233,Emirates Airlines
2019-2-27 17:24:19,896183,UAE54J  ,12489,918,44.199417,26.221880,126,236,Emirates Airlines
2019-2-27 17:24:19,896183,UAE54J  ,12489,918,44.199417,26.221880,126,237,Emirates Airlines
2019-2-27 17:24:19,896183,UAE54J  ,12489,918,44.180649,26.257069,126,238,Emirates Airlines
