2019-2-27 15:11:55,4ba954,,0,0,0.000000,0.000000,0,1,Unknown
2019-2-27 15:11:55,4ba954,,9138,831,0.000000,0.000000,322,3,Unknown
2019-2-27 15:12:19,4ba954,,9138,831,0.000000,0.000000,322,5,Unknown
2019-2-27 15:12:19,4ba954,,9138,831,44.372726,26.521127,322,7,Unknown
2019-2-27 15:12:19,4ba954,,9138,831,44.372726,26.521127,322,10,Unknown
2019-2-27 15:12:19,4ba954,,9138,831,44.376022,26.517596,322,12,Unknown
2019-2-27 15:12:19,4ba954,,9138,831,44.376022,26.517596,322,13,Unknown
2019-2-27 15:12:19,4ba954,,9138,831,44.376022,26.517596,322,14,Unknown
2019-2-27 15:12:19,4ba954,,9138,831,44.376022,26.517596,322,15,Unknown
2019-2-27 15:12:19,4ba954,,9138,831,44.376022,26.517596,322,16,Unknown
2019-2-27 15:12:19,4ba954,,9138,831,44.376022,26.517596,322,17,Unknown
2019-2-27 15:12:19,4ba954,,9138,831,44.376022,26.517596,322,19,Unknown
2019-2-27 15:12:19,4ba954,,9138,831,44.376022,26.517596,322,20,Unknown
2019-2-27 15:12:19,4ba954,,9138,831,44.376022,26.517596,322,21,Unknown
2019-2-27 15:12:19,4ba954,,9130,833,44.376022,26.517596,322,23,Unknown
2019-2-27 15:12:19,4ba954,,9130,833,44.376022,26.517596,322,27,Unknown
2019-2-27 15:12:19,4ba954,,9130,833,44.376022,26.517596,322,28,Unknown
2019-2-27 15:12:19,4ba954,,9130,833,44.376022,26.517596,322,29,Unknown
2019-2-27 15:12:19,4ba954,,9130,833,44.376022,26.517596,322,30,Unknown
2019-2-27 15:12:19,4ba954,,9138,833,44.376022,26.517596,322,33,Unknown
2019-2-27 15:12:19,4ba954,,9138,833,44.376022,26.517596,322,36,Unknown
2019-2-27 15:12:19,4ba954,,9138,833,44.376022,26.517596,322,43,Unknown
2019-2-27 15:12:19,4ba954,,9138,833,44.376022,26.517596,322,44,Unknown
2019-2-27 15:12:19,4ba954,,9138,833,44.376022,26.517596,322,45,Unknown
2019-2-27 15:12:19,4ba954,,9138,833,44.376022,26.517596,322,47,Unknown
2019-2-27 15:12:19,4ba954,,9138,833,44.376022,26.517596,322,53,Unknown
2019-2-27 15:12:19,4ba954,,9138,833,44.376022,26.517596,322,54,Unknown
2019-2-27 15:12:19,4ba954,,9138,837,44.376022,26.517596,322,57,Unknown
2019-2-27 15:12:19,4ba954,,9138,837,44.376022,26.517596,322,58,Unknown
2019-2-27 15:12:19,4ba954,,9138,837,44.376022,26.517596,322,60,Unknown
2019-2-27 15:12:19,4ba954,,9138,837,44.376022,26.517596,322,61,Unknown
2019-2-27 15:12:19,4ba954,,9138,837,44.500541,26.380987,322,64,Unknown
2019-2-27 15:13:42,4ba954,,9138,837,44.500541,26.380987,322,65,Unknown
2019-2-27 15:13:42,4ba954,,9138,837,44.500541,26.380987,322,66,Unknown
2019-2-27 15:13:42,4ba954,,9130,837,44.500541,26.380987,322,70,Unknown
2019-2-27 15:13:42,4ba954,,9130,837,44.500541,26.380987,322,74,Unknown
2019-2-27 15:13:42,4ba954,,9130,837,44.500541,26.380987,322,79,Unknown
2019-2-27 15:13:42,4ba954,,9138,837,44.610311,26.262817,322,86,Unknown
2019-2-27 15:13:42,4ba954,,9138,837,44.610311,26.262817,322,87,Unknown
2019-2-27 15:13:42,4ba954,,9130,837,44.610311,26.262817,322,91,Unknown
2019-2-27 15:13:42,4ba954,,9130,837,44.610311,26.262817,322,93,Unknown
2019-2-27 15:13:42,4ba954,,9130,837,44.610311,26.262817,322,95,Unknown
2019-2-27 15:13:42,4ba954,,9130,837,44.610311,26.262817,322,102,Unknown
2019-2-27 15:13:42,4ba954,,9130,837,44.610311,26.262817,322,105,Unknown
2019-2-27 15:13:42,4ba954,,9130,837,44.610311,26.262817,322,107,Unknown
2019-2-27 15:13:42,4ba954,,9130,837,44.610311,26.262817,322,116,Unknown
2019-2-27 15:13:42,4ba954,,9130,837,44.610311,26.262817,322,117,Unknown
2019-2-27 15:13:42,4ba954,,9130,837,44.610311,26.262817,322,119,Unknown
2019-2-27 15:13:42,4ba954,,9130,837,44.616968,26.255850,322,121,Unknown
2019-2-27 15:13:42,4ba954,,9130,837,44.616968,26.255850,322,122,Unknown
2019-2-27 15:13:42,4ba954,,9130,837,44.616968,26.255850,322,125,Unknown
2019-2-27 15:13:42,4ba954,,9130,837,44.616968,26.255850,322,130,Unknown
2019-2-27 15:13:42,4ba954,,9130,837,44.616968,26.255850,322,134,Unknown
2019-2-27 15:13:42,4ba954,,9130,837,44.616968,26.255850,322,135,Unknown
2019-2-27 15:13:42,4ba954,,9130,837,44.616968,26.255850,322,144,Unknown
2019-2-27 15:13:42,4ba954,,9130,837,44.616968,26.255850,322,151,Unknown
2019-2-27 15:13:42,4ba954,,9130,837,44.616968,26.255850,322,153,Unknown
2019-2-27 15:13:42,4ba954,,9130,837,44.616968,26.255850,322,154,Unknown
2019-2-27 15:13:42,4ba954,,9130,835,44.616968,26.255850,324,157,Unknown
2019-2-27 15:13:42,4ba954,,9130,835,44.616968,26.255850,324,158,Unknown
2019-2-27 15:13:42,4ba954,,9130,835,44.616968,26.255850,324,163,Unknown
2019-2-27 15:13:42,4ba954,,9130,835,44.630493,26.241760,324,172,Unknown
2019-2-27 15:13:42,4ba954,,9130,835,44.630493,26.241760,324,173,Unknown
2019-2-27 15:13:42,4ba954,,9130,835,44.630493,26.241760,324,175,Unknown
2019-2-27 15:13:42,4ba954,,9130,835,44.630493,26.241760,324,177,Unknown
2019-2-27 15:13:42,4ba954,,9130,835,44.630493,26.241760,324,178,Unknown
2019-2-27 15:13:42,4ba954,,9130,835,44.630493,26.241760,324,179,Unknown
2019-2-27 15:13:42,4ba954,,9138,835,44.630493,26.241760,324,181,Unknown
2019-2-27 15:13:42,4ba954,,9138,837,44.630493,26.241760,324,182,Unknown
2019-2-27 15:13:42,4ba954,,9138,837,44.630493,26.241760,324,184,Unknown
2019-2-27 15:13:42,4ba954,,9138,837,44.630493,26.241760,324,187,Unknown
2019-2-27 15:13:42,4ba954,,9138,837,44.630493,26.241760,324,191,Unknown
2019-2-27 15:13:42,4ba954,,9130,837,44.630493,26.241760,324,193,Unknown
2019-2-27 15:13:42,4ba954,,9138,837,44.630493,26.241760,324,195,Unknown
2019-2-27 15:13:42,4ba954,,9130,837,44.630493,26.241760,324,196,Unknown
2019-2-27 15:13:42,4ba954,,9138,837,44.630493,26.241760,324,203,Unknown
2019-2-27 15:13:42,4ba954,,9138,837,44.630493,26.241760,324,205,Unknown
2019-2-27 15:13:42,4ba954,,9138,837,44.630493,26.241760,324,208,Unknown
2019-2-27 15:13:42,4ba954,,9138,837,44.630493,26.241760,323,209,Unknown
2019-2-27 15:13:42,4ba954,,9138,837,44.630493,26.241760,323,216,Unknown
2019-2-27 15:13:42,4ba954,,9138,837,44.630493,26.241760,323,217,Unknown
2019-2-27 15:13:42,4ba954,,9138,837,44.630493,26.241760,323,218,Unknown
2019-2-27 15:13:42,4ba954,,9138,837,44.630493,26.241760,323,219,Unknown
2019-2-27 15:13:42,4ba954,,9138,837,44.630493,26.241760,323,220,Unknown
2019-2-27 15:15:56,4ba954,THY5    ,9138,837,44.630493,26.241760,323,222,Turkish Airlines
2019-2-27 15:15:56,4ba954,THY5    ,9138,837,44.630493,26.241760,323,223,Turkish Airlines
2019-2-27 15:15:56,4ba954,THY5    ,9138,837,44.630493,26.241760,323,228,Turkish Airlines
2019-2-27 15:15:56,4ba954,THY5    ,9138,837,44.630493,26.241760,323,229,Turkish Airlines
2019-2-27 15:15:56,4ba954,THY5    ,9138,837,44.630493,26.241760,323,232,Turkish Airlines
2019-2-27 15:15:56,4ba954,THY5    ,9138,837,44.630493,26.241760,323,233,Turkish Airlines
2019-2-27 15:15:56,4ba954,THY5    ,9138,837,44.630493,26.241760,323,237,Turkish Airlines
2019-2-27 15:15:56,4ba954,THY5    ,9130,837,44.630493,26.241760,323,243,Turkish Airlines
2019-2-27 15:15:56,4ba954,THY5    ,9138,837,44.630493,26.241760,323,249,Turkish Airlines
2019-2-27 15:15:56,4ba954,THY5    ,9138,837,44.630493,26.241760,323,251,Turkish Airlines
2019-2-27 15:15:56,4ba954,THY5    ,9138,837,44.630493,26.241760,323,253,Turkish Airlines
2019-2-27 15:15:56,4ba954,THY5    ,9138,837,44.630493,26.241760,323,259,Turkish Airlines
2019-2-27 15:15:56,4ba954,THY5    ,9138,837,44.630493,26.241760,323,262,Turkish Airlines
2019-2-27 15:15:56,4ba954,THY5    ,9138,837,44.630493,26.241760,323,269,Turkish Airlines
2019-2-27 15:15:56,4ba954,THY5    ,9138,837,44.630493,26.241760,323,272,Turkish Airlines
2019-2-27 15:15:56,4ba954,THY5    ,9130,837,44.630493,26.241760,323,277,Turkish Airlines
2019-2-27 15:15:56,4ba954,THY5    ,9138,837,44.630493,26.241760,323,280,Turkish Airlines
2019-2-27 15:15:56,4ba954,THY5    ,9130,837,44.630493,26.241760,323,287,Turkish Airlines
2019-2-27 15:15:56,4ba954,THY5    ,9138,837,44.630493,26.241760,323,288,Turkish Airlines
2019-2-27 15:15:56,4ba954,THY5    ,9138,837,44.630493,26.241760,323,289,Turkish Airlines
2019-2-27 15:15:56,4ba954,THY5    ,9138,838,44.742287,26.124015,323,299,Turkish Airlines
2019-2-27 15:15:56,4ba954,THY5    ,9138,838,44.742287,26.124015,323,300,Turkish Airlines
2019-2-27 15:15:56,4ba954,THY5    ,9130,838,44.743790,26.122415,323,305,Turkish Airlines
2019-2-27 15:15:56,4ba954,THY5    ,9130,838,44.743790,26.122415,323,312,Turkish Airlines
2019-2-27 15:15:56,4ba954,THY5    ,9130,838,44.743790,26.122415,323,318,Turkish Airlines
2019-2-27 15:15:56,4ba954,THY5    ,9138,838,44.743790,26.122415,323,319,Turkish Airlines
2019-2-27 15:15:56,4ba954,THY5    ,9138,838,44.745117,26.120976,323,323,Turkish Airlines
2019-2-27 15:15:56,4ba954,THY5    ,9138,838,44.745117,26.120976,323,326,Turkish Airlines
2019-2-27 15:15:56,4ba954,THY5    ,9138,838,44.745117,26.120976,323,328,Turkish Airlines
2019-2-27 15:15:56,4ba954,THY5    ,9130,838,44.745117,26.120976,323,329,Turkish Airlines
2019-2-27 15:15:56,4ba954,THY5    ,9130,838,44.745117,26.120976,323,332,Turkish Airlines
2019-2-27 15:15:56,4ba954,THY5    ,9130,838,44.745117,26.120976,323,333,Turkish Airlines
2019-2-27 15:15:56,4ba954,THY5    ,9130,838,44.748245,26.117650,323,338,Turkish Airlines
2019-2-27 15:15:56,4ba954,THY5    ,9130,838,44.748245,26.117650,323,341,Turkish Airlines
2019-2-27 15:15:56,4ba954,THY5    ,9130,838,44.748245,26.117650,323,345,Turkish Airlines
2019-2-27 15:15:56,4ba954,THY5    ,9138,838,44.748245,26.117650,323,348,Turkish Airlines
2019-2-27 15:15:56,4ba954,THY5    ,9130,838,44.748245,26.117650,323,354,Turkish Airlines
2019-2-27 15:15:56,4ba954,THY5    ,9130,838,44.748245,26.117650,323,355,Turkish Airlines
2019-2-27 15:15:56,4ba954,THY5    ,9130,838,44.748245,26.117650,323,356,Turkish Airlines
2019-2-27 15:15:56,4ba954,THY5    ,9130,838,44.748245,26.117650,323,360,Turkish Airlines
2019-2-27 15:15:56,4ba954,THY5    ,9130,838,44.748245,26.117650,323,361,Turkish Airlines
2019-2-27 15:15:56,4ba954,THY5    ,9130,838,44.748245,26.117650,323,370,Turkish Airlines
2019-2-27 15:15:56,4ba954,THY5    ,9130,838,44.748245,26.117650,323,371,Turkish Airlines
2019-2-27 15:15:56,4ba954,THY5    ,9130,838,44.754902,26.110550,323,374,Turkish Airlines
2019-2-27 15:15:56,4ba954,THY5    ,9130,838,44.754902,26.110550,323,378,Turkish Airlines
2019-2-27 15:15:56,4ba954,THY5    ,9130,838,44.754902,26.110550,323,382,Turkish Airlines
2019-2-27 15:15:56,4ba954,THY5    ,9130,838,44.754902,26.110550,323,386,Turkish Airlines
2019-2-27 15:15:56,4ba954,THY5    ,9130,838,44.754902,26.110550,323,389,Turkish Airlines
2019-2-27 15:15:56,4ba954,THY5    ,9130,838,44.756904,26.108406,323,391,Turkish Airlines
2019-2-27 15:15:56,4ba954,THY5    ,9130,838,44.756904,26.108406,323,397,Turkish Airlines
2019-2-27 15:15:56,4ba954,THY5    ,9130,838,44.756904,26.108406,323,404,Turkish Airlines
2019-2-27 15:15:56,4ba954,THY5    ,9130,838,44.756904,26.108406,323,408,Turkish Airlines
2019-2-27 15:15:56,4ba954,THY5    ,9130,838,44.756904,26.108406,323,410,Turkish Airlines
2019-2-27 15:15:56,4ba954,THY5    ,9130,838,44.756904,26.108406,323,413,Turkish Airlines
2019-2-27 15:15:56,4ba954,THY5    ,9130,838,44.756904,26.108406,323,415,Turkish Airlines
2019-2-27 15:15:56,4ba954,THY5    ,9130,838,44.756904,26.108406,323,420,Turkish Airlines
2019-2-27 15:15:56,4ba954,THY5    ,9130,838,44.756904,26.108406,323,421,Turkish Airlines
2019-2-27 15:15:56,4ba954,THY5    ,9130,838,44.756904,26.108406,323,423,Turkish Airlines
2019-2-27 15:15:56,4ba954,THY5    ,9130,838,44.756904,26.108406,323,424,Turkish Airlines
2019-2-27 15:15:56,4ba954,THY5    ,9130,838,44.756904,26.108406,323,426,Turkish Airlines
2019-2-27 15:15:56,4ba954,THY5    ,9130,838,44.756904,26.108406,323,427,Turkish Airlines
2019-2-27 15:15:56,4ba954,THY5    ,9130,838,44.756904,26.108406,323,428,Turkish Airlines
2019-2-27 15:15:56,4ba954,THY5    ,9130,838,44.756904,26.108406,323,433,Turkish Airlines
2019-2-27 15:15:56,4ba954,THY5    ,9130,838,44.756904,26.108406,323,434,Turkish Airlines
2019-2-27 15:15:56,4ba954,THY5    ,9130,838,44.756904,26.108406,323,435,Turkish Airlines
2019-2-27 15:15:56,4ba954,THY5    ,9130,838,44.756904,26.108406,323,438,Turkish Airlines
2019-2-27 15:15:56,4ba954,THY5    ,9130,838,44.756904,26.108406,323,443,Turkish Airlines
2019-2-27 15:15:56,4ba954,THY5    ,9130,838,44.756904,26.108406,323,452,Turkish Airlines
2019-2-27 15:15:56,4ba954,THY5    ,9130,838,44.756904,26.108406,323,458,Turkish Airlines
2019-2-27 15:15:56,4ba954,THY5    ,9130,838,44.756904,26.108406,323,461,Turkish Airlines
2019-2-27 15:15:56,4ba954,THY5    ,9130,838,44.756904,26.108406,323,463,Turkish Airlines
2019-2-27 15:15:56,4ba954,THY5    ,9130,838,44.756904,26.108406,323,469,Turkish Airlines
2019-2-27 15:15:56,4ba954,THY5    ,9130,838,44.756904,26.108406,323,471,Turkish Airlines
2019-2-27 15:15:56,4ba954,THY5    ,9138,838,44.783157,26.080366,323,475,Turkish Airlines
2019-2-27 15:15:56,4ba954,THY5    ,9130,838,44.783157,26.080366,323,480,Turkish Airlines
2019-2-27 15:15:56,4ba954,THY5    ,9130,838,44.783157,26.080366,323,483,Turkish Airlines
