2019-3-2 21:40:42,4892c1,,0,866,0.000000,0.000000,137,1,Unknown
2019-3-2 21:40:42,4892c1,,11270,866,0.000000,0.000000,137,2,Unknown
2019-3-2 21:40:42,4892c1,,11270,866,0.000000,0.000000,137,3,Unknown
2019-3-2 21:41:46,4892c1,,11270,866,0.000000,0.000000,137,4,Unknown
