2019-3-3 0:21:30,3991e7,,0,0,0.000000,0.000000,0,1,Unknown
2019-3-3 0:21:30,3991e7,,1591,0,0.000000,0.000000,0,2,Unknown
2019-3-3 0:21:30,3991e7,,1576,0,0.000000,0.000000,0,3,Unknown
2019-3-3 0:21:30,3991e7,,1576,0,0.000000,0.000000,0,4,Unknown
2019-3-3 0:21:30,3991e7,,1576,0,0.000000,0.000000,0,5,Unknown
2019-3-3 0:22:11,3991e7,,1347,0,0.000000,0.000000,0,6,Unknown
2019-3-3 0:22:11,3991e7,,1347,0,0.000000,0.000000,0,7,Unknown
2019-3-3 0:22:11,3991e7,,1332,0,0.000000,0.000000,0,9,Unknown
2019-3-3 0:22:11,3991e7,,1332,0,0.000000,0.000000,0,10,Unknown
2019-3-3 0:22:11,3991e7,,1325,505,0.000000,0.000000,114,13,Unknown
2019-3-3 0:22:11,3991e7,,1325,505,0.000000,0.000000,114,14,Unknown
2019-3-3 0:22:11,3991e7,,1317,505,0.000000,0.000000,114,16,Unknown
2019-3-3 0:22:11,3991e7,,1302,505,0.000000,0.000000,114,17,Unknown
2019-3-3 0:22:11,3991e7,AFR87AT ,1302,505,0.000000,0.000000,114,21,Air France
2019-3-3 0:22:11,3991e7,AFR87AT ,1302,503,44.583984,25.708596,114,23,Air France
2019-3-3 0:22:11,3991e7,AFR87AT ,1302,503,44.583984,25.708596,114,24,Air France
2019-3-3 0:22:11,3991e7,AFR87AT ,1287,503,44.582706,25.712630,114,25,Air France
2019-3-3 0:22:34,3991e7,AFR87AT ,1287,503,44.582706,25.712630,114,26,Air France
2019-3-3 0:22:34,3991e7,AFR87AT ,1271,501,44.581329,25.716902,114,28,Air France
2019-3-3 0:22:34,3991e7,AFR87AT ,1264,501,44.580643,25.718994,114,29,Air France
2019-3-3 0:22:34,3991e7,AFR87AT ,1264,501,44.580643,25.718994,114,30,Air France
2019-3-3 0:22:34,3991e7,AFR87AT ,1264,500,44.580643,25.718994,114,31,Air France
2019-3-3 0:22:34,3991e7,AFR87AT ,1264,500,44.580643,25.718994,114,32,Air France
2019-3-3 0:22:34,3991e7,AFR87AT ,1256,500,44.580643,25.718994,114,33,Air France
2019-3-3 0:22:34,3991e7,AFR87AT ,1256,500,44.580643,25.718994,114,34,Air France
2019-3-3 0:22:34,3991e7,AFR87AT ,1256,500,44.579773,25.721675,114,35,Air France
2019-3-3 0:22:34,3991e7,AFR87AT ,1248,500,44.579773,25.721675,114,36,Air France
2019-3-3 0:22:34,3991e7,AFR87AT ,1248,500,44.578795,25.724688,114,37,Air France
2019-3-3 0:22:34,3991e7,AFR87AT ,1248,500,44.578609,25.725291,114,39,Air France
2019-3-3 0:22:34,3991e7,AFR87AT ,1233,500,44.578609,25.725291,114,41,Air France
2019-3-3 0:22:34,3991e7,AFR87AT ,1233,500,44.578609,25.725291,114,42,Air France
2019-3-3 0:22:34,3991e7,AFR87AT ,1226,500,44.578609,25.725291,114,43,Air France
2019-3-3 0:22:34,3991e7,AFR87AT ,1210,500,44.578609,25.725291,114,47,Air France
2019-3-3 0:22:34,3991e7,AFR87AT ,1203,490,44.575607,25.734493,114,55,Air France
2019-3-3 0:22:34,3991e7,AFR87AT ,1195,490,44.575025,25.736211,114,59,Air France
2019-3-3 0:22:34,3991e7,AFR87AT ,1195,490,44.574745,25.737148,114,62,Air France
2019-3-3 0:22:34,3991e7,AFR87AT ,1188,490,44.574745,25.737148,114,68,Air France
2019-3-3 0:22:34,3991e7,AFR87AT ,1188,490,44.574745,25.737148,114,69,Air France
2019-3-3 0:22:34,3991e7,AFR87AT ,1188,490,44.574745,25.737148,114,71,Air France
2019-3-3 0:22:34,3991e7,AFR87AT ,1180,488,44.574047,25.739359,114,74,Air France
2019-3-3 0:22:34,3991e7,AFR87AT ,1172,488,44.574047,25.739359,114,77,Air France
2019-3-3 0:22:34,3991e7,AFR87AT ,1172,488,44.574047,25.739359,114,79,Air France
2019-3-3 0:22:34,3991e7,AFR87AT ,1165,488,44.574047,25.739359,114,83,Air France
2019-3-3 0:22:34,3991e7,AFR87AT ,1165,490,44.574047,25.739359,114,85,Air France
2019-3-3 0:22:34,3991e7,AFR87AT ,1165,490,44.574047,25.739359,114,86,Air France
2019-3-3 0:22:34,3991e7,AFR87AT ,1157,490,44.574047,25.739359,114,87,Air France
2019-3-3 0:22:34,3991e7,AFR87AT ,1157,490,44.574047,25.739359,114,91,Air France
2019-3-3 0:22:34,3991e7,AFR87AT ,1157,488,44.572930,25.742709,114,94,Air France
2019-3-3 0:22:34,3991e7,AFR87AT ,1149,490,44.572557,25.743847,114,99,Air France
2019-3-3 0:22:34,3991e7,AFR87AT ,1149,490,44.572557,25.743847,114,104,Air France
2019-3-3 0:22:34,3991e7,AFR87AT ,1142,490,44.572325,25.744517,114,106,Air France
2019-3-3 0:22:34,3991e7,AFR87AT ,1142,490,44.572325,25.744517,114,107,Air France
2019-3-3 0:22:34,3991e7,AFR87AT ,1134,490,44.572325,25.744517,114,109,Air France
2019-3-3 0:22:34,3991e7,AFR87AT ,1134,490,44.571859,25.745924,114,111,Air France
2019-3-3 0:22:34,3991e7,AFR87AT ,1134,490,44.571859,25.745924,114,112,Air France
2019-3-3 0:22:34,3991e7,AFR87AT ,1127,490,44.571859,25.745924,114,116,Air France
2019-3-3 0:22:34,3991e7,AFR87AT ,1127,490,44.571396,25.747441,114,119,Air France
2019-3-3 0:22:34,3991e7,AFR87AT ,1127,490,44.571396,25.747441,114,120,Air France
2019-3-3 0:22:34,3991e7,AFR87AT ,1119,490,44.570847,25.749141,114,122,Air France
2019-3-3 0:22:34,3991e7,AFR87AT ,1119,490,44.570847,25.749141,114,123,Air France
2019-3-3 0:22:34,3991e7,AFR87AT ,1119,490,44.570847,25.749141,114,124,Air France
2019-3-3 0:22:34,3991e7,AFR87AT ,1111,490,44.570369,25.750546,114,125,Air France
2019-3-3 0:22:34,3991e7,AFR87AT ,1111,490,44.570369,25.750546,114,127,Air France
2019-3-3 0:22:34,3991e7,AFR87AT ,1111,490,44.570369,25.750546,114,130,Air France
2019-3-3 0:22:34,3991e7,AFR87AT ,1104,490,44.570369,25.750546,114,133,Air France
2019-3-3 0:22:34,3991e7,AFR87AT ,1104,490,44.570369,25.750546,114,134,Air France
2019-3-3 0:22:34,3991e7,AFR87AT ,1104,490,44.569702,25.752476,114,140,Air France
2019-3-3 0:22:34,3991e7,AFR87AT ,1104,490,44.569702,25.752476,114,142,Air France
2019-3-3 0:23:0,3991e7,AFR87AT ,1104,490,44.569702,25.752476,114,143,Air France
2019-3-3 0:23:0,3991e7,AFR87AT ,1028,490,44.569702,25.752476,114,145,Air France
2019-3-3 0:23:0,3991e7,AFR87AT ,1028,490,44.569702,25.752476,114,147,Air France
2019-3-3 0:23:0,3991e7,AFR87AT ,1028,490,44.569702,25.752476,114,148,Air France
2019-3-3 0:23:0,3991e7,AFR87AT ,1028,490,44.569702,25.752476,114,149,Air France
2019-3-3 0:23:0,3991e7,AFR87AT ,1012,490,44.569702,25.752476,114,150,Air France
2019-3-3 0:23:0,3991e7,AFR87AT ,1012,488,44.563433,25.771313,115,152,Air France
2019-3-3 0:23:0,3991e7,AFR87AT ,1005,488,44.563019,25.772618,114,155,Air France
2019-3-3 0:23:0,3991e7,AFR87AT ,1005,488,44.563019,25.772618,114,158,Air France
2019-3-3 0:23:0,3991e7,AFR87AT ,1005,488,44.563019,25.772618,114,159,Air France
2019-3-3 0:23:0,3991e7,AFR87AT ,1005,488,44.563019,25.772618,114,160,Air France
2019-3-3 0:23:0,3991e7,AFR87AT ,990,488,44.562286,25.774841,114,162,Air France
2019-3-3 0:23:0,3991e7,AFR87AT ,990,488,44.562286,25.774841,114,165,Air France
2019-3-3 0:23:0,3991e7,AFR87AT ,982,488,44.562286,25.774841,114,166,Air France
2019-3-3 0:23:0,3991e7,AFR87AT ,974,488,44.562286,25.774841,114,167,Air France
2019-3-3 0:23:0,3991e7,AFR87AT ,974,488,44.561050,25.778634,114,169,Air France
2019-3-3 0:23:0,3991e7,AFR87AT ,959,488,44.561050,25.778634,114,172,Air France
2019-3-3 0:23:0,3991e7,AFR87AT ,959,488,44.561050,25.778634,114,173,Air France
2019-3-3 0:23:0,3991e7,AFR87AT ,951,488,44.561050,25.778634,114,177,Air France
2019-3-3 0:23:0,3991e7,AFR87AT ,951,488,44.561050,25.778634,114,179,Air France
2019-3-3 0:23:0,3991e7,AFR87AT ,951,488,44.561050,25.778634,114,180,Air France
2019-3-3 0:23:0,3991e7,AFR87AT ,951,488,44.561050,25.778634,114,182,Air France
2019-3-3 0:23:0,3991e7,AFR87AT ,951,488,44.561050,25.778634,114,184,Air France
2019-3-3 0:23:0,3991e7,AFR87AT ,951,488,44.558685,25.785850,114,186,Air France
2019-3-3 0:23:0,3991e7,AFR87AT ,944,488,44.558685,25.785850,114,188,Air France
2019-3-3 0:23:0,3991e7,AFR87AT ,944,488,44.558685,25.785850,114,189,Air France
2019-3-3 0:23:0,3991e7,AFR87AT ,944,488,44.558685,25.785850,114,190,Air France
2019-3-3 0:23:0,3991e7,AFR87AT ,944,487,44.558685,25.785850,114,193,Air France
2019-3-3 0:23:0,3991e7,AFR87AT ,944,487,44.558685,25.785850,114,195,Air France
2019-3-3 0:23:0,3991e7,AFR87AT ,936,487,44.557709,25.788836,114,196,Air France
2019-3-3 0:23:0,3991e7,AFR87AT ,936,487,44.557709,25.788836,114,198,Air France
2019-3-3 0:23:0,3991e7,AFR87AT ,929,487,44.557709,25.788836,114,199,Air France
2019-3-3 0:23:0,3991e7,AFR87AT ,929,487,44.557709,25.788836,114,202,Air France
2019-3-3 0:23:0,3991e7,AFR87AT ,929,487,44.557709,25.788836,114,204,Air France
2019-3-3 0:23:0,3991e7,AFR87AT ,929,487,44.557709,25.788836,114,206,Air France
2019-3-3 0:23:0,3991e7,AFR87AT ,929,479,44.557709,25.788836,114,213,Air France
2019-3-3 0:23:0,3991e7,AFR87AT ,929,479,44.557709,25.788836,114,214,Air France
2019-3-3 0:23:0,3991e7,AFR87AT ,921,477,44.554821,25.797573,114,216,Air France
2019-3-3 0:23:0,3991e7,AFR87AT ,921,477,44.554821,25.797573,114,220,Air France
2019-3-3 0:23:0,3991e7,AFR87AT ,921,477,44.554821,25.797573,114,222,Air France
2019-3-3 0:23:0,3991e7,AFR87AT ,921,477,44.554821,25.797573,114,223,Air France
2019-3-3 0:23:0,3991e7,AFR87AT ,921,475,44.554821,25.797573,114,225,Air France
2019-3-3 0:23:0,3991e7,AFR87AT ,921,475,44.554321,25.799234,114,230,Air France
2019-3-3 0:23:0,3991e7,AFR87AT ,921,475,44.554321,25.799234,114,231,Air France
2019-3-3 0:23:0,3991e7,AFR87AT ,921,475,44.554184,25.799561,114,233,Air France
2019-3-3 0:23:0,3991e7,AFR87AT ,921,475,44.553890,25.800454,114,235,Air France
2019-3-3 0:23:0,3991e7,AFR87AT ,913,475,44.551050,25.809363,114,236,Air France
2019-3-3 0:23:0,3991e7,AFR87AT ,913,470,44.550771,25.810301,114,238,Air France
2019-3-3 0:23:47,3991e7,AFR87AT ,868,470,44.550771,25.810301,114,239,Air France
2019-3-3 0:23:47,3991e7,AFR87AT ,868,444,44.550771,25.810301,90,240,Air France
2019-3-3 0:24:21,3991e7,AFR87AT ,792,444,44.550771,25.810301,90,242,Air France
2019-3-3 0:24:21,3991e7,AFR87AT ,792,444,44.550771,25.810301,90,244,Air France
2019-3-3 0:24:21,3991e7,AFR87AT ,784,444,44.550771,25.810301,90,245,Air France
2019-3-3 0:24:30,3991e7,AFR87AT ,776,444,44.550771,25.810301,90,248,Air France
2019-3-3 0:24:30,3991e7,AFR87AT ,776,444,44.550771,25.810301,90,249,Air France
2019-3-3 0:24:37,3991e7,AFR87AT ,776,444,44.550771,25.810301,90,250,Air France
2019-3-3 0:24:37,3991e7,AFR87AT ,693,444,44.550771,25.810301,90,256,Air France
2019-3-3 0:24:37,3991e7,AFR87AT ,693,444,44.550771,25.810301,90,257,Air France
2019-3-3 0:24:59,3991e7,AFR87AT ,594,444,44.550771,25.810301,90,259,Air France
2019-3-3 0:24:59,3991e7,AFR87AT ,594,444,44.550771,25.810301,90,266,Air France
2019-3-3 0:24:59,3991e7,AFR87AT ,594,444,44.550771,25.810301,90,269,Air France
2019-3-3 0:24:59,3991e7,AFR87AT ,594,444,44.550771,25.810301,90,273,Air France
2019-3-3 0:24:59,3991e7,AFR87AT ,594,444,44.550771,25.810301,90,278,Air France
2019-3-3 0:24:59,3991e7,AFR87AT ,586,444,44.550771,25.810301,90,281,Air France
2019-3-3 0:24:59,3991e7,AFR87AT ,586,444,44.550771,25.810301,90,287,Air France
2019-3-3 0:24:59,3991e7,AFR87AT ,586,444,44.550771,25.810301,90,293,Air France
2019-3-3 0:24:59,3991e7,AFR87AT ,586,444,44.550771,25.810301,90,299,Air France
2019-3-3 0:24:59,3991e7,AFR87AT ,586,444,44.550771,25.810301,90,300,Air France
2019-3-3 0:24:59,3991e7,AFR87AT ,578,368,44.550771,25.810301,83,303,Air France
2019-3-3 0:24:59,3991e7,AFR87AT ,578,368,44.550771,25.810301,83,308,Air France
2019-3-3 0:24:59,3991e7,AFR87AT ,578,368,44.550771,25.810301,83,311,Air France
2019-3-3 0:24:59,3991e7,AFR87AT ,578,366,44.554355,25.941601,83,314,Air France
2019-3-3 0:24:59,3991e7,AFR87AT ,578,366,44.554355,25.941601,83,317,Air France
2019-3-3 0:24:59,3991e7,AFR87AT ,578,366,44.554355,25.941601,83,320,Air France
2019-3-3 0:24:59,3991e7,AFR87AT ,578,366,44.554449,25.942807,83,324,Air France
2019-3-3 0:24:59,3991e7,AFR87AT ,578,366,44.554449,25.942807,83,326,Air France
2019-3-3 0:24:59,3991e7,AFR87AT ,578,366,44.554449,25.942807,83,331,Air France
2019-3-3 0:24:59,3991e7,AFR87AT ,571,366,44.554449,25.942807,83,334,Air France
2019-3-3 0:24:59,3991e7,AFR87AT ,571,366,44.554449,25.942807,83,337,Air France
2019-3-3 0:24:59,3991e7,AFR87AT ,571,357,44.554596,25.945195,84,339,Air France
2019-3-3 0:24:59,3991e7,AFR87AT ,571,357,44.554596,25.945195,84,345,Air France
2019-3-3 0:24:59,3991e7,AFR87AT ,571,357,44.554596,25.945195,84,349,Air France
2019-3-3 0:24:59,3991e7,AFR87AT ,571,355,44.554688,25.946372,84,351,Air France
2019-3-3 0:24:59,3991e7,AFR87AT ,571,355,44.554688,25.946372,84,353,Air France
2019-3-3 0:24:59,3991e7,AFR87AT ,571,355,44.554688,25.946372,84,359,Air France
2019-3-3 0:24:59,3991e7,AFR87AT ,571,355,44.554688,25.946372,84,362,Air France
2019-3-3 0:24:59,3991e7,AFR87AT ,563,355,44.554688,25.946372,84,367,Air France
2019-3-3 0:24:59,3991e7,AFR87AT ,563,355,44.554688,25.946372,84,368,Air France
2019-3-3 0:24:59,3991e7,AFR87AT ,563,355,44.554688,25.946372,84,371,Air France
2019-3-3 0:24:59,3991e7,AFR87AT ,555,355,44.554688,25.946372,84,380,Air France
2019-3-3 0:24:59,3991e7,AFR87AT ,555,355,44.554961,25.950109,84,385,Air France
2019-3-3 0:24:59,3991e7,AFR87AT ,555,355,44.554961,25.950109,84,387,Air France
2019-3-3 0:24:59,3991e7,AFR87AT ,548,355,44.554961,25.950109,84,388,Air France
2019-3-3 0:24:59,3991e7,AFR87AT ,548,355,44.554961,25.950109,84,395,Air France
2019-3-3 0:24:59,3991e7,AFR87AT ,548,340,44.555191,25.953435,84,400,Air France
2019-3-3 0:24:59,3991e7,AFR87AT ,548,340,44.555191,25.953435,84,401,Air France
2019-3-3 0:24:59,3991e7,AFR87AT ,540,340,44.555191,25.953435,84,402,Air France
2019-3-3 0:24:59,3991e7,AFR87AT ,540,340,44.555191,25.953435,84,405,Air France
2019-3-3 0:24:59,3991e7,AFR87AT ,540,340,44.555191,25.953435,84,406,Air France
2019-3-3 0:24:59,3991e7,AFR87AT ,540,340,44.555191,25.953435,84,410,Air France
2019-3-3 0:24:59,3991e7,AFR87AT ,540,340,44.555191,25.953435,84,415,Air France
2019-3-3 0:24:59,3991e7,AFR87AT ,533,340,44.555191,25.953435,84,417,Air France
2019-3-3 0:24:59,3991e7,AFR87AT ,533,340,44.555191,25.953435,84,418,Air France
2019-3-3 0:24:59,3991e7,AFR87AT ,533,337,44.555473,25.956607,83,420,Air France
2019-3-3 0:24:59,3991e7,AFR87AT ,533,337,44.555473,25.956607,83,421,Air France
2019-3-3 0:24:59,3991e7,AFR87AT ,525,337,44.555473,25.956607,83,424,Air France
2019-3-3 0:24:59,3991e7,AFR87AT ,525,337,44.555473,25.956607,83,426,Air France
2019-3-3 0:24:59,3991e7,AFR87AT ,525,331,44.555705,25.959689,83,430,Air France
2019-3-3 0:24:59,3991e7,AFR87AT ,525,331,44.555705,25.959689,83,432,Air France
2019-3-3 0:24:59,3991e7,AFR87AT ,525,331,44.555705,25.959689,83,435,Air France
2019-3-3 0:24:59,3991e7,AFR87AT ,517,331,44.555923,25.962459,83,440,Air France
2019-3-3 0:25:27,3991e7,AFR87AT ,517,331,44.555923,25.962459,83,441,Air France
2019-3-3 0:26:5,3991e7,AFR87AT ,297,331,44.555923,25.962459,83,445,Air France
2019-3-3 0:26:5,3991e7,AFR87AT ,297,268,44.555923,25.962459,83,446,Air France
2019-3-3 0:26:5,3991e7,AFR87AT ,297,268,44.555923,25.962459,83,447,Air France
2019-3-3 0:26:5,3991e7,AFR87AT ,258,268,44.555923,25.962459,83,449,Air France
2019-3-3 0:26:5,3991e7,AFR87AT ,258,268,44.555923,25.962459,83,450,Air France
2019-3-3 0:26:5,3991e7,AFR87AT ,198,268,44.555923,25.962459,83,451,Air France
2019-3-3 0:26:5,3991e7,AFR87AT ,198,268,44.555923,25.962459,83,452,Air France
2019-3-3 0:26:5,3991e7,AFR87AT ,198,268,44.555923,25.962459,83,454,Air France
2019-3-3 0:26:5,3991e7,AFR87AT ,190,268,44.555923,25.962459,83,456,Air France
2019-3-3 0:26:5,3991e7,AFR87AT ,190,268,44.555923,25.962459,83,457,Air France
2019-3-3 0:26:5,3991e7,AFR87AT ,190,268,44.555923,25.962459,83,458,Air France
2019-3-3 0:26:5,3991e7,AFR87AT ,190,268,44.555923,25.962459,83,459,Air France
2019-3-3 0:26:5,3991e7,AFR87AT ,190,268,44.555923,25.962459,83,460,Air France
2019-3-3 0:26:5,3991e7,AFR87AT ,190,268,44.555923,25.962459,83,461,Air France
2019-3-3 0:26:5,3991e7,AFR87AT ,182,268,44.555923,25.962459,83,462,Air France
2019-3-3 0:26:5,3991e7,AFR87AT ,175,268,44.555923,25.962459,83,463,Air France
2019-3-3 0:26:5,3991e7,AFR87AT ,175,268,44.555923,25.962459,83,464,Air France
2019-3-3 0:26:5,3991e7,AFR87AT ,175,268,44.555923,25.962459,83,465,Air France
2019-3-3 0:26:5,3991e7,AFR87AT ,175,268,44.555923,25.962459,83,466,Air France
2019-3-3 0:26:5,3991e7,AFR87AT ,175,268,44.555923,25.962459,83,469,Air France
2019-3-3 0:26:5,3991e7,AFR87AT ,175,266,44.562424,26.048257,83,475,Air France
2019-3-3 0:26:5,3991e7,AFR87AT ,167,266,44.562502,26.049053,83,478,Air France
2019-3-3 0:26:5,3991e7,AFR87AT ,167,266,44.562502,26.049053,83,479,Air France
