2019-3-2 23:51:51,4a0664,,411,0,0.000000,0.000000,0,4,Unknown
2019-3-2 23:51:51,4a0664,,418,0,0.000000,0.000000,0,7,Unknown
2019-3-2 23:51:51,4a0664,,426,0,0.000000,0.000000,0,8,Unknown
2019-3-2 23:51:51,4a0664,,434,0,0.000000,0.000000,0,12,Unknown
2019-3-2 23:51:51,4a0664,,434,0,0.000000,0.000000,0,20,Unknown
2019-3-2 23:51:51,4a0664,,441,0,0.000000,0.000000,0,23,Unknown
2019-3-2 23:51:51,4a0664,,441,0,0.000000,0.000000,0,25,Unknown
2019-3-2 23:51:51,4a0664,,449,0,0.000000,0.000000,0,33,Unknown
2019-3-2 23:51:51,4a0664,,456,0,0.000000,0.000000,0,35,Unknown
2019-3-2 23:51:51,4a0664,,456,0,0.000000,0.000000,0,40,Unknown
2019-3-2 23:51:51,4a0664,,456,0,0.000000,0.000000,0,41,Unknown
2019-3-2 23:51:51,4a0664,,464,0,0.000000,0.000000,0,43,Unknown
2019-3-2 23:51:51,4a0664,,464,0,0.000000,0.000000,0,44,Unknown
2019-3-2 23:51:51,4a0664,,464,0,0.000000,0.000000,0,45,Unknown
2019-3-2 23:51:51,4a0664,,479,0,0.000000,0.000000,0,51,Unknown
2019-3-2 23:51:51,4a0664,,502,0,0.000000,0.000000,0,54,Unknown
2019-3-2 23:51:51,4a0664,,502,268,44.580780,26.143014,84,64,Unknown
2019-3-2 23:51:51,4a0664,,502,268,44.580780,26.143014,84,65,Unknown
2019-3-2 23:51:51,4a0664,,502,268,44.580780,26.143014,84,66,Unknown
2019-3-2 23:51:51,4a0664,,502,268,44.580780,26.143014,84,67,Unknown
2019-3-2 23:51:51,4a0664,,502,268,44.580780,26.143014,84,68,Unknown
2019-3-2 23:51:51,4a0664,,517,268,44.580780,26.143014,84,73,Unknown
2019-3-2 23:51:51,4a0664,,525,268,44.580780,26.143014,84,76,Unknown
2019-3-2 23:51:51,4a0664,,525,268,44.580937,26.144915,84,80,Unknown
2019-3-2 23:51:51,4a0664,,533,268,44.580937,26.144915,84,83,Unknown
2019-3-2 23:51:51,4a0664,,540,268,44.580937,26.144915,84,84,Unknown
2019-3-2 23:51:51,4a0664,,540,268,44.580937,26.144915,84,89,Unknown
2019-3-2 23:51:51,4a0664,,548,268,44.580937,26.144915,84,100,Unknown
2019-3-2 23:51:51,4a0664,,555,268,44.580937,26.144915,84,106,Unknown
2019-3-2 23:51:51,4a0664,,555,268,44.580937,26.144915,84,109,Unknown
2019-3-2 23:51:51,4a0664,,555,268,44.580937,26.144915,84,110,Unknown
2019-3-2 23:51:51,4a0664,,685,268,44.580937,26.144915,84,113,Unknown
2019-3-2 23:51:51,4a0664,,685,268,44.580937,26.144915,84,115,Unknown
2019-3-2 23:51:51,4a0664,,693,268,44.580937,26.144915,83,117,Unknown
2019-3-2 23:51:51,4a0664,,693,268,44.580937,26.144915,83,119,Unknown
2019-3-2 23:51:51,4a0664,,693,268,44.580937,26.144915,83,120,Unknown
2019-3-2 23:51:51,4a0664,,693,268,44.580937,26.144915,83,121,Unknown
2019-3-2 23:51:51,4a0664,,769,268,44.582565,26.165183,83,122,Unknown
2019-3-2 23:51:51,4a0664,,814,268,44.582565,26.165183,83,124,Unknown
2019-3-2 23:51:51,4a0664,,822,268,44.582939,26.170170,83,130,Unknown
2019-3-2 23:51:51,4a0664,,822,274,44.582939,26.170170,84,133,Unknown
2019-3-2 23:51:51,4a0664,,822,274,44.582939,26.170170,84,134,Unknown
2019-3-2 23:51:51,4a0664,,837,274,44.582939,26.170170,84,135,Unknown
2019-3-2 23:51:51,4a0664,,845,274,44.583125,26.171979,84,147,Unknown
2019-3-2 23:51:51,4a0664,,845,274,44.583125,26.171979,84,151,Unknown
2019-3-2 23:51:51,4a0664,,852,274,44.583125,26.171979,84,154,Unknown
2019-3-2 23:51:51,4a0664,,852,274,44.583125,26.171979,84,158,Unknown
2019-3-2 23:51:51,4a0664,,852,274,44.583218,26.172984,84,164,Unknown
2019-3-2 23:51:51,4a0664,,860,274,44.583218,26.172984,84,173,Unknown
2019-3-2 23:51:51,4a0664,,860,274,44.583218,26.172984,84,174,Unknown
2019-3-2 23:51:51,4a0664,,868,274,44.583218,26.172984,84,176,Unknown
2019-3-2 23:51:51,4a0664,,868,274,44.583218,26.172984,84,182,Unknown
2019-3-2 23:51:51,4a0664,,875,274,44.583218,26.172984,84,190,Unknown
2019-3-2 23:51:51,4a0664,,875,274,44.583218,26.172984,84,191,Unknown
2019-3-2 23:51:51,4a0664,,875,274,44.583218,26.172984,84,192,Unknown
2019-3-2 23:51:51,4a0664,,875,274,44.583218,26.172984,84,193,Unknown
2019-3-2 23:51:51,4a0664,,913,274,44.583218,26.172984,84,194,Unknown
2019-3-2 23:51:51,4a0664,,913,274,44.583218,26.172984,84,195,Unknown
2019-3-2 23:51:51,4a0664,,921,274,44.583218,26.172984,84,198,Unknown
2019-3-2 23:51:51,4a0664,,921,274,44.583218,26.172984,84,201,Unknown
2019-3-2 23:51:51,4a0664,,921,274,44.583218,26.172984,84,202,Unknown
2019-3-2 23:53:34,4a0664,,944,274,44.583218,26.172984,84,203,Unknown
2019-3-2 23:53:34,4a0664,,982,274,44.583218,26.172984,84,204,Unknown
2019-3-2 23:53:34,4a0664,,990,274,44.583218,26.172984,84,206,Unknown
2019-3-2 23:53:34,4a0664,,990,274,44.583218,26.172984,84,207,Unknown
2019-3-2 23:53:34,4a0664,,1035,274,44.583218,26.172984,84,208,Unknown
2019-3-2 23:53:34,4a0664,,1035,274,44.583218,26.172984,84,209,Unknown
2019-3-2 23:53:34,4a0664,,1035,274,44.583218,26.172984,84,212,Unknown
2019-3-2 23:53:34,4a0664,,1035,274,44.583218,26.172984,84,214,Unknown
2019-3-2 23:53:47,4a0664,,1043,274,44.583218,26.172984,84,218,Unknown
2019-3-2 23:53:47,4a0664,,1043,274,44.588245,26.190066,84,221,Unknown
2019-3-2 23:53:47,4a0664,,1050,290,44.588664,26.190736,53,223,Unknown
2019-3-2 23:53:47,4a0664,,1050,290,44.588664,26.190736,53,225,Unknown
2019-3-2 23:53:47,4a0664,,1050,296,44.588664,26.190736,50,233,Unknown
2019-3-2 23:53:47,4a0664,,1050,296,44.589111,26.191537,50,237,Unknown
2019-3-2 23:53:47,4a0664,,1058,296,44.589111,26.191537,50,239,Unknown
2019-3-2 23:53:47,4a0664,,1058,296,44.589111,26.191537,50,240,Unknown
2019-3-2 23:53:47,4a0664,,1058,298,44.589111,26.191537,48,244,Unknown
2019-3-2 23:53:47,4a0664,,1058,298,44.589111,26.191537,48,248,Unknown
2019-3-2 23:53:47,4a0664,,1058,298,44.589111,26.191537,48,249,Unknown
2019-3-2 23:53:47,4a0664,,1104,298,44.589111,26.191537,48,252,Unknown
2019-3-2 23:53:47,4a0664,,1104,316,44.593785,26.197167,35,258,Unknown
2019-3-2 23:53:47,4a0664,,1104,316,44.593785,26.197167,35,261,Unknown
2019-3-2 23:53:47,4a0664,,1104,316,44.593785,26.197167,35,262,Unknown
2019-3-2 23:53:47,4a0664,,1104,316,44.593785,26.197167,35,263,Unknown
2019-3-2 23:53:47,4a0664,,1104,316,44.593785,26.197167,35,264,Unknown
2019-3-2 23:53:47,4a0664,,1203,316,44.593785,26.197167,35,265,Unknown
2019-3-2 23:53:47,4a0664,,1203,351,44.593785,26.197167,0,270,Unknown
2019-3-2 23:53:47,4a0664,,1203,351,44.593785,26.197167,0,271,Unknown
2019-3-2 23:53:47,4a0664,,1210,351,44.593785,26.197167,0,272,Unknown
2019-3-2 23:53:47,4a0664,,1210,361,44.593785,26.197167,356,275,Unknown
2019-3-2 23:54:30,4a0664,,1210,361,44.593785,26.197167,356,276,Unknown
2019-3-2 23:54:30,4a0664,,1210,361,44.593785,26.197167,356,277,Unknown
2019-3-2 23:54:30,4a0664,,1408,361,44.593785,26.197167,356,278,Unknown
2019-3-2 23:54:30,4a0664,,1439,361,44.593785,26.197167,356,279,Unknown
2019-3-2 23:54:30,4a0664,,1454,361,44.593785,26.197167,356,282,Unknown
2019-3-2 23:54:30,4a0664,,1454,361,44.593785,26.197167,356,284,Unknown
2019-3-2 23:54:30,4a0664,,1454,361,44.593785,26.197167,356,285,Unknown
2019-3-2 23:54:30,4a0664,,1454,361,44.593785,26.197167,356,286,Unknown
2019-3-2 23:54:30,4a0664,,1462,361,44.593785,26.197167,356,288,Unknown
2019-3-2 23:54:30,4a0664,,1469,361,44.593785,26.197167,356,290,Unknown
2019-3-2 23:54:30,4a0664,,1477,361,44.593785,26.197167,356,291,Unknown
2019-3-2 23:54:30,4a0664,,1477,361,44.593785,26.197167,356,292,Unknown
2019-3-2 23:54:30,4a0664,,1477,435,44.593785,26.197167,308,293,Unknown
2019-3-2 23:54:30,4a0664,,1477,435,44.593785,26.197167,308,294,Unknown
2019-3-2 23:54:30,4a0664,,1492,435,44.593785,26.197167,308,297,Unknown
