2019-3-3 0:17:36,4cafbc,,12184,0,0.000000,0.000000,0,1,Unknown
2019-3-3 0:17:36,4cafbc,,12184,0,0.000000,0.000000,0,2,Unknown
2019-3-3 0:17:36,4cafbc,,12184,0,0.000000,0.000000,0,3,Unknown
2019-3-3 0:17:36,4cafbc,,12184,0,44.022400,25.481702,0,4,Unknown
2019-3-3 0:20:58,4cafbc,,12184,0,44.022400,25.481702,0,5,Unknown
2019-3-3 0:21:1,4cafbc,,12184,0,44.022400,25.481702,0,6,Unknown
2019-3-3 0:21:1,4cafbc,,12184,835,44.022400,25.481702,290,7,Unknown
