2019-3-2 22:36:8,4ca764,,205,0,0.000000,0.000000,0,1,Unknown
2019-3-2 22:36:8,4ca764,,205,0,0.000000,0.000000,0,2,Unknown
2019-3-2 22:36:8,4ca764,,205,0,0.000000,0.000000,0,3,Unknown
2019-3-2 22:36:8,4ca764,,700,0,0.000000,0.000000,0,4,Unknown
2019-3-2 22:36:8,4ca764,,715,0,0.000000,0.000000,0,7,Unknown
2019-3-2 22:36:8,4ca764,,723,0,0.000000,0.000000,0,8,Unknown
2019-3-2 22:36:8,4ca764,,723,0,0.000000,0.000000,0,10,Unknown
2019-3-2 22:36:8,4ca764,,723,0,0.000000,0.000000,0,11,Unknown
2019-3-2 22:37:44,4ca764,,753,0,0.000000,0.000000,0,14,Unknown
2019-3-2 22:37:44,4ca764,,753,0,0.000000,0.000000,0,15,Unknown
2019-3-2 22:37:44,4ca764,,769,0,0.000000,0.000000,0,17,Unknown
2019-3-2 22:37:44,4ca764,,769,0,0.000000,0.000000,0,18,Unknown
2019-3-2 22:37:44,4ca764,,776,0,0.000000,0.000000,0,19,Unknown
2019-3-2 22:37:44,4ca764,,784,0,0.000000,0.000000,0,22,Unknown
2019-3-2 22:37:44,4ca764,,792,0,0.000000,0.000000,0,24,Unknown
2019-3-2 22:37:44,4ca764,,792,0,0.000000,0.000000,0,25,Unknown
2019-3-2 22:37:44,4ca764,,799,0,0.000000,0.000000,0,26,Unknown
2019-3-2 22:37:44,4ca764,,807,0,0.000000,0.000000,0,31,Unknown
2019-3-2 22:37:44,4ca764,,807,0,0.000000,0.000000,0,32,Unknown
2019-3-2 22:37:44,4ca764,,814,0,0.000000,0.000000,0,33,Unknown
2019-3-2 22:37:44,4ca764,,814,0,0.000000,0.000000,0,34,Unknown
2019-3-2 22:37:50,4ca764,,845,0,0.000000,0.000000,0,36,Unknown
2019-3-2 22:37:52,4ca764,,845,0,0.000000,0.000000,0,37,Unknown
2019-3-2 22:37:52,4ca764,,845,322,0.000000,0.000000,84,38,Unknown
2019-3-2 22:37:52,4ca764,,868,322,0.000000,0.000000,84,39,Unknown
2019-3-2 22:37:52,4ca764,,875,322,0.000000,0.000000,84,40,Unknown
2019-3-2 22:37:52,4ca764,,875,322,0.000000,0.000000,84,42,Unknown
2019-3-2 22:37:52,4ca764,,883,322,0.000000,0.000000,84,44,Unknown
2019-3-2 22:37:52,4ca764,,891,322,0.000000,0.000000,84,45,Unknown
2019-3-2 22:37:52,4ca764,,921,322,0.000000,0.000000,84,46,Unknown
2019-3-2 22:37:52,4ca764,,944,322,0.000000,0.000000,84,50,Unknown
2019-3-2 22:37:52,4ca764,,944,324,0.000000,0.000000,82,51,Unknown
2019-3-2 22:37:52,4ca764,,997,324,0.000000,0.000000,82,54,Unknown
2019-3-2 22:37:52,4ca764,,1005,324,0.000000,0.000000,82,57,Unknown
2019-3-2 22:37:52,4ca764,,1012,324,0.000000,0.000000,82,59,Unknown
2019-3-2 22:37:52,4ca764,,1020,324,0.000000,0.000000,82,61,Unknown
2019-3-2 22:37:52,4ca764,,1020,324,0.000000,0.000000,82,62,Unknown
2019-3-2 22:37:52,4ca764,,1043,324,0.000000,0.000000,82,63,Unknown
2019-3-2 22:37:52,4ca764,,1043,324,0.000000,0.000000,82,64,Unknown
2019-3-2 22:37:52,4ca764,,1050,324,0.000000,0.000000,82,65,Unknown
2019-3-2 22:37:52,4ca764,,1058,324,0.000000,0.000000,82,67,Unknown
2019-3-2 22:37:52,4ca764,,1058,324,44.584579,26.196834,82,69,Unknown
2019-3-2 22:37:52,4ca764,,1066,324,44.584579,26.196834,82,70,Unknown
2019-3-2 22:37:52,4ca764,,1066,324,44.584579,26.196834,82,71,Unknown
2019-3-2 22:37:52,4ca764,,1066,324,44.584579,26.196834,82,72,Unknown
2019-3-2 22:37:52,4ca764,,1089,324,44.584579,26.196834,82,73,Unknown
2019-3-2 22:37:52,4ca764,,1096,324,44.584579,26.196834,82,77,Unknown
2019-3-2 22:37:52,4ca764,,1104,324,44.584579,26.196834,82,78,Unknown
2019-3-2 22:37:52,4ca764,,1104,325,44.584579,26.196834,72,80,Unknown
2019-3-2 22:37:52,4ca764,,1104,325,44.584579,26.196834,72,81,Unknown
2019-3-2 22:37:52,4ca764,,1104,325,44.584579,26.196834,72,82,Unknown
2019-3-2 22:37:52,4ca764,,1127,325,44.584579,26.196834,70,84,Unknown
2019-3-2 22:37:52,4ca764,,1134,325,44.584579,26.196834,70,86,Unknown
2019-3-2 22:37:52,4ca764,,1142,325,44.584579,26.196834,70,87,Unknown
2019-3-2 22:37:52,4ca764,,1149,325,44.584579,26.196834,70,89,Unknown
2019-3-2 22:37:52,4ca764,,1157,325,44.584579,26.196834,70,92,Unknown
2019-3-2 22:37:52,4ca764,,1165,325,44.584579,26.196834,70,94,Unknown
2019-3-2 22:37:52,4ca764,,1165,325,44.584579,26.196834,70,95,Unknown
2019-3-2 22:37:52,4ca764,,1165,325,44.584579,26.196834,70,96,Unknown
2019-3-2 22:37:52,4ca764,,1195,325,44.584579,26.196834,70,97,Unknown
2019-3-2 22:37:52,4ca764,,1195,325,44.584579,26.196834,56,99,Unknown
2019-3-2 22:37:52,4ca764,,1210,325,44.584579,26.196834,56,101,Unknown
2019-3-2 22:37:52,4ca764,,1210,325,44.584579,26.196834,56,102,Unknown
2019-3-2 22:37:52,4ca764,RYR6WK  ,1210,325,44.584579,26.196834,56,103,Ryanair
2019-3-2 22:37:52,4ca764,RYR6WK  ,1248,325,44.584579,26.196834,56,105,Ryanair
2019-3-2 22:37:52,4ca764,RYR6WK  ,1248,325,44.584579,26.196834,56,106,Ryanair
2019-3-2 22:37:52,4ca764,RYR6WK  ,1256,325,44.584579,26.196834,56,110,Ryanair
2019-3-2 22:37:52,4ca764,RYR6WK  ,1256,325,44.584579,26.196834,56,111,Ryanair
2019-3-2 22:37:52,4ca764,RYR6WK  ,1256,325,44.584579,26.196834,56,112,Ryanair
2019-3-2 22:37:52,4ca764,RYR6WK  ,1271,325,44.584579,26.196834,56,113,Ryanair
2019-3-2 22:37:52,4ca764,RYR6WK  ,1271,325,44.584579,26.196834,56,117,Ryanair
2019-3-2 22:37:52,4ca764,RYR6WK  ,1271,325,44.584579,26.196834,56,120,Ryanair
2019-3-2 22:37:52,4ca764,RYR6WK  ,1271,325,44.584579,26.196834,56,121,Ryanair
2019-3-2 22:37:52,4ca764,RYR6WK  ,1279,325,44.584579,26.196834,56,124,Ryanair
2019-3-2 22:37:52,4ca764,RYR6WK  ,1279,325,44.584579,26.196834,56,125,Ryanair
2019-3-2 22:37:52,4ca764,RYR6WK  ,1279,325,44.584579,26.196834,56,126,Ryanair
2019-3-2 22:37:52,4ca764,RYR6WK  ,1279,325,44.584579,26.196834,56,128,Ryanair
2019-3-2 22:37:52,4ca764,RYR6WK  ,1279,325,44.584579,26.196834,56,129,Ryanair
2019-3-2 22:37:52,4ca764,RYR6WK  ,1287,325,44.584579,26.196834,56,132,Ryanair
2019-3-2 22:37:52,4ca764,RYR6WK  ,1287,325,44.584579,26.196834,56,135,Ryanair
2019-3-2 22:37:52,4ca764,RYR6WK  ,1294,325,44.584579,26.196834,56,138,Ryanair
2019-3-2 22:37:52,4ca764,RYR6WK  ,1294,325,44.584579,26.196834,56,141,Ryanair
2019-3-2 22:37:52,4ca764,RYR6WK  ,1294,325,44.584579,26.196834,56,142,Ryanair
2019-3-2 22:37:52,4ca764,RYR6WK  ,1294,325,44.584579,26.196834,56,148,Ryanair
2019-3-2 22:37:52,4ca764,RYR6WK  ,1294,355,44.584579,26.196834,17,151,Ryanair
2019-3-2 22:37:52,4ca764,RYR6WK  ,1302,355,44.584579,26.196834,17,153,Ryanair
2019-3-2 22:37:52,4ca764,RYR6WK  ,1302,355,44.584579,26.196834,17,154,Ryanair
2019-3-2 22:37:52,4ca764,RYR6WK  ,1302,355,44.584579,26.196834,17,157,Ryanair
2019-3-2 22:37:52,4ca764,RYR6WK  ,1302,355,44.584579,26.196834,17,160,Ryanair
2019-3-2 22:37:52,4ca764,RYR6WK  ,1302,355,44.584579,26.196834,17,161,Ryanair
2019-3-2 22:37:52,4ca764,RYR6WK  ,1309,355,44.584579,26.196834,17,163,Ryanair
2019-3-2 22:37:52,4ca764,RYR6WK  ,1309,364,44.584579,26.196834,9,164,Ryanair
2019-3-2 22:37:52,4ca764,RYR6WK  ,1309,364,44.584579,26.196834,9,165,Ryanair
2019-3-2 22:37:52,4ca764,RYR6WK  ,1309,364,44.584579,26.196834,9,167,Ryanair
2019-3-2 22:37:52,4ca764,RYR6WK  ,1317,364,44.584579,26.196834,9,168,Ryanair
2019-3-2 22:37:52,4ca764,RYR6WK  ,1317,364,44.584579,26.196834,9,170,Ryanair
2019-3-2 22:37:52,4ca764,RYR6WK  ,1317,364,44.584579,26.196834,9,172,Ryanair
2019-3-2 22:37:52,4ca764,RYR6WK  ,1317,364,44.584579,26.196834,9,173,Ryanair
2019-3-2 22:37:52,4ca764,RYR6WK  ,1317,364,44.584579,26.196834,9,174,Ryanair
2019-3-2 22:37:52,4ca764,RYR6WK  ,1325,364,44.584579,26.196834,9,175,Ryanair
2019-3-2 22:37:52,4ca764,RYR6WK  ,1325,364,44.584579,26.196834,9,177,Ryanair
2019-3-2 22:37:52,4ca764,RYR6WK  ,1325,364,44.584579,26.196834,9,178,Ryanair
2019-3-2 22:37:52,4ca764,RYR6WK  ,1332,364,44.584579,26.196834,9,180,Ryanair
2019-3-2 22:37:52,4ca764,RYR6WK  ,1332,392,44.584579,26.196834,348,181,Ryanair
2019-3-2 22:37:52,4ca764,RYR6WK  ,1332,392,44.584579,26.196834,345,182,Ryanair
2019-3-2 22:37:52,4ca764,RYR6WK  ,1332,392,44.584579,26.196834,345,183,Ryanair
2019-3-2 22:37:52,4ca764,RYR6WK  ,1332,392,44.584579,26.196834,345,185,Ryanair
2019-3-2 22:37:52,4ca764,RYR6WK  ,1347,392,44.584579,26.196834,345,186,Ryanair
2019-3-2 22:37:52,4ca764,RYR6WK  ,1355,392,44.584579,26.196834,345,188,Ryanair
2019-3-2 22:37:52,4ca764,RYR6WK  ,1363,392,44.584579,26.196834,345,189,Ryanair
2019-3-2 22:37:52,4ca764,RYR6WK  ,1363,392,44.584579,26.196834,345,190,Ryanair
2019-3-2 22:37:52,4ca764,RYR6WK  ,1363,392,44.584579,26.196834,345,191,Ryanair
2019-3-2 22:37:52,4ca764,RYR6WK  ,1393,392,44.584579,26.196834,345,192,Ryanair
2019-3-2 22:38:51,4ca764,RYR6WK  ,1401,392,44.584579,26.196834,345,194,Ryanair
2019-3-2 22:38:51,4ca764,RYR6WK  ,1401,392,44.584579,26.196834,345,195,Ryanair
2019-3-2 22:38:51,4ca764,RYR6WK  ,1401,392,44.584579,26.196834,345,196,Ryanair
2019-3-2 22:38:51,4ca764,RYR6WK  ,1416,392,44.615199,26.213111,345,198,Ryanair
2019-3-2 22:38:51,4ca764,RYR6WK  ,1416,392,44.615199,26.213111,345,199,Ryanair
2019-3-2 22:38:51,4ca764,RYR6WK  ,1424,392,44.615199,26.213111,345,202,Ryanair
2019-3-2 22:38:51,4ca764,RYR6WK  ,1424,392,44.615199,26.213111,345,203,Ryanair
2019-3-2 22:38:51,4ca764,RYR6WK  ,1446,392,44.617630,26.210502,345,204,Ryanair
2019-3-2 22:38:51,4ca764,RYR6WK  ,1446,392,44.617630,26.210502,345,205,Ryanair
2019-3-2 22:38:51,4ca764,RYR6WK  ,1454,392,44.618411,26.209627,345,206,Ryanair
2019-3-2 22:38:51,4ca764,RYR6WK  ,1454,392,44.618411,26.209627,345,207,Ryanair
2019-3-2 22:38:51,4ca764,RYR6WK  ,1454,392,44.618411,26.209627,345,208,Ryanair
2019-3-2 22:38:51,4ca764,RYR6WK  ,1454,412,44.618411,26.209627,319,209,Ryanair
2019-3-2 22:38:51,4ca764,RYR6WK  ,1454,412,44.618411,26.209627,319,210,Ryanair
2019-3-2 22:39:1,4ca764,RYR6WK  ,1454,412,44.618411,26.209627,319,211,Ryanair
2019-3-2 22:39:1,4ca764,RYR6WK  ,1454,412,44.618411,26.209627,319,212,Ryanair
2019-3-2 22:39:1,4ca764,RYR6WK  ,1454,412,44.618411,26.209627,319,213,Ryanair
2019-3-2 22:39:1,4ca764,RYR6WK  ,1454,412,44.618411,26.209627,319,214,Ryanair
2019-3-2 22:39:1,4ca764,RYR6WK  ,1599,412,44.618411,26.209627,319,216,Ryanair
2019-3-2 22:39:1,4ca764,RYR6WK  ,1614,412,44.618411,26.209627,319,218,Ryanair
2019-3-2 22:39:1,4ca764,RYR6WK  ,1622,412,44.618411,26.209627,319,219,Ryanair
2019-3-2 22:39:1,4ca764,RYR6WK  ,1622,412,44.618411,26.209627,319,220,Ryanair
2019-3-2 22:39:1,4ca764,RYR6WK  ,1622,412,44.618411,26.209627,319,221,Ryanair
2019-3-2 22:39:1,4ca764,RYR6WK  ,1622,412,44.618411,26.209627,319,222,Ryanair
2019-3-2 22:39:1,4ca764,RYR6WK  ,1622,412,44.618411,26.209627,319,224,Ryanair
2019-3-2 22:39:1,4ca764,RYR6WK  ,1698,412,44.618411,26.209627,319,226,Ryanair
2019-3-2 22:39:1,4ca764,RYR6WK  ,1728,412,44.618411,26.209627,319,229,Ryanair
2019-3-2 22:39:1,4ca764,RYR6WK  ,1766,412,44.618411,26.209627,319,230,Ryanair
2019-3-2 22:39:1,4ca764,RYR6WK  ,1774,412,44.618411,26.209627,319,232,Ryanair
2019-3-2 22:39:1,4ca764,RYR6WK  ,1782,412,44.618411,26.209627,319,235,Ryanair
2019-3-2 22:39:1,4ca764,RYR6WK  ,1789,412,44.618411,26.209627,319,239,Ryanair
2019-3-2 22:39:1,4ca764,RYR6WK  ,1789,412,44.618411,26.209627,319,243,Ryanair
2019-3-2 22:39:18,4ca764,RYR6WK  ,1797,412,44.618411,26.209627,319,244,Ryanair
2019-3-2 22:39:18,4ca764,RYR6WK  ,1797,412,44.618411,26.209627,319,245,Ryanair
2019-3-2 22:39:18,4ca764,RYR6WK  ,1804,412,44.618411,26.209627,319,248,Ryanair
2019-3-2 22:39:18,4ca764,RYR6WK  ,1804,418,44.618411,26.209627,300,249,Ryanair
2019-3-2 22:39:18,4ca764,RYR6WK  ,1812,418,44.618411,26.209627,300,251,Ryanair
2019-3-2 22:39:18,4ca764,RYR6WK  ,1812,418,44.618411,26.209627,300,252,Ryanair
2019-3-2 22:39:18,4ca764,RYR6WK  ,1820,418,44.618411,26.209627,300,254,Ryanair
2019-3-2 22:39:18,4ca764,RYR6WK  ,1820,418,44.618411,26.209627,300,255,Ryanair
2019-3-2 22:39:18,4ca764,RYR6WK  ,1827,418,44.618411,26.209627,300,256,Ryanair
2019-3-2 22:39:18,4ca764,RYR6WK  ,1835,418,44.618411,26.209627,300,257,Ryanair
2019-3-2 22:39:18,4ca764,RYR6WK  ,1835,431,44.618411,26.209627,301,258,Ryanair
2019-3-2 22:39:18,4ca764,RYR6WK  ,1842,431,44.618411,26.209627,301,260,Ryanair
2019-3-2 22:39:26,4ca764,RYR6WK  ,1842,431,44.618411,26.209627,301,261,Ryanair
2019-3-2 22:39:26,4ca764,RYR6WK  ,1842,431,44.618411,26.209627,301,262,Ryanair
2019-3-2 22:39:26,4ca764,RYR6WK  ,1850,431,44.618411,26.209627,301,264,Ryanair
2019-3-2 22:39:26,4ca764,RYR6WK  ,1850,431,44.636101,26.171979,301,265,Ryanair
2019-3-2 22:39:26,4ca764,RYR6WK  ,1850,431,44.636101,26.171979,301,266,Ryanair
2019-3-2 22:39:26,4ca764,RYR6WK  ,1850,451,44.636101,26.171979,302,267,Ryanair
2019-3-2 22:39:26,4ca764,RYR6WK  ,1850,451,44.636101,26.171979,302,268,Ryanair
2019-3-2 22:39:26,4ca764,RYR6WK  ,1858,451,44.636101,26.171979,302,273,Ryanair
2019-3-2 22:39:26,4ca764,RYR6WK  ,1858,451,44.636101,26.171979,302,275,Ryanair
2019-3-2 22:39:26,4ca764,RYR6WK  ,1858,451,44.636101,26.171979,302,278,Ryanair
2019-3-2 22:39:26,4ca764,RYR6WK  ,1858,459,44.636101,26.171979,303,279,Ryanair
2019-3-2 22:39:26,4ca764,RYR6WK  ,1858,459,44.636101,26.171979,303,280,Ryanair
2019-3-2 22:39:26,4ca764,RYR6WK  ,1865,459,44.638801,26.166017,303,284,Ryanair
2019-3-2 22:39:33,4ca764,RYR6WK  ,1865,459,44.639191,26.165183,303,286,Ryanair
2019-3-2 22:39:33,4ca764,RYR6WK  ,1865,459,44.639191,26.165183,303,287,Ryanair
2019-3-2 22:39:33,4ca764,RYR6WK  ,1865,468,44.639191,26.165183,303,289,Ryanair
2019-3-2 22:39:33,4ca764,RYR6WK  ,1865,472,44.639191,26.165183,304,290,Ryanair
2019-3-2 22:39:33,4ca764,RYR6WK  ,1865,472,44.639191,26.165183,304,291,Ryanair
2019-3-2 22:39:33,4ca764,RYR6WK  ,1865,472,44.639191,26.165183,304,293,Ryanair
2019-3-2 22:39:33,4ca764,RYR6WK  ,1865,472,44.639191,26.165183,304,294,Ryanair
2019-3-2 22:39:33,4ca764,RYR6WK  ,1873,472,44.640896,26.161596,304,296,Ryanair
2019-3-2 22:39:33,4ca764,RYR6WK  ,1881,483,44.640896,26.161596,304,299,Ryanair
2019-3-2 22:39:33,4ca764,RYR6WK  ,1881,483,44.640896,26.161596,304,301,Ryanair
2019-3-2 22:39:33,4ca764,RYR6WK  ,1881,483,44.640896,26.161596,304,302,Ryanair
2019-3-2 22:39:33,4ca764,RYR6WK  ,1881,483,44.640896,26.161596,304,303,Ryanair
2019-3-2 22:39:33,4ca764,RYR6WK  ,1888,483,44.640896,26.161596,304,304,Ryanair
2019-3-2 22:39:33,4ca764,RYR6WK  ,1888,483,44.640896,26.161596,304,306,Ryanair
2019-3-2 22:39:33,4ca764,RYR6WK  ,1888,483,44.640896,26.161596,304,308,Ryanair
2019-3-2 22:39:33,4ca764,RYR6WK  ,1896,483,44.644481,26.154227,304,310,Ryanair
2019-3-2 22:39:42,4ca764,RYR6WK  ,1896,483,44.644481,26.154227,304,312,Ryanair
2019-3-2 22:39:43,4ca764,RYR6WK  ,1896,507,44.644481,26.154227,306,313,Ryanair
2019-3-2 22:39:43,4ca764,RYR6WK  ,1903,507,44.644481,26.154227,306,315,Ryanair
2019-3-2 22:39:43,4ca764,RYR6WK  ,1903,507,44.644481,26.154227,306,316,Ryanair
2019-3-2 22:39:43,4ca764,RYR6WK  ,1903,507,44.644481,26.154227,306,319,Ryanair
2019-3-2 22:39:43,4ca764,RYR6WK  ,1903,507,44.644481,26.154227,306,321,Ryanair
2019-3-2 22:39:43,4ca764,RYR6WK  ,1911,507,44.644481,26.154227,306,322,Ryanair
2019-3-2 22:39:43,4ca764,RYR6WK  ,1911,507,44.644481,26.154227,306,323,Ryanair
2019-3-2 22:39:43,4ca764,RYR6WK  ,1911,507,44.644481,26.154227,306,324,Ryanair
2019-3-2 22:39:43,4ca764,RYR6WK  ,1911,518,44.644481,26.154227,307,325,Ryanair
2019-3-2 22:39:43,4ca764,RYR6WK  ,1911,518,44.644481,26.154227,307,326,Ryanair
2019-3-2 22:39:43,4ca764,RYR6WK  ,1911,518,44.644481,26.154227,307,327,Ryanair
2019-3-2 22:39:43,4ca764,RYR6WK  ,1911,522,44.644481,26.154227,307,328,Ryanair
2019-3-2 22:39:43,4ca764,RYR6WK  ,1911,522,44.644481,26.154227,307,329,Ryanair
2019-3-2 22:39:43,4ca764,RYR6WK  ,1911,527,44.644481,26.154227,307,330,Ryanair
2019-3-2 22:39:43,4ca764,RYR6WK  ,1911,527,44.644481,26.154227,307,331,Ryanair
2019-3-2 22:39:43,4ca764,RYR6WK  ,1941,527,44.644481,26.154227,307,332,Ryanair
2019-3-2 22:39:43,4ca764,RYR6WK  ,1941,527,44.644481,26.154227,307,333,Ryanair
2019-3-2 22:39:43,4ca764,RYR6WK  ,1941,527,44.652924,26.138044,307,334,Ryanair
2019-3-2 22:39:43,4ca764,RYR6WK  ,1941,527,44.652924,26.138044,307,335,Ryanair
2019-3-2 22:39:43,4ca764,RYR6WK  ,1949,527,44.652924,26.138044,307,337,Ryanair
2019-3-2 22:39:43,4ca764,RYR6WK  ,1949,527,44.652924,26.138044,307,339,Ryanair
2019-3-2 22:39:43,4ca764,RYR6WK  ,1957,527,44.652924,26.138044,307,340,Ryanair
2019-3-2 22:39:43,4ca764,RYR6WK  ,1957,527,44.652924,26.138044,307,341,Ryanair
2019-3-2 22:39:43,4ca764,RYR6WK  ,1957,527,44.652924,26.138044,307,342,Ryanair
2019-3-2 22:39:43,4ca764,RYR6WK  ,1957,527,44.652924,26.138044,307,343,Ryanair
2019-3-2 22:39:43,4ca764,RYR6WK  ,1980,557,44.652924,26.138044,308,345,Ryanair
2019-3-2 22:39:43,4ca764,RYR6WK  ,1980,557,44.652924,26.138044,308,346,Ryanair
2019-3-2 22:39:43,4ca764,RYR6WK  ,1980,563,44.652924,26.138044,308,347,Ryanair
2019-3-2 22:39:43,4ca764,RYR6WK  ,1980,563,44.652924,26.138044,308,348,Ryanair
2019-3-2 22:39:43,4ca764,RYR6WK  ,1995,563,44.652924,26.138044,308,349,Ryanair
2019-3-2 22:39:43,4ca764,RYR6WK  ,1995,563,44.652924,26.138044,308,350,Ryanair
2019-3-2 22:39:43,4ca764,RYR6WK  ,1995,563,44.652924,26.138044,308,351,Ryanair
2019-3-2 22:39:43,4ca764,RYR6WK  ,2002,563,44.660820,26.123680,308,352,Ryanair
2019-3-2 22:39:43,4ca764,RYR6WK  ,2002,564,44.660820,26.123680,308,353,Ryanair
2019-3-2 22:39:43,4ca764,RYR6WK  ,2010,564,44.661713,26.122088,308,354,Ryanair
2019-3-2 22:39:43,4ca764,RYR6WK  ,2018,564,44.661713,26.122088,308,356,Ryanair
2019-3-2 22:39:43,4ca764,RYR6WK  ,2048,564,44.661713,26.122088,308,357,Ryanair
2019-3-2 22:39:43,4ca764,RYR6WK  ,2063,564,44.661713,26.122088,308,358,Ryanair
2019-3-2 22:39:43,4ca764,RYR6WK  ,2063,568,44.661713,26.122088,309,359,Ryanair
2019-3-2 22:39:43,4ca764,RYR6WK  ,2063,568,44.661713,26.122088,309,360,Ryanair
2019-3-2 22:39:43,4ca764,RYR6WK  ,2117,568,44.666977,26.112802,309,361,Ryanair
2019-3-2 22:39:43,4ca764,RYR6WK  ,2117,568,44.666977,26.112802,309,362,Ryanair
2019-3-2 22:39:43,4ca764,RYR6WK  ,2117,568,44.666977,26.112802,309,363,Ryanair
2019-3-2 22:39:43,4ca764,RYR6WK  ,2117,568,44.666977,26.112802,309,364,Ryanair
2019-3-2 22:39:43,4ca764,RYR6WK  ,2216,568,44.666977,26.112802,309,367,Ryanair
2019-3-2 22:39:43,4ca764,RYR6WK  ,2223,568,44.666977,26.112802,309,368,Ryanair
2019-3-2 22:39:43,4ca764,RYR6WK  ,2231,568,44.666977,26.112802,309,370,Ryanair
2019-3-2 22:39:43,4ca764,RYR6WK  ,2231,568,44.666977,26.112802,309,372,Ryanair
2019-3-2 22:39:43,4ca764,RYR6WK  ,2254,568,44.666977,26.112802,309,373,Ryanair
2019-3-2 22:39:43,4ca764,RYR6WK  ,2269,568,44.666977,26.112802,309,374,Ryanair
2019-3-2 22:39:43,4ca764,RYR6WK  ,2269,570,44.666977,26.112802,309,376,Ryanair
2019-3-2 22:39:43,4ca764,RYR6WK  ,2284,570,44.666977,26.112802,309,377,Ryanair
2019-3-2 22:39:43,4ca764,RYR6WK  ,2284,570,44.666977,26.112802,309,379,Ryanair
2019-3-2 22:39:43,4ca764,RYR6WK  ,2292,570,44.666977,26.112802,309,380,Ryanair
2019-3-2 22:39:43,4ca764,RYR6WK  ,2292,570,44.666977,26.112802,309,381,Ryanair
2019-3-2 22:39:43,4ca764,RYR6WK  ,2299,570,44.666977,26.112802,309,382,Ryanair
2019-3-2 22:39:43,4ca764,RYR6WK  ,2307,570,44.666977,26.112802,309,383,Ryanair
2019-3-2 22:39:43,4ca764,RYR6WK  ,2307,570,44.666977,26.112802,309,384,Ryanair
2019-3-2 22:39:43,4ca764,RYR6WK  ,2330,570,44.666977,26.112802,309,385,Ryanair
2019-3-2 22:39:43,4ca764,RYR6WK  ,2337,570,44.666977,26.112802,309,387,Ryanair
2019-3-2 22:39:43,4ca764,RYR6WK  ,2337,570,44.666977,26.112802,309,390,Ryanair
2019-3-2 22:39:43,4ca764,RYR6WK  ,2345,570,44.666977,26.112802,309,391,Ryanair
2019-3-2 22:39:43,4ca764,RYR6WK  ,2368,570,44.666977,26.112802,309,392,Ryanair
2019-3-2 22:39:43,4ca764,RYR6WK  ,2398,570,44.666977,26.112802,309,393,Ryanair
2019-3-2 22:39:43,4ca764,RYR6WK  ,2398,570,44.666977,26.112802,309,394,Ryanair
2019-3-2 22:39:43,4ca764,RYR6WK  ,2421,570,44.666977,26.112802,309,395,Ryanair
2019-3-2 22:39:43,4ca764,RYR6WK  ,2429,570,44.683165,26.084357,309,397,Ryanair
2019-3-2 22:39:43,4ca764,RYR6WK  ,2429,570,44.683165,26.084357,309,398,Ryanair
2019-3-2 22:39:43,4ca764,RYR6WK  ,2444,570,44.683165,26.084357,309,401,Ryanair
2019-3-2 22:39:43,4ca764,RYR6WK  ,2459,570,44.683165,26.084357,309,402,Ryanair
2019-3-2 22:39:43,4ca764,RYR6WK  ,2475,570,44.683165,26.084357,309,404,Ryanair
2019-3-2 22:39:43,4ca764,RYR6WK  ,2475,570,44.683165,26.084357,309,405,Ryanair
2019-3-2 22:39:43,4ca764,RYR6WK  ,2475,583,44.683165,26.084357,309,407,Ryanair
2019-3-2 22:39:43,4ca764,RYR6WK  ,2475,583,44.683165,26.084357,309,409,Ryanair
2019-3-2 22:39:43,4ca764,RYR6WK  ,2475,583,44.683165,26.084357,309,410,Ryanair
2019-3-2 22:39:43,4ca764,RYR6WK  ,2513,583,44.683165,26.084357,309,411,Ryanair
2019-3-2 22:39:43,4ca764,RYR6WK  ,2535,583,44.683165,26.084357,309,414,Ryanair
2019-3-2 22:39:43,4ca764,RYR6WK  ,2543,583,44.683165,26.084357,309,416,Ryanair
2019-3-2 22:39:43,4ca764,RYR6WK  ,2543,583,44.683165,26.084357,309,419,Ryanair
2019-3-2 22:39:43,4ca764,RYR6WK  ,2558,583,44.683165,26.084357,309,421,Ryanair
2019-3-2 22:39:43,4ca764,RYR6WK  ,2558,587,44.683165,26.084357,309,422,Ryanair
2019-3-2 22:39:43,4ca764,RYR6WK  ,2581,587,44.683165,26.084357,309,424,Ryanair
2019-3-2 22:39:43,4ca764,RYR6WK  ,2589,587,44.683165,26.084357,309,425,Ryanair
2019-3-2 22:39:43,4ca764,RYR6WK  ,2612,587,44.683165,26.084357,309,427,Ryanair
2019-3-2 22:39:43,4ca764,RYR6WK  ,2619,587,44.683165,26.084357,309,430,Ryanair
2019-3-2 22:39:43,4ca764,RYR6WK  ,2619,587,44.683165,26.084357,309,431,Ryanair
2019-3-2 22:39:43,4ca764,RYR6WK  ,2619,587,44.683165,26.084357,309,432,Ryanair
2019-3-2 22:39:43,4ca764,RYR6WK  ,2650,587,44.683165,26.084357,309,433,Ryanair
2019-3-2 22:39:43,4ca764,RYR6WK  ,2680,587,44.683165,26.084357,309,435,Ryanair
2019-3-2 22:39:43,4ca764,RYR6WK  ,2680,587,44.683165,26.084357,309,436,Ryanair
2019-3-2 22:39:43,4ca764,RYR6WK  ,2680,587,44.683165,26.084357,309,437,Ryanair
2019-3-2 22:39:43,4ca764,RYR6WK  ,2680,587,44.683165,26.084357,309,438,Ryanair
2019-3-2 22:39:43,4ca764,RYR6WK  ,2680,587,44.683165,26.084357,309,439,Ryanair
2019-3-2 22:40:48,4ca764,RYR6WK  ,2749,587,44.683165,26.084357,309,440,Ryanair
2019-3-2 22:40:48,4ca764,RYR6WK  ,2749,587,44.683165,26.084357,309,441,Ryanair
2019-3-2 22:40:48,4ca764,RYR6WK  ,2787,587,44.683165,26.084357,309,443,Ryanair
2019-3-2 22:40:48,4ca764,RYR6WK  ,2787,600,44.683165,26.084357,308,444,Ryanair
2019-3-2 22:40:48,4ca764,RYR6WK  ,2787,600,44.683165,26.084357,308,445,Ryanair
2019-3-2 22:40:48,4ca764,RYR6WK  ,2810,600,44.683165,26.084357,308,446,Ryanair
2019-3-2 22:40:48,4ca764,RYR6WK  ,2810,600,44.683165,26.084357,308,448,Ryanair
2019-3-2 22:40:48,4ca764,RYR6WK  ,2817,600,44.683165,26.084357,308,449,Ryanair
2019-3-2 22:40:48,4ca764,RYR6WK  ,2825,600,44.683165,26.084357,308,450,Ryanair
2019-3-2 22:40:48,4ca764,RYR6WK  ,2825,600,44.683165,26.084357,308,451,Ryanair
2019-3-2 22:40:48,4ca764,RYR6WK  ,2825,600,44.683165,26.084357,308,452,Ryanair
2019-3-2 22:40:48,4ca764,RYR6WK  ,2871,600,44.683165,26.084357,308,453,Ryanair
2019-3-2 22:40:48,4ca764,RYR6WK  ,2886,600,44.683165,26.084357,308,454,Ryanair
2019-3-2 22:40:48,4ca764,RYR6WK  ,2901,600,44.683165,26.084357,308,456,Ryanair
2019-3-2 22:40:48,4ca764,RYR6WK  ,2916,600,44.683165,26.084357,308,459,Ryanair
2019-3-2 22:40:48,4ca764,RYR6WK  ,2924,600,44.683165,26.084357,308,460,Ryanair
2019-3-2 22:40:48,4ca764,RYR6WK  ,2931,600,44.683165,26.084357,308,461,Ryanair
2019-3-2 22:40:48,4ca764,RYR6WK  ,2954,600,44.683165,26.084357,308,463,Ryanair
2019-3-2 22:40:48,4ca764,RYR6WK  ,2977,600,44.683165,26.084357,308,464,Ryanair
2019-3-2 22:40:48,4ca764,RYR6WK  ,3069,600,44.683165,26.084357,308,465,Ryanair
2019-3-2 22:40:48,4ca764,RYR6WK  ,3069,600,44.683165,26.084357,308,466,Ryanair
2019-3-2 22:40:48,4ca764,RYR6WK  ,3076,600,44.683165,26.084357,308,467,Ryanair
2019-3-2 22:41:16,4ca764,RYR6WK  ,3190,600,44.683165,26.084357,308,469,Ryanair
2019-3-2 22:41:16,4ca764,RYR6WK  ,3206,600,44.683165,26.084357,308,470,Ryanair
2019-3-2 22:41:16,4ca764,RYR6WK  ,3206,600,44.683165,26.084357,308,471,Ryanair
2019-3-2 22:41:16,4ca764,RYR6WK  ,3206,625,44.683165,26.084357,308,473,Ryanair
2019-3-2 22:41:16,4ca764,RYR6WK  ,3320,625,44.683165,26.084357,308,474,Ryanair
2019-3-2 22:41:16,4ca764,RYR6WK  ,3320,625,44.683165,26.084357,308,475,Ryanair
2019-3-2 22:41:16,4ca764,RYR6WK  ,3327,625,44.683165,26.084357,308,476,Ryanair
2019-3-2 22:41:16,4ca764,RYR6WK  ,3335,625,44.683165,26.084357,308,477,Ryanair
2019-3-2 22:41:16,4ca764,RYR6WK  ,3358,625,44.683165,26.084357,308,478,Ryanair
2019-3-2 22:41:16,4ca764,RYR6WK  ,3358,625,44.683165,26.084357,308,479,Ryanair
2019-3-2 22:41:16,4ca764,RYR6WK  ,3388,625,44.683165,26.084357,308,480,Ryanair
2019-3-2 22:41:16,4ca764,RYR6WK  ,3404,625,44.683165,26.084357,308,481,Ryanair
2019-3-2 22:41:16,4ca764,RYR6WK  ,3480,625,44.683165,26.084357,308,482,Ryanair
2019-3-2 22:41:16,4ca764,RYR6WK  ,3480,625,44.683165,26.084357,308,483,Ryanair
2019-3-2 22:41:16,4ca764,RYR6WK  ,3533,625,44.683165,26.084357,308,484,Ryanair
2019-3-2 22:41:16,4ca764,RYR6WK  ,3533,635,44.683165,26.084357,308,485,Ryanair
2019-3-2 22:41:16,4ca764,RYR6WK  ,3533,635,44.683165,26.084357,308,486,Ryanair
2019-3-2 22:41:16,4ca764,RYR6WK  ,3762,635,44.683165,26.084357,308,487,Ryanair
2019-3-2 22:41:16,4ca764,RYR6WK  ,3815,635,44.683165,26.084357,308,488,Ryanair
2019-3-2 22:41:16,4ca764,RYR6WK  ,3815,635,44.683165,26.084357,308,489,Ryanair
2019-3-2 22:41:16,4ca764,RYR6WK  ,3815,648,44.683165,26.084357,308,490,Ryanair
2019-3-2 22:42:14,4ca764,RYR6WK  ,4089,648,44.683165,26.084357,308,491,Ryanair
2019-3-2 22:42:14,4ca764,RYR6WK  ,4112,648,44.683165,26.084357,308,492,Ryanair
2019-3-2 22:42:14,4ca764,RYR6WK  ,4112,648,44.683165,26.084357,308,493,Ryanair
2019-3-2 22:42:14,4ca764,RYR6WK  ,4150,648,44.683165,26.084357,308,494,Ryanair
2019-3-2 22:42:14,4ca764,RYR6WK  ,4173,648,44.683165,26.084357,308,495,Ryanair
2019-3-2 22:42:14,4ca764,RYR6WK  ,4196,648,44.683165,26.084357,308,496,Ryanair
2019-3-2 22:42:28,4ca764,RYR6WK  ,4196,648,44.683165,26.084357,308,497,Ryanair
2019-3-2 22:42:38,4ca764,RYR6WK  ,4196,648,44.683165,26.084357,308,498,Ryanair
2019-3-2 22:42:38,4ca764,RYR6WK  ,4538,648,44.683165,26.084357,308,499,Ryanair
2019-3-2 22:42:57,4ca764,RYR6WK  ,4538,648,44.683165,26.084357,308,500,Ryanair
2019-3-2 22:42:57,4ca764,RYR6WK  ,4668,648,44.683165,26.084357,308,501,Ryanair
2019-3-2 22:42:57,4ca764,RYR6WK  ,4683,648,44.683165,26.084357,308,502,Ryanair
2019-3-2 22:42:57,4ca764,RYR6WK  ,4698,648,44.683165,26.084357,308,503,Ryanair
