2019-3-2 23:3:29,06a0b4,,0,0,0.000000,0.000000,0,1,Unknown
2019-3-2 23:3:29,06a0b4,,12184,0,0.000000,0.000000,0,2,Unknown
2019-3-2 23:3:29,06a0b4,,12184,0,0.000000,0.000000,0,3,Unknown
2019-3-2 23:3:29,06a0b4,,12184,0,0.000000,0.000000,0,4,Unknown
2019-3-2 23:3:29,06a0b4,,12177,0,0.000000,0.000000,0,5,Unknown
2019-3-2 23:3:29,06a0b4,,12177,0,0.000000,0.000000,0,6,Unknown
2019-3-2 23:3:29,06a0b4,,12177,0,0.000000,0.000000,0,7,Unknown
2019-3-2 23:3:29,06a0b4,,12177,0,0.000000,0.000000,0,8,Unknown
2019-3-2 23:3:29,06a0b4,,12177,0,0.000000,0.000000,0,9,Unknown
2019-3-2 23:4:8,06a0b4,,12177,0,0.000000,0.000000,0,10,Unknown
2019-3-2 23:4:8,06a0b4,,12177,0,0.000000,0.000000,0,11,Unknown
2019-3-2 23:4:11,06a0b4,,12177,0,0.000000,0.000000,0,12,Unknown
2019-3-2 23:4:11,06a0b4,,12184,0,0.000000,0.000000,0,13,Unknown
2019-3-2 23:4:11,06a0b4,,12184,0,0.000000,0.000000,0,14,Unknown
2019-3-2 23:4:11,06a0b4,,12184,0,0.000000,0.000000,0,15,Unknown
2019-3-2 23:4:11,06a0b4,,12184,0,0.000000,0.000000,0,16,Unknown
2019-3-2 23:4:11,06a0b4,,12184,0,0.000000,0.000000,0,17,Unknown
2019-3-2 23:4:42,06a0b4,,12184,0,0.000000,0.000000,0,19,Unknown
2019-3-2 23:4:42,06a0b4,,12177,0,0.000000,0.000000,0,20,Unknown
2019-3-2 23:4:42,06a0b4,,12177,864,0.000000,0.000000,306,21,Unknown
2019-3-2 23:4:42,06a0b4,,12177,866,0.000000,0.000000,306,22,Unknown
2019-3-2 23:5:3,06a0b4,,12184,866,0.000000,0.000000,306,24,Unknown
2019-3-2 23:5:3,06a0b4,,12184,866,0.000000,0.000000,306,25,Unknown
2019-3-2 23:5:3,06a0b4,,12177,866,0.000000,0.000000,306,26,Unknown
2019-3-2 23:5:3,06a0b4,,12177,866,0.000000,0.000000,306,27,Unknown
2019-3-2 23:5:3,06a0b4,,12177,866,0.000000,0.000000,306,28,Unknown
2019-3-2 23:5:50,06a0b4,,12177,866,0.000000,0.000000,306,29,Unknown
2019-3-2 23:5:50,06a0b4,,12184,866,0.000000,0.000000,306,30,Unknown
2019-3-2 23:5:50,06a0b4,,12184,866,0.000000,0.000000,306,33,Unknown
2019-3-2 23:5:50,06a0b4,,12184,866,44.873937,26.395658,306,34,Unknown
2019-3-2 23:6:24,06a0b4,,12184,866,44.873937,26.395658,306,35,Unknown
2019-3-2 23:6:24,06a0b4,,12184,866,44.873937,26.395658,306,36,Unknown
2019-3-2 23:6:24,06a0b4,,12184,866,44.873937,26.395658,306,37,Unknown
2019-3-2 23:6:24,06a0b4,,12177,866,44.873937,26.395658,306,38,Unknown
2019-3-2 23:6:24,06a0b4,,12184,866,44.873937,26.395658,306,39,Unknown
2019-3-2 23:6:24,06a0b4,,12184,866,44.873937,26.395658,306,40,Unknown
2019-3-2 23:6:24,06a0b4,,12184,866,44.873937,26.395658,306,41,Unknown
2019-3-2 23:6:24,06a0b4,,12177,866,44.873937,26.395658,306,42,Unknown
2019-3-2 23:6:24,06a0b4,,12177,866,44.873937,26.395658,306,43,Unknown
2019-3-2 23:6:24,06a0b4,,12177,866,44.873937,26.395658,306,44,Unknown
2019-3-2 23:6:24,06a0b4,,12184,866,44.873937,26.395658,306,45,Unknown
2019-3-2 23:6:24,06a0b4,,12184,866,44.873937,26.395658,306,46,Unknown
2019-3-2 23:6:24,06a0b4,,12184,866,44.873937,26.395658,306,47,Unknown
2019-3-2 23:6:24,06a0b4,,12184,866,44.873937,26.395658,306,48,Unknown
2019-3-2 23:6:24,06a0b4,,12184,866,44.873937,26.395658,306,49,Unknown
2019-3-2 23:6:24,06a0b4,,12177,866,44.873937,26.395658,306,51,Unknown
2019-3-2 23:6:24,06a0b4,,12184,866,44.873937,26.395658,306,52,Unknown
2019-3-2 23:6:24,06a0b4,,12184,866,44.873937,26.395658,306,53,Unknown
2019-3-2 23:6:24,06a0b4,,12184,866,44.873937,26.395658,306,54,Unknown
2019-3-2 23:6:24,06a0b4,,12184,866,44.873937,26.395658,306,55,Unknown
2019-3-2 23:6:24,06a0b4,,12184,866,44.873937,26.395658,306,56,Unknown
2019-3-2 23:6:24,06a0b4,,12184,866,44.873937,26.395658,306,57,Unknown
2019-3-2 23:6:24,06a0b4,,12184,866,44.873937,26.395658,306,59,Unknown
2019-3-2 23:6:24,06a0b4,,12184,866,44.873937,26.395658,306,60,Unknown
2019-3-2 23:6:24,06a0b4,,12184,866,44.873937,26.395658,306,61,Unknown
2019-3-2 23:6:24,06a0b4,,12184,866,44.873937,26.395658,306,62,Unknown
2019-3-2 23:6:24,06a0b4,,12184,866,44.873937,26.395658,306,63,Unknown
2019-3-2 23:6:24,06a0b4,,12184,866,44.873937,26.395658,306,64,Unknown
2019-3-2 23:6:24,06a0b4,QTR8DR  ,12184,866,44.873937,26.395658,306,65,Qatar Airways
2019-3-2 23:6:24,06a0b4,QTR8DR  ,12184,866,44.873937,26.395658,306,66,Qatar Airways
2019-3-2 23:6:24,06a0b4,QTR8DR  ,12184,866,44.873937,26.395658,306,67,Qatar Airways
2019-3-2 23:6:24,06a0b4,QTR8DR  ,12184,866,44.873937,26.395658,306,68,Qatar Airways
2019-3-2 23:6:24,06a0b4,QTR8DR  ,12184,866,44.873937,26.395658,306,69,Qatar Airways
2019-3-2 23:8:9,06a0b4,QTR8DR  ,12184,866,44.873937,26.395658,306,70,Qatar Airways
2019-3-2 23:8:16,06a0b4,QTR8DR  ,12177,866,44.873937,26.395658,306,71,Qatar Airways
2019-3-2 23:8:16,06a0b4,QTR8DR  ,12177,866,44.873937,26.395658,306,72,Qatar Airways
2019-3-2 23:8:16,06a0b4,QTR8DR  ,12177,866,44.873937,26.395658,306,73,Qatar Airways
2019-3-2 23:8:16,06a0b4,QTR8DR  ,12184,866,44.873937,26.395658,306,74,Qatar Airways
2019-3-2 23:8:16,06a0b4,QTR8DR  ,12184,866,44.873937,26.395658,306,75,Qatar Airways
2019-3-2 23:8:16,06a0b4,QTR8DR  ,12184,866,44.873937,26.395658,306,76,Qatar Airways
2019-3-2 23:8:16,06a0b4,QTR8DR  ,12184,868,44.873937,26.395658,305,81,Qatar Airways
2019-3-2 23:8:16,06a0b4,QTR8DR  ,12184,868,44.873937,26.395658,305,82,Qatar Airways
2019-3-2 23:8:16,06a0b4,QTR8DR  ,12184,868,44.873937,26.395658,305,83,Qatar Airways
2019-3-2 23:8:16,06a0b4,QTR8DR  ,12184,868,44.873937,26.395658,305,84,Qatar Airways
2019-3-2 23:8:16,06a0b4,QTR8DR  ,12184,868,44.873937,26.395658,305,86,Qatar Airways
2019-3-2 23:8:16,06a0b4,QTR8DR  ,12184,868,44.873937,26.395658,305,87,Qatar Airways
2019-3-2 23:8:16,06a0b4,QTR8DR  ,12184,868,44.873937,26.395658,305,88,Qatar Airways
2019-3-2 23:8:16,06a0b4,QTR8DR  ,12184,868,44.873937,26.395658,305,89,Qatar Airways
2019-3-2 23:8:16,06a0b4,QTR8DR  ,12184,868,44.873937,26.395658,305,90,Qatar Airways
2019-3-2 23:8:16,06a0b4,QTR8DR  ,12184,868,44.873937,26.395658,305,91,Qatar Airways
2019-3-2 23:9:19,06a0b4,QTR8DR  ,12184,868,44.873937,26.395658,305,92,Qatar Airways
