2019-3-2 23:16:51,06a047,,0,820,0.000000,0.000000,306,1,Unknown
2019-3-2 23:16:51,06a047,,10966,820,0.000000,0.000000,306,2,Unknown
2019-3-2 23:16:51,06a047,,10966,820,0.000000,0.000000,306,3,Unknown
2019-3-2 23:16:51,06a047,,10966,820,0.000000,0.000000,306,4,Unknown
2019-3-2 23:16:51,06a047,,10966,820,0.000000,0.000000,306,12,Unknown
2019-3-2 23:16:51,06a047,,10966,820,0.000000,0.000000,306,14,Unknown
2019-3-2 23:18:16,06a047,,10966,820,0.000000,0.000000,306,20,Unknown
2019-3-2 23:18:16,06a047,,10966,820,0.000000,0.000000,306,22,Unknown
2019-3-2 23:18:16,06a047,,10966,820,0.000000,0.000000,306,23,Unknown
2019-3-2 23:18:16,06a047,,10966,820,0.000000,0.000000,306,26,Unknown
2019-3-2 23:18:16,06a047,,10966,820,0.000000,0.000000,306,32,Unknown
2019-3-2 23:18:16,06a047,,10966,820,44.586777,25.852269,306,38,Unknown
2019-3-2 23:18:16,06a047,,10966,820,44.586777,25.852269,306,40,Unknown
2019-3-2 23:18:16,06a047,,10966,820,44.586777,25.852269,306,46,Unknown
2019-3-2 23:18:16,06a047,,10966,820,44.586777,25.852269,306,49,Unknown
2019-3-2 23:18:16,06a047,,10966,818,44.586777,25.852269,306,51,Unknown
2019-3-2 23:18:16,06a047,,10966,818,44.586777,25.852269,306,52,Unknown
2019-3-2 23:18:16,06a047,,10966,818,44.586777,25.852269,306,58,Unknown
2019-3-2 23:18:16,06a047,,10966,818,44.586777,25.852269,306,63,Unknown
2019-3-2 23:18:16,06a047,,10966,818,44.590527,25.844868,306,64,Unknown
2019-3-2 23:18:27,06a047,,10966,818,44.590527,25.844868,306,72,Unknown
2019-3-2 23:18:27,06a047,,10966,818,44.590527,25.844868,306,74,Unknown
2019-3-2 23:18:27,06a047,,10966,818,44.590527,25.844868,306,77,Unknown
2019-3-2 23:18:27,06a047,,10966,818,44.590527,25.844868,306,78,Unknown
2019-3-2 23:18:27,06a047,,10966,818,44.590527,25.844868,306,82,Unknown
2019-3-2 23:18:27,06a047,,10966,818,44.590527,25.844868,306,88,Unknown
2019-3-2 23:18:27,06a047,,10966,818,44.590527,25.844868,306,89,Unknown
2019-3-2 23:18:27,06a047,,10966,818,44.590527,25.844868,306,91,Unknown
2019-3-2 23:18:27,06a047,,10966,818,44.590527,25.844868,306,96,Unknown
2019-3-2 23:18:27,06a047,,10966,818,44.593826,25.838340,306,103,Unknown
2019-3-2 23:18:27,06a047,,10966,818,44.593826,25.838340,306,104,Unknown
2019-3-2 23:18:27,06a047,,10966,818,44.593826,25.838340,306,106,Unknown
2019-3-2 23:18:27,06a047,,10966,818,44.593826,25.838340,306,112,Unknown
2019-3-2 23:18:27,06a047,,10966,818,44.593826,25.838340,306,117,Unknown
2019-3-2 23:18:27,06a047,,10966,818,44.593826,25.838340,306,119,Unknown
2019-3-2 23:18:27,06a047,,10966,818,44.593826,25.838340,306,124,Unknown
2019-3-2 23:18:27,06a047,,10966,818,44.593826,25.838340,306,126,Unknown
2019-3-2 23:18:27,06a047,,10966,818,44.593826,25.838340,306,127,Unknown
2019-3-2 23:18:27,06a047,,10966,818,44.593826,25.838340,306,131,Unknown
2019-3-2 23:18:27,06a047,,10966,818,44.597214,25.831669,306,133,Unknown
2019-3-2 23:18:27,06a047,,10966,818,44.597214,25.831669,306,136,Unknown
2019-3-2 23:18:27,06a047,,10966,818,44.602020,25.822187,306,141,Unknown
2019-3-2 23:18:27,06a047,,10966,818,44.602020,25.822187,306,145,Unknown
2019-3-2 23:18:27,06a047,,10966,818,44.602020,25.822187,306,146,Unknown
2019-3-2 23:18:27,06a047,,10966,818,44.602020,25.822187,306,150,Unknown
2019-3-2 23:18:27,06a047,,10966,818,44.603328,25.819680,306,156,Unknown
2019-3-2 23:18:27,06a047,,10966,818,44.603328,25.819680,306,158,Unknown
2019-3-2 23:18:27,06a047,,10966,818,44.603328,25.819680,306,159,Unknown
2019-3-2 23:18:27,06a047,,10966,818,44.603328,25.819680,306,166,Unknown
2019-3-2 23:18:27,06a047,,10966,818,44.604538,25.817217,306,168,Unknown
2019-3-2 23:18:27,06a047,,10966,818,44.604538,25.817217,306,169,Unknown
2019-3-2 23:18:27,06a047,,10966,818,44.604538,25.817217,306,170,Unknown
2019-3-2 23:18:27,06a047,,10966,818,44.604538,25.817217,306,171,Unknown
2019-3-2 23:18:27,06a047,,10966,818,44.604538,25.817217,306,172,Unknown
2019-3-2 23:18:27,06a047,,10966,818,44.604538,25.817217,306,173,Unknown
2019-3-2 23:18:27,06a047,,10966,818,44.608263,25.809899,306,174,Unknown
2019-3-2 23:18:27,06a047,,10966,818,44.608263,25.809899,306,177,Unknown
2019-3-2 23:18:27,06a047,,10966,818,44.609380,25.807689,306,178,Unknown
2019-3-2 23:18:27,06a047,,10966,818,44.609380,25.807689,306,179,Unknown
2019-3-2 23:18:27,06a047,,10966,820,44.609380,25.807689,306,180,Unknown
2019-3-2 23:18:27,06a047,,10966,820,44.609380,25.807689,306,185,Unknown
2019-3-2 23:18:27,06a047,QTR5FN  ,10966,820,44.609380,25.807689,306,190,Qatar Airways
2019-3-2 23:18:27,06a047,QTR5FN  ,10966,820,44.609380,25.807689,306,194,Qatar Airways
2019-3-2 23:18:27,06a047,QTR5FN  ,10966,820,44.609380,25.807689,306,196,Qatar Airways
2019-3-2 23:18:27,06a047,QTR5FN  ,10966,820,44.612453,25.801593,306,199,Qatar Airways
2019-3-2 23:18:27,06a047,QTR5FN  ,10966,820,44.612453,25.801593,306,201,Qatar Airways
2019-3-2 23:18:27,06a047,QTR5FN  ,10966,820,44.612453,25.801593,306,202,Qatar Airways
2019-3-2 23:18:27,06a047,QTR5FN  ,10966,820,44.612453,25.801593,306,204,Qatar Airways
2019-3-2 23:18:27,06a047,QTR5FN  ,10966,820,44.612453,25.801593,306,207,Qatar Airways
2019-3-2 23:18:27,06a047,QTR5FN  ,10966,820,44.612453,25.801593,306,209,Qatar Airways
2019-3-2 23:18:27,06a047,QTR5FN  ,10966,820,44.612453,25.801593,306,213,Qatar Airways
2019-3-2 23:18:27,06a047,QTR5FN  ,10966,820,44.612453,25.801593,306,215,Qatar Airways
2019-3-2 23:18:27,06a047,QTR5FN  ,10966,820,44.612453,25.801593,306,220,Qatar Airways
2019-3-2 23:18:27,06a047,QTR5FN  ,10966,820,44.612453,25.801593,306,229,Qatar Airways
2019-3-2 23:18:27,06a047,QTR5FN  ,10966,820,44.612453,25.801593,306,231,Qatar Airways
2019-3-2 23:18:27,06a047,QTR5FN  ,10966,820,44.612453,25.801593,306,232,Qatar Airways
2019-3-2 23:18:27,06a047,QTR5FN  ,10966,820,44.612453,25.801593,306,239,Qatar Airways
2019-3-2 23:18:27,06a047,QTR5FN  ,10966,820,44.612453,25.801593,306,243,Qatar Airways
2019-3-2 23:18:27,06a047,QTR5FN  ,10966,820,44.612453,25.801593,306,244,Qatar Airways
2019-3-2 23:18:27,06a047,QTR5FN  ,10966,820,44.618271,25.790078,306,252,Qatar Airways
2019-3-2 23:18:27,06a047,QTR5FN  ,10966,820,44.618271,25.790078,306,261,Qatar Airways
2019-3-2 23:18:27,06a047,QTR5FN  ,10966,820,44.618271,25.790078,306,263,Qatar Airways
2019-3-2 23:18:27,06a047,QTR5FN  ,10966,820,44.618271,25.790078,306,266,Qatar Airways
2019-3-2 23:18:27,06a047,QTR5FN  ,10966,820,44.618271,25.790078,306,273,Qatar Airways
2019-3-2 23:18:27,06a047,QTR5FN  ,10966,820,44.618271,25.790078,306,279,Qatar Airways
2019-3-2 23:18:27,06a047,QTR5FN  ,10966,820,44.618271,25.790078,306,281,Qatar Airways
2019-3-2 23:18:27,06a047,QTR5FN  ,10966,820,44.620739,25.785247,306,285,Qatar Airways
2019-3-2 23:18:27,06a047,QTR5FN  ,10966,820,44.620739,25.785247,306,295,Qatar Airways
2019-3-2 23:18:27,06a047,QTR5FN  ,10966,820,44.620739,25.785247,306,301,Qatar Airways
2019-3-2 23:18:27,06a047,QTR5FN  ,10966,820,44.620739,25.785247,306,305,Qatar Airways
2019-3-2 23:18:27,06a047,QTR5FN  ,10966,820,44.620739,25.785247,306,308,Qatar Airways
2019-3-2 23:18:27,06a047,QTR5FN  ,10966,820,44.620739,25.785247,306,312,Qatar Airways
2019-3-2 23:18:27,06a047,QTR5FN  ,10966,820,44.620739,25.785247,306,315,Qatar Airways
2019-3-2 23:18:27,06a047,QTR5FN  ,10966,820,44.620739,25.785247,306,316,Qatar Airways
2019-3-2 23:18:27,06a047,QTR5FN  ,10966,820,44.620739,25.785247,306,322,Qatar Airways
2019-3-2 23:18:27,06a047,QTR5FN  ,10966,820,44.620739,25.785247,306,326,Qatar Airways
2019-3-2 23:18:27,06a047,QTR5FN  ,10966,820,44.620739,25.785247,306,327,Qatar Airways
2019-3-2 23:18:27,06a047,QTR5FN  ,10966,820,44.620739,25.785247,306,330,Qatar Airways
2019-3-2 23:18:27,06a047,QTR5FN  ,10966,820,44.624359,25.778046,306,339,Qatar Airways
2019-3-2 23:18:27,06a047,QTR5FN  ,10966,820,44.624359,25.778046,306,343,Qatar Airways
2019-3-2 23:18:27,06a047,QTR5FN  ,10966,820,44.624359,25.778046,306,347,Qatar Airways
2019-3-2 23:18:27,06a047,QTR5FN  ,10966,820,44.624359,25.778046,306,350,Qatar Airways
2019-3-2 23:18:27,06a047,QTR5FN  ,10966,820,44.624359,25.778046,306,354,Qatar Airways
2019-3-2 23:18:27,06a047,QTR5FN  ,10966,820,44.624359,25.778046,306,358,Qatar Airways
2019-3-2 23:18:27,06a047,QTR5FN  ,10966,820,44.626602,25.773599,306,361,Qatar Airways
2019-3-2 23:18:27,06a047,QTR5FN  ,10966,820,44.626602,25.773599,306,363,Qatar Airways
2019-3-2 23:18:27,06a047,QTR5FN  ,10966,820,44.626602,25.773599,306,364,Qatar Airways
2019-3-2 23:18:27,06a047,QTR5FN  ,10966,820,44.627861,25.771112,306,367,Qatar Airways
2019-3-2 23:18:27,06a047,QTR5FN  ,10966,820,44.627861,25.771112,306,373,Qatar Airways
2019-3-2 23:18:27,06a047,QTR5FN  ,10966,820,44.627861,25.771112,306,374,Qatar Airways
2019-3-2 23:18:27,06a047,QTR5FN  ,10966,820,44.627861,25.771112,306,379,Qatar Airways
2019-3-2 23:18:27,06a047,QTR5FN  ,10966,820,44.627861,25.771112,306,382,Qatar Airways
2019-3-2 23:18:27,06a047,QTR5FN  ,10966,820,44.627861,25.771112,306,383,Qatar Airways
2019-3-2 23:18:27,06a047,QTR5FN  ,10966,820,44.627861,25.771112,306,388,Qatar Airways
2019-3-2 23:18:27,06a047,QTR5FN  ,10966,820,44.627861,25.771112,306,390,Qatar Airways
2019-3-2 23:18:27,06a047,QTR5FN  ,10966,820,44.627861,25.771112,306,391,Qatar Airways
2019-3-2 23:18:27,06a047,QTR5FN  ,10966,820,44.627861,25.771112,306,393,Qatar Airways
2019-3-2 23:18:27,06a047,QTR5FN  ,10966,820,44.627861,25.771112,306,394,Qatar Airways
2019-3-2 23:18:27,06a047,QTR5FN  ,10966,820,44.627861,25.771112,306,395,Qatar Airways
2019-3-2 23:18:27,06a047,QTR5FN  ,10966,820,44.627861,25.771112,306,396,Qatar Airways
