2019-3-2 22:25:16,4b1902,,11575,0,0.000000,0.000000,0,2,Unknown
2019-3-2 22:25:16,4b1902,,11575,0,0.000000,0.000000,0,3,Unknown
2019-3-2 22:25:16,4b1902,,11575,0,0.000000,0.000000,0,4,Unknown
2019-3-2 22:25:16,4b1902,,11575,0,0.000000,0.000000,0,6,Unknown
2019-3-2 22:25:16,4b1902,,11567,0,0.000000,0.000000,0,7,Unknown
2019-3-2 22:25:16,4b1902,,11567,0,0.000000,0.000000,0,8,Unknown
2019-3-2 22:25:16,4b1902,,11567,0,0.000000,0.000000,0,9,Unknown
2019-3-2 22:25:16,4b1902,,11575,0,0.000000,0.000000,0,10,Unknown
2019-3-2 22:25:16,4b1902,,11575,0,0.000000,0.000000,0,11,Unknown
2019-3-2 22:25:16,4b1902,,11575,0,0.000000,0.000000,0,12,Unknown
2019-3-2 22:25:16,4b1902,,11575,0,0.000000,0.000000,0,13,Unknown
2019-3-2 22:25:16,4b1902,,11575,0,0.000000,0.000000,0,14,Unknown
2019-3-2 22:25:16,4b1902,,11575,0,0.000000,0.000000,0,15,Unknown
2019-3-2 22:25:16,4b1902,,11575,0,0.000000,0.000000,0,16,Unknown
2019-3-2 22:25:16,4b1902,,11567,0,0.000000,0.000000,0,18,Unknown
2019-3-2 22:25:16,4b1902,,11567,0,0.000000,0.000000,0,20,Unknown
2019-3-2 22:25:16,4b1902,,11567,0,0.000000,0.000000,0,21,Unknown
2019-3-2 22:25:16,4b1902,,11567,0,0.000000,0.000000,0,22,Unknown
2019-3-2 22:25:16,4b1902,,11567,0,0.000000,0.000000,0,24,Unknown
2019-3-2 22:25:16,4b1902,,11567,0,0.000000,0.000000,0,25,Unknown
2019-3-2 22:25:16,4b1902,,11567,0,0.000000,0.000000,0,26,Unknown
2019-3-2 22:26:11,4b1902,,11567,0,0.000000,0.000000,0,27,Unknown
2019-3-2 22:26:11,4b1902,,11575,0,0.000000,0.000000,0,28,Unknown
2019-3-2 22:26:11,4b1902,,11567,0,0.000000,0.000000,0,29,Unknown
2019-3-2 22:26:25,4b1902,,11567,0,0.000000,0.000000,0,30,Unknown
2019-3-2 22:26:25,4b1902,,11567,0,0.000000,0.000000,0,32,Unknown
2019-3-2 22:26:25,4b1902,,11567,0,0.000000,0.000000,0,33,Unknown
2019-3-2 22:26:25,4b1902,,11575,0,0.000000,0.000000,0,34,Unknown
2019-3-2 22:26:25,4b1902,,11567,0,0.000000,0.000000,0,35,Unknown
2019-3-2 22:26:25,4b1902,,11575,0,0.000000,0.000000,0,37,Unknown
2019-3-2 22:26:25,4b1902,,11575,0,0.000000,0.000000,0,38,Unknown
2019-3-2 22:26:25,4b1902,,11575,0,0.000000,0.000000,0,39,Unknown
2019-3-2 22:26:25,4b1902,,11575,0,0.000000,0.000000,0,41,Unknown
2019-3-2 22:26:25,4b1902,,11575,0,0.000000,0.000000,0,42,Unknown
2019-3-2 22:26:25,4b1902,,11575,0,0.000000,0.000000,0,43,Unknown
2019-3-2 22:26:25,4b1902,,11575,0,0.000000,0.000000,0,44,Unknown
2019-3-2 22:26:25,4b1902,,11575,0,0.000000,0.000000,0,45,Unknown
2019-3-2 22:26:25,4b1902,,11575,0,0.000000,0.000000,0,46,Unknown
2019-3-2 22:26:25,4b1902,,11575,0,0.000000,0.000000,0,47,Unknown
2019-3-2 22:26:25,4b1902,,11575,0,0.000000,0.000000,0,48,Unknown
2019-3-2 22:26:25,4b1902,,11575,0,0.000000,0.000000,0,50,Unknown
2019-3-2 22:26:25,4b1902,,11575,0,0.000000,0.000000,0,51,Unknown
2019-3-2 22:26:25,4b1902,,11575,0,0.000000,0.000000,0,52,Unknown
2019-3-2 22:26:25,4b1902,,11575,0,0.000000,0.000000,0,53,Unknown
2019-3-2 22:26:25,4b1902,,11575,0,0.000000,0.000000,0,55,Unknown
2019-3-2 22:26:25,4b1902,,11575,0,0.000000,0.000000,0,56,Unknown
2019-3-2 22:26:25,4b1902,,11575,0,0.000000,0.000000,0,57,Unknown
2019-3-2 22:26:25,4b1902,,11575,0,0.000000,0.000000,0,58,Unknown
2019-3-2 22:26:25,4b1902,,11575,0,0.000000,0.000000,0,59,Unknown
2019-3-2 22:26:25,4b1902,,11575,0,0.000000,0.000000,0,60,Unknown
2019-3-2 22:26:25,4b1902,,11575,0,0.000000,0.000000,0,61,Unknown
2019-3-2 22:26:25,4b1902,,11567,0,0.000000,0.000000,0,63,Unknown
2019-3-2 22:26:25,4b1902,,11567,0,0.000000,0.000000,0,64,Unknown
2019-3-2 22:26:25,4b1902,,11567,0,0.000000,0.000000,0,66,Unknown
2019-3-2 22:26:25,4b1902,,11567,0,0.000000,0.000000,0,68,Unknown
2019-3-2 22:26:25,4b1902,,11567,0,0.000000,0.000000,0,69,Unknown
2019-3-2 22:26:25,4b1902,,11567,837,0.000000,0.000000,295,70,Unknown
2019-3-2 22:26:25,4b1902,,11575,837,0.000000,0.000000,295,71,Unknown
2019-3-2 22:26:25,4b1902,,11575,837,0.000000,0.000000,295,72,Unknown
2019-3-2 22:26:25,4b1902,,11575,837,0.000000,0.000000,295,73,Unknown
2019-3-2 22:26:25,4b1902,,11567,837,0.000000,0.000000,295,75,Unknown
2019-3-2 22:26:25,4b1902,,11567,835,0.000000,0.000000,295,76,Unknown
2019-3-2 22:26:25,4b1902,,11575,835,0.000000,0.000000,295,79,Unknown
2019-3-2 22:26:25,4b1902,,11567,835,0.000000,0.000000,295,82,Unknown
2019-3-2 22:26:25,4b1902,,11567,835,0.000000,0.000000,295,84,Unknown
2019-3-2 22:26:25,4b1902,,11575,835,0.000000,0.000000,295,85,Unknown
2019-3-2 22:26:25,4b1902,,11575,835,0.000000,0.000000,295,87,Unknown
2019-3-2 22:26:25,4b1902,,11575,835,0.000000,0.000000,295,88,Unknown
2019-3-2 22:26:25,4b1902,,11575,835,0.000000,0.000000,295,90,Unknown
2019-3-2 22:26:25,4b1902,,11575,835,0.000000,0.000000,295,91,Unknown
2019-3-2 22:27:0,4b1902,,11575,835,0.000000,0.000000,295,92,Unknown
2019-3-2 22:27:0,4b1902,,11575,835,0.000000,0.000000,295,93,Unknown
2019-3-2 22:27:0,4b1902,,11575,835,0.000000,0.000000,295,94,Unknown
2019-3-2 22:27:0,4b1902,,11575,835,0.000000,0.000000,295,95,Unknown
2019-3-2 22:27:0,4b1902,,11575,835,0.000000,0.000000,295,96,Unknown
2019-3-2 22:27:0,4b1902,,11575,835,0.000000,0.000000,295,97,Unknown
2019-3-2 22:27:0,4b1902,,11575,835,0.000000,0.000000,295,99,Unknown
2019-3-2 22:27:0,4b1902,,11575,835,0.000000,0.000000,295,100,Unknown
2019-3-2 22:27:5,4b1902,,11567,835,0.000000,0.000000,295,102,Unknown
2019-3-2 22:27:5,4b1902,,11567,835,0.000000,0.000000,295,103,Unknown
2019-3-2 22:27:5,4b1902,,11567,835,0.000000,0.000000,295,104,Unknown
2019-3-2 22:27:5,4b1902,,11567,835,0.000000,0.000000,295,106,Unknown
2019-3-2 22:27:5,4b1902,,11567,835,0.000000,0.000000,295,108,Unknown
2019-3-2 22:27:11,4b1902,,11567,835,0.000000,0.000000,295,109,Unknown
2019-3-2 22:27:16,4b1902,,11575,835,0.000000,0.000000,295,110,Unknown
2019-3-2 22:27:16,4b1902,,11575,835,0.000000,0.000000,295,111,Unknown
2019-3-2 22:27:16,4b1902,,11575,835,0.000000,0.000000,295,112,Unknown
2019-3-2 22:27:16,4b1902,,11575,835,0.000000,0.000000,295,113,Unknown
2019-3-2 22:27:16,4b1902,,11575,835,0.000000,0.000000,295,114,Unknown
