2019-3-3 0:33:20,47340d,,0,457,0.000000,0.000000,24,1,Unknown
2019-3-3 0:33:20,47340d,,0,457,0.000000,0.000000,24,2,Unknown
2019-3-3 0:33:20,47340d,,0,457,0.000000,0.000000,24,3,Unknown
2019-3-3 0:33:20,47340d,,0,457,0.000000,0.000000,24,4,Unknown
2019-3-3 0:33:20,47340d,,860,451,0.000000,0.000000,37,8,Unknown
2019-3-3 0:33:20,47340d,,860,451,0.000000,0.000000,37,9,Unknown
2019-3-3 0:33:20,47340d,,860,451,0.000000,0.000000,37,10,Unknown
2019-3-3 0:33:20,47340d,,860,451,0.000000,0.000000,37,12,Unknown
2019-3-3 0:33:20,47340d,,860,450,0.000000,0.000000,39,13,Unknown
2019-3-3 0:33:20,47340d,,860,450,0.000000,0.000000,39,14,Unknown
2019-3-3 0:36:11,47340d,,845,450,0.000000,0.000000,39,16,Unknown
2019-3-3 0:36:11,47340d,,845,450,0.000000,0.000000,39,17,Unknown
