2019-3-2 23:5:3,06a0c1,,0,0,0.000000,0.000000,0,1,Unknown
2019-3-2 23:5:3,06a0c1,,10958,0,0.000000,0.000000,0,2,Unknown
2019-3-2 23:5:3,06a0c1,,10958,0,0.000000,0.000000,0,3,Unknown
2019-3-2 23:5:3,06a0c1,,10958,0,0.000000,0.000000,0,4,Unknown
2019-3-2 23:5:3,06a0c1,,10958,0,0.000000,0.000000,0,5,Unknown
2019-3-2 23:5:3,06a0c1,,10958,0,0.000000,0.000000,0,6,Unknown
2019-3-2 23:5:3,06a0c1,,10958,0,0.000000,0.000000,0,7,Unknown
2019-3-2 23:5:3,06a0c1,,10966,0,0.000000,0.000000,0,8,Unknown
2019-3-2 23:5:3,06a0c1,,10966,0,0.000000,0.000000,0,9,Unknown
2019-3-2 23:5:3,06a0c1,,10966,0,0.000000,0.000000,0,10,Unknown
2019-3-2 23:5:3,06a0c1,,10966,0,0.000000,0.000000,0,11,Unknown
2019-3-2 23:5:3,06a0c1,,10966,0,0.000000,0.000000,0,12,Unknown
2019-3-2 23:5:3,06a0c1,,10958,0,0.000000,0.000000,0,14,Unknown
2019-3-2 23:5:50,06a0c1,,10966,0,0.000000,0.000000,0,15,Unknown
2019-3-2 23:5:50,06a0c1,,10958,0,0.000000,0.000000,0,16,Unknown
2019-3-2 23:6:17,06a0c1,,10958,0,0.000000,0.000000,0,17,Unknown
2019-3-2 23:6:17,06a0c1,,10958,0,0.000000,0.000000,0,18,Unknown
2019-3-2 23:6:17,06a0c1,,10966,0,0.000000,0.000000,0,19,Unknown
2019-3-2 23:6:17,06a0c1,,10966,0,0.000000,0.000000,0,20,Unknown
2019-3-2 23:6:24,06a0c1,,10966,0,0.000000,0.000000,0,21,Unknown
2019-3-2 23:6:24,06a0c1,,10966,842,0.000000,0.000000,306,23,Unknown
2019-3-2 23:6:24,06a0c1,,10958,842,0.000000,0.000000,306,24,Unknown
2019-3-2 23:6:24,06a0c1,,10966,842,0.000000,0.000000,306,25,Unknown
2019-3-2 23:6:24,06a0c1,,10966,842,0.000000,0.000000,306,26,Unknown
2019-3-2 23:6:24,06a0c1,,10966,842,0.000000,0.000000,306,27,Unknown
2019-3-2 23:6:24,06a0c1,,10966,842,0.000000,0.000000,306,28,Unknown
2019-3-2 23:6:24,06a0c1,,10958,842,44.854524,26.309710,306,29,Unknown
2019-3-2 23:6:24,06a0c1,,10958,842,44.854524,26.309710,306,31,Unknown
2019-3-2 23:6:24,06a0c1,,10958,842,44.854524,26.309710,306,32,Unknown
2019-3-2 23:6:24,06a0c1,,10958,842,44.854524,26.309710,306,33,Unknown
2019-3-2 23:6:24,06a0c1,,10958,842,44.854524,26.309710,306,34,Unknown
2019-3-2 23:6:24,06a0c1,,10958,842,44.858322,26.302250,306,35,Unknown
2019-3-2 23:6:24,06a0c1,,10958,842,44.858322,26.302250,306,36,Unknown
2019-3-2 23:6:24,06a0c1,,10958,842,44.858322,26.302250,306,37,Unknown
2019-3-2 23:6:24,06a0c1,,10958,842,44.858322,26.302250,306,38,Unknown
2019-3-2 23:6:24,06a0c1,,10958,842,44.858322,26.302250,306,39,Unknown
2019-3-2 23:6:24,06a0c1,,10958,840,44.858322,26.302250,306,41,Unknown
2019-3-2 23:6:24,06a0c1,QTR9PZ  ,10958,840,44.858322,26.302250,306,43,Qatar Airways
2019-3-2 23:6:24,06a0c1,QTR9PZ  ,10958,842,44.858322,26.302250,306,44,Qatar Airways
2019-3-2 23:6:24,06a0c1,QTR9PZ  ,10958,842,44.858322,26.302250,306,46,Qatar Airways
2019-3-2 23:6:24,06a0c1,QTR9PZ  ,10966,842,44.858322,26.302250,306,47,Qatar Airways
2019-3-2 23:6:24,06a0c1,QTR9PZ  ,10966,842,44.858322,26.302250,306,49,Qatar Airways
2019-3-2 23:6:24,06a0c1,QTR9PZ  ,10966,842,44.858322,26.302250,306,50,Qatar Airways
2019-3-2 23:6:24,06a0c1,QTR9PZ  ,10966,842,44.858322,26.302250,306,51,Qatar Airways
2019-3-2 23:6:24,06a0c1,QTR9PZ  ,10966,842,44.858322,26.302250,306,52,Qatar Airways
2019-3-2 23:6:24,06a0c1,QTR9PZ  ,10966,842,44.858322,26.302250,306,53,Qatar Airways
2019-3-2 23:6:24,06a0c1,QTR9PZ  ,10966,842,44.858322,26.302250,306,54,Qatar Airways
2019-3-2 23:6:24,06a0c1,QTR9PZ  ,10966,842,44.858322,26.302250,306,55,Qatar Airways
2019-3-2 23:6:24,06a0c1,QTR9PZ  ,10966,842,44.858322,26.302250,306,56,Qatar Airways
2019-3-2 23:6:24,06a0c1,QTR9PZ  ,10966,842,44.858322,26.302250,306,57,Qatar Airways
2019-3-2 23:6:24,06a0c1,QTR9PZ  ,10966,842,44.858322,26.302250,306,58,Qatar Airways
2019-3-2 23:6:24,06a0c1,QTR9PZ  ,10958,842,44.858322,26.302250,306,59,Qatar Airways
2019-3-2 23:6:24,06a0c1,QTR9PZ  ,10958,842,44.858322,26.302250,306,60,Qatar Airways
2019-3-2 23:6:24,06a0c1,QTR9PZ  ,10958,842,44.858322,26.302250,306,61,Qatar Airways
2019-3-2 23:6:24,06a0c1,QTR9PZ  ,10966,842,44.858322,26.302250,306,62,Qatar Airways
2019-3-2 23:6:24,06a0c1,QTR9PZ  ,10958,842,44.858322,26.302250,306,64,Qatar Airways
2019-3-2 23:8:9,06a0c1,QTR9PZ  ,10958,842,44.858322,26.302250,306,65,Qatar Airways
2019-3-2 23:8:15,06a0c1,QTR9PZ  ,10966,842,44.858322,26.302250,306,66,Qatar Airways
2019-3-2 23:8:16,06a0c1,QTR9PZ  ,10966,842,44.858322,26.302250,306,67,Qatar Airways
2019-3-2 23:8:16,06a0c1,QTR9PZ  ,10958,842,44.858322,26.302250,306,68,Qatar Airways
2019-3-2 23:8:16,06a0c1,QTR9PZ  ,10966,842,44.858322,26.302250,306,69,Qatar Airways
2019-3-2 23:8:16,06a0c1,QTR9PZ  ,10966,842,44.858322,26.302250,306,70,Qatar Airways
2019-3-2 23:8:16,06a0c1,QTR9PZ  ,10966,842,44.858322,26.302250,306,71,Qatar Airways
2019-3-2 23:8:16,06a0c1,QTR9PZ  ,10958,842,44.858322,26.302250,306,72,Qatar Airways
2019-3-2 23:8:16,06a0c1,QTR9PZ  ,10958,842,44.858322,26.302250,306,73,Qatar Airways
2019-3-2 23:8:16,06a0c1,QTR9PZ  ,10966,842,44.858322,26.302250,306,75,Qatar Airways
2019-3-2 23:8:16,06a0c1,QTR9PZ  ,10966,842,44.858322,26.302250,306,76,Qatar Airways
2019-3-2 23:8:16,06a0c1,QTR9PZ  ,10966,842,44.858322,26.302250,306,77,Qatar Airways
2019-3-2 23:8:16,06a0c1,QTR9PZ  ,10958,842,44.858322,26.302250,306,79,Qatar Airways
2019-3-2 23:8:16,06a0c1,QTR9PZ  ,10958,842,44.858322,26.302250,306,80,Qatar Airways
2019-3-2 23:8:16,06a0c1,QTR9PZ  ,10958,842,44.858322,26.302250,306,81,Qatar Airways
2019-3-2 23:8:16,06a0c1,QTR9PZ  ,10958,842,44.858322,26.302250,306,82,Qatar Airways
2019-3-2 23:8:16,06a0c1,QTR9PZ  ,10966,842,44.858322,26.302250,306,83,Qatar Airways
2019-3-2 23:8:16,06a0c1,QTR9PZ  ,10958,842,44.858322,26.302250,306,86,Qatar Airways
2019-3-2 23:8:16,06a0c1,QTR9PZ  ,10958,842,44.858322,26.302250,306,87,Qatar Airways
